AwayTeam,HomeTeam,PredictedWinner,PredictedMarginOfVictory
FCS,Baylor,Baylor,32
FCS,Nebraska,Nebraska,26
FCS,Louisville,Louisville,25
FCS,Marshall,Marshall,25
FCS,TexasAM,TexasAM,24
FresnoState,Utah,Utah,22
LouisianaTech,LouisianaLafayette,LouisianaLafayette,22
FCS,FloridaState,FloridaState,21
FloridaAtlantic,Alabama,Alabama,21
FCS,Wisconsin,Wisconsin,21
FCS,OklahomaState,OklahomaState,20
Duke,Troy,Duke,18
KansasState,IowaState,KansasState,17
FCS,LSU,LSU,17
SouthernMethodist,NorthTexas,NorthTexas,16
Oklahoma,Tulsa,Oklahoma,15
OleMiss,Vanderbilt,OleMiss,15
FCS,Clemson,Clemson,14
EastCarolina,SouthCarolina,EastCarolina,13
Navy,Temple,Temple,13
FCS,Washington,Washington,13
SanJoseState,Auburn,Auburn,13
FCS,MiamiFL,MiamiFL,12
FCS,WakeForest,WakeForest,12
UAB,MississippiState,MississippiState,12
FCS,BowlingGreen,BowlingGreen,12
FCS,Houston,Houston,12
FCS,Virginia,Virginia,12
FCS,Arkansas,Arkansas,11
FCS,MiamiOH,MiamiOH,11
MichiganState,Oregon,Oregon,11
Ohio,Kentucky,Kentucky,10
ArkansasState,Tennessee,Tennessee,10
FCS,WestVirginia,WestVirginia,10
VirginiaTech,OhioState,OhioState,10
FCS,California,California,9
FCS,FCS,FCS,9
FCS,FCS,FCS,9
Missouri,Toledo,Toledo,9
FCS,UtahState,UtahState,9
FCS,NorthCarolinaState,NorthCarolinaState,8
SouthAlabama,KentState,KentState,8
Idaho,LouisianaMonroe,LouisianaMonroe,8
SanDiegoState,NorthCarolina,NorthCarolina,8
FCS,Connecticut,Connecticut,8
FCS,Rutgers,Rutgers,7
EasternMichigan,Florida,Florida,7
NorthernIllinois,Northwestern,NorthernIllinois,7
FCS,UNLV,UNLV,7
Memphis,UCLA,UCLA,7
WesternKentucky,Illinois,WesternKentucky,6
Maryland,SouthFlorida,Maryland,6
ArizonaState,NewMexico,ArizonaState,6
BallState,Iowa,Iowa,6
Michigan,NotreDame,NotreDame,5
FCS,Kansas,Kansas,5
Akron,PennState,Akron,5
GeorgiaTech,Tulane,Tulane,4
Colorado,Massachusetts,Colorado,4
USC,Stanford,Stanford,4
Buffalo,Army,Army,3
CentralMichigan,Purdue,Purdue,3
NewMexicoState,GeorgiaState,NewMexicoState,2
OregonState,Hawaii,Hawaii,2
ColoradoState,BoiseState,ColoradoState,2
WashingtonState,Nevada,WashingtonState,1
Pittsburgh,BostonCollege,BostonCollege,1
TexasTech,UTEP,TexasTech,1
AirForce,Wyoming,AirForce,0
