AwayTeam,HomeTeam,PredictedWinner,PredictedMarginOfVictory
Kansas,Baylor,Baylor,29
Oklahoma,IowaState,Oklahoma,28
Troy,GeorgiaSouthern,GeorgiaSouthern,27
Illinois,OhioState,OhioState,27
Tulsa,Memphis,Memphis,24
Florida,Georgia,Georgia,22
OklahomaState,KansasState,KansasState,20
Purdue,Nebraska,Nebraska,19
NorthCarolina,MiamiFL,MiamiFL,17
Arkansas,MississippiState,MississippiState,17
LouisianaMonroe,TexasAM,TexasAM,17
NewMexico,UNLV,NewMexico,16
CentralMichigan,EasternMichigan,CentralMichigan,15
ArkansasState,Idaho,ArkansasState,14
Wisconsin,Rutgers,Wisconsin,13
USC,WashingtonState,USC,13
UCF,Connecticut,UCF,12
BrighamYoung,MiddleTennessee,MiddleTennessee,11
AirForce,Army,AirForce,11
Virginia,GeorgiaTech,GeorgiaTech,11
Texas,TexasTech,Texas,11
WesternMichigan,MiamiOH,WesternMichigan,10
SouthernMiss,UTEP,UTEP,10
Stanford,Oregon,Oregon,9
TexasState,NewMexicoState,TexasState,9
TCU,WestVirginia,TCU,8
Auburn,OleMiss,OleMiss,8
Houston,SouthFlorida,Houston,7
Cincinnati,Tulane,Cincinnati,6
Northwestern,Iowa,Iowa,6
Indiana,Michigan,Michigan,6
Washington,Colorado,Washington,6
SanDiegoState,Nevada,Nevada,6
Kentucky,Missouri,Missouri,6
EastCarolina,Temple,EastCarolina,6
BostonCollege,VirginiaTech,VirginiaTech,5
UAB,FloridaAtlantic,UAB,5
Arizona,UCLA,Arizona,4
Wyoming,FresnoState,FresnoState,4
WesternKentucky,LouisianaTech,WesternKentucky,4
FloridaState,Louisville,Louisville,4
ColoradoState,SanJoseState,ColoradoState,4
Utah,ArizonaState,Utah,3
Rice,FloridaInternational,Rice,2
OldDominion,Vanderbilt,OldDominion,2
Duke,Pittsburgh,Duke,2
California,OregonState,OregonState,2
UtahState,Hawaii,UtahState,2
GeorgiaState,AppalachianState,AppalachianState,2
Maryland,PennState,PennState,1
SouthAlabama,LouisianaLafayette,LouisianaLafayette,1
NotreDame,Navy,NotreDame,1
Tennessee,SouthCarolina,Tennessee,1
NorthCarolinaState,Syracuse,Syracuse,0
