AwayTeam,HomeTeam,PredictedWinner,PredictedMarginOfVictory
FCS,SouthCarolina,SouthCarolina,26
Colorado,USC,USC,22
Marshall,FloridaInternational,Marshall,21
WesternKentucky,FloridaAtlantic,WesternKentucky,21
FresnoState,BoiseState,BoiseState,21
IowaState,Texas,Texas,17
Rutgers,OhioState,OhioState,16
OklahomaState,TCU,TCU,16
Baylor,WestVirginia,Baylor,14
Tulane,UCF,UCF,14
LouisianaLafayette,TexasState,TexasState,13
NorthCarolinaState,Louisville,Louisville,13
NewMexico,AirForce,AirForce,13
MichiganState,Indiana,MichiganState,12
Tennessee,OleMiss,OleMiss,12
GeorgiaState,SouthAlabama,SouthAlabama,12
Cincinnati,SouthernMethodist,Cincinnati,11
Virginia,Duke,Duke,11
Purdue,Minnesota,Minnesota,11
MiamiOH,NorthernIllinois,NorthernIllinois,10
Missouri,Florida,Florida,10
UtahState,ColoradoState,ColoradoState,9
TexasAM,Alabama,Alabama,9
BallState,CentralMichigan,CentralMichigan,8
SouthernMiss,NorthTexas,NorthTexas,8
KansasState,Oklahoma,Oklahoma,8
Temple,Houston,Temple,8
Washington,Oregon,Oregon,7
NewMexicoState,Idaho,NewMexicoState,7
AppalachianState,Troy,Troy,6
UCLA,California,UCLA,6
Akron,Ohio,Akron,5
Iowa,Maryland,Maryland,5
Nevada,BrighamYoung,BrighamYoung,5
Utah,OregonState,Utah,5
EasternMichigan,Massachusetts,Massachusetts,5
Hawaii,SanDiegoState,SanDiegoState,4
Nebraska,Northwestern,Nebraska,4
Georgia,Arkansas,Georgia,4
SouthFlorida,Tulsa,Tulsa,4
Stanford,ArizonaState,ArizonaState,3
SanJoseState,Wyoming,SanJoseState,2
UTSA,LouisianaTech,LouisianaTech,2
Kentucky,LSU,Kentucky,2
Kansas,TexasTech,TexasTech,2
GeorgiaTech,NorthCarolina,NorthCarolina,2
VirginiaTech,Pittsburgh,Pittsburgh,2
Syracuse,WakeForest,WakeForest,1
UAB,MiddleTennessee,MiddleTennessee,1
WesternMichigan,BowlingGreen,WesternMichigan,1
Army,KentState,Army,0
Clemson,BostonCollege,BostonCollege,0
NotreDame,FloridaState,FloridaState,0
