AwayTeam,HomeTeam,PredictedWinner,PredictedMarginOfVictory
Baylor,TexasTech,Baylor,26
Connecticut,Memphis,Memphis,24
Kansas,KansasState,KansasState,22
Oregon,OregonState,Oregon,21
WestVirginia,IowaState,WestVirginia,20
Houston,SouthernMethodist,Houston,20
Toledo,EasternMichigan,Toledo,20
Idaho,AppalachianState,AppalachianState,18
Tennessee,Vanderbilt,Tennessee,17
Michigan,OhioState,OhioState,17
NewMexicoState,ArkansasState,ArkansasState,17
WesternKentucky,Marshall,Marshall,16
TexasState,GeorgiaState,TexasState,16
WakeForest,Duke,Duke,15
EastCarolina,Tulsa,EastCarolina,15
LouisianaMonroe,GeorgiaSouthern,GeorgiaSouthern,15
GeorgiaTech,Georgia,Georgia,14
Kentucky,Louisville,Louisville,14
Nevada,UNLV,Nevada,14
LouisianaLafayette,Troy,LouisianaLafayette,14
Minnesota,Wisconsin,Wisconsin,13
Utah,Colorado,Utah,11
UCF,SouthFlorida,UCF,11
MichiganState,PennState,MichiganState,10
UtahState,BoiseState,BoiseState,10
Navy,SouthAlabama,Navy,10
SanJoseState,SanDiegoState,SanDiegoState,9
SouthCarolina,Clemson,Clemson,9
ArizonaState,Arizona,Arizona,8
Auburn,Alabama,Alabama,8
Syracuse,BostonCollege,BostonCollege,8
UAB,SouthernMiss,UAB,8
Pittsburgh,MiamiFL,MiamiFL,8
TCU,Texas,TCU,7
Stanford,UCLA,UCLA,7
Illinois,Northwestern,Northwestern,7
Florida,FloridaState,FloridaState,7
Akron,KentState,Akron,7
NotreDame,USC,USC,6
Wyoming,NewMexico,NewMexico,6
Rice,LouisianaTech,LouisianaTech,6
Rutgers,Maryland,Maryland,5
BrighamYoung,California,BrighamYoung,4
MississippiState,OleMiss,OleMiss,4
Nebraska,Iowa,Nebraska,4
NorthCarolinaState,NorthCarolina,NorthCarolina,4
Washington,WashingtonState,Washington,4
OldDominion,FloridaAtlantic,OldDominion,4
Purdue,Indiana,Indiana,3
NorthernIllinois,WesternMichigan,WesternMichigan,3
NorthTexas,UTSA,UTSA,3
BallState,BowlingGreen,BowlingGreen,3
ColoradoState,AirForce,AirForce,2
LSU,TexasAM,TexasAM,2
Arkansas,Missouri,Arkansas,2
Virginia,VirginiaTech,VirginiaTech,2
Hawaii,FresnoState,FresnoState,1
Buffalo,Massachusetts,Buffalo,1
Ohio,MiamiOH,Ohio,1
MiddleTennessee,UTEP,UTEP,1
Cincinnati,Temple,Cincinnati,0
