AwayTeam,HomeTeam,PredictedWinner,Result,PredictionConfidence,ActualMoV
Illinois,LouisianaTech,LouisianaTech,RIGHT,13.000,17
Maryland,Stanford,Stanford,RIGHT,12.000,24
CentralMichigan,WesternKentucky,WesternKentucky,RIGHT,11.000,1
Alabama,OhioState,OhioState,RIGHT,9.000,7
Oregon,OhioState,OhioState,RIGHT,9.000,22
Arkansas,Texas,Arkansas,RIGHT,8.000,24
FresnoState,Rice,Rice,RIGHT,7.000,24
NotreDame,LSU,LSU,WRONG,7.000,-3
Iowa,Tennessee,Tennessee,RIGHT,7.000,17
Auburn,Wisconsin,Wisconsin,RIGHT,6.000,3
Nebraska,USC,USC,RIGHT,6.000,3
BrighamYoung,Memphis,Memphis,RIGHT,6.000,7
Washington,OklahomaState,Washington,WRONG,6.000,-8
WesternMichigan,AirForce,AirForce,RIGHT,5.000,14
BoiseState,Arizona,Arizona,WRONG,5.000,-8
NorthCarolinaState,UCF,UCF,WRONG,5.000,-7
MiamiFL,SouthCarolina,MiamiFL,WRONG,5.000,-3
Rutgers,NorthCarolina,NorthCarolina,WRONG,5.000,-19
Houston,Pittsburgh,Pittsburgh,WRONG,5.000,-1
TexasAM,WestVirginia,WestVirginia,WRONG,4.000,-8
OleMiss,TCU,TCU,RIGHT,4.000,39
Oregon,FloridaState,Oregon,RIGHT,4.000,39
Oklahoma,Clemson,Oklahoma,WRONG,4.000,-34
Georgia,Louisville,Georgia,RIGHT,4.000,23
EastCarolina,Florida,Florida,RIGHT,3.000,8
Utah,ColoradoState,ColoradoState,WRONG,3.000,-35
Marshall,NorthernIllinois,Marshall,RIGHT,3.000,29
BostonCollege,PennState,PennState,RIGHT,3.000,1
KansasState,UCLA,UCLA,RIGHT,2.000,5
MichiganState,Baylor,Baylor,WRONG,2.000,-1
Navy,SanDiegoState,Navy,RIGHT,2.000,1
MississippiState,GeorgiaTech,GeorgiaTech,RIGHT,2.000,15
SouthAlabama,BowlingGreen,BowlingGreen,RIGHT,1.000,5
Missouri,Minnesota,Minnesota,WRONG,1.000,-16
UtahState,UTEP,UTEP,WRONG,1.000,-15
Cincinnati,VirginiaTech,VirginiaTech,RIGHT,1.000,16
Nevada,LouisianaLafayette,LouisianaLafayette,RIGHT,1.000,13
ArizonaState,Duke,Duke,WRONG,1.000,-5
Toledo,ArkansasState,ArkansasState,WRONG,1.000,-19
