AwayTeam,HomeTeam,PredictedWinner,Result,PredictionConfidence,ActualMoV
FCS,Missouri,Missouri,RIGHT,34.000,20
FCS,Stanford,Stanford,RIGHT,33.000,45
SouthernMethodist,Baylor,Baylor,RIGHT,32.000,45
FCS,Oregon,Oregon,RIGHT,32.000,49
SouthernMiss,MississippiState,MississippiState,RIGHT,31.000,49
FCS,ArizonaState,ArizonaState,RIGHT,30.000,31
Marshall,MiamiOH,Marshall,RIGHT,30.000,15
FCS,MichiganState,MichiganState,RIGHT,29.000,38
WestVirginia,Alabama,Alabama,RIGHT,27.000,10
FCS,NorthCarolina,NorthCarolina,RIGHT,25.000,27
FCS,EastCarolina,EastCarolina,RIGHT,25.000,45
FCS,Duke,Duke,RIGHT,25.000,39
LouisianaTech,Oklahoma,Oklahoma,RIGHT,25.000,32
FCS,KansasState,KansasState,RIGHT,25.000,39
Arkansas,Auburn,Auburn,RIGHT,25.000,24
FCS,Iowa,Iowa,RIGHT,24.000,8
FCS,GeorgiaTech,GeorgiaTech,RIGHT,24.000,19
FCS,NorthernIllinois,NorthernIllinois,RIGHT,24.000,52
Washington,Hawaii,Washington,RIGHT,24.000,1
FCS,VirginiaTech,VirginiaTech,RIGHT,23.000,25
FCS,TexasTech,TexasTech,RIGHT,23.000,7
FCS,Minnesota,Minnesota,RIGHT,23.000,22
FCS,Indiana,Indiana,RIGHT,22.000,18
FCS,BallState,BallState,RIGHT,21.000,20
FCS,OregonState,OregonState,RIGHT,21.000,15
FCS,Toledo,Toledo,RIGHT,21.000,34
FCS,Pittsburgh,Pittsburgh,RIGHT,21.000,62
UCLA,Virginia,UCLA,RIGHT,20.000,8
FCS,Utah,Utah,RIGHT,20.000,42
FCS,ArkansasState,ArkansasState,RIGHT,19.000,27
FCS,LouisianaLafayette,LouisianaLafayette,RIGHT,18.000,39
FCS,Syracuse,Syracuse,RIGHT,18.000,1
BostonCollege,Massachusetts,BostonCollege,RIGHT,18.000,23
FCS,SanJoseState,SanJoseState,RIGHT,18.000,32
California,Northwestern,Northwestern,WRONG,17.000,-7
FCS,Maryland,Maryland,RIGHT,16.000,45
FCS,Buffalo,Buffalo,RIGHT,16.000,10
FCS,Nevada,Nevada,RIGHT,15.000,9
MiamiFL,Louisville,Louisville,RIGHT,15.000,18
FCS,TCU,TCU,RIGHT,15.000,34
FCS,Illinois,Illinois,RIGHT,14.000,11
UNLV,Arizona,Arizona,RIGHT,14.000,45
FCS,MiddleTennessee,MiddleTennessee,RIGHT,14.000,54
BrighamYoung,Connecticut,BrighamYoung,RIGHT,14.000,25
FCS,SanDiegoState,SanDiegoState,RIGHT,14.000,31
Temple,Vanderbilt,Vanderbilt,WRONG,13.000,-30
FCS,IowaState,IowaState,WRONG,12.000,-20
FCS,CentralMichigan,CentralMichigan,RIGHT,11.000,4
FCS,Wyoming,Wyoming,RIGHT,11.000,5
FCS,Akron,Akron,RIGHT,11.000,41
UTEP,NewMexico,NewMexico,WRONG,10.000,-7
FCS,Kentucky,Kentucky,RIGHT,10.000,45
PennState,UCF,UCF,WRONG,10.000,-2
UTSA,Houston,Houston,WRONG,10.000,-20
ColoradoState,Colorado,ColoradoState,RIGHT,9.000,14
Troy,UAB,Troy,WRONG,9.000,-38
FloridaState,OklahomaState,FloridaState,RIGHT,9.000,6
FCS,TexasState,TexasState,RIGHT,9.000,65
TexasAM,SouthCarolina,SouthCarolina,WRONG,9.000,-24
FloridaAtlantic,Nebraska,Nebraska,RIGHT,8.000,48
FCS,Memphis,Memphis,RIGHT,8.000,63
OhioState,Navy,OhioState,RIGHT,8.000,17
Tulane,Tulsa,Tulane,WRONG,8.000,-7
FCS,SouthFlorida,SouthFlorida,RIGHT,7.000,5
UtahState,Tennessee,UtahState,WRONG,7.000,-31
WesternMichigan,Purdue,Purdue,RIGHT,6.000,9
FresnoState,USC,USC,RIGHT,5.000,39
BowlingGreen,WesternKentucky,BowlingGreen,WRONG,5.000,-28
Ohio,KentState,Ohio,RIGHT,5.000,3
FCS,EasternMichigan,FCS,WRONG,5.000,-3
FCS,NewMexicoState,NewMexicoState,RIGHT,4.000,18
Rutgers,WashingtonState,WashingtonState,WRONG,4.000,-3
Wisconsin,LSU,LSU,RIGHT,4.000,4
BoiseState,OleMiss,OleMiss,RIGHT,4.000,22
FCS,AirForce,AirForce,RIGHT,3.000,28
Rice,NotreDame,NotreDame,RIGHT,3.000,31
WakeForest,LouisianaMonroe,WakeForest,WRONG,1.000,-7
NorthTexas,Texas,NorthTexas,WRONG,1.000,-31
Clemson,Georgia,Georgia,RIGHT,1.000,24
FCS,GeorgiaState,FCS,WRONG,0.000,-1
FCS,FloridaInternational,FCS,RIGHT,0.000,2
