AwayTeam,HomeTeam,PredictedWinner,Result,PredictionConfidence,ActualMoV
TexasAM,SouthernMethodist,TexasAM,RIGHT,45.000,52
Troy,Georgia,Georgia,RIGHT,32.000,66
FCS,NorthCarolinaState,NorthCarolinaState,RIGHT,26.000,42
MiamiOH,Cincinnati,Cincinnati,RIGHT,24.000,7
LouisianaLafayette,BoiseState,BoiseState,RIGHT,24.000,25
FCS,UCF,UCF,RIGHT,23.000,34
GeorgiaSouthern,SouthAlabama,GeorgiaSouthern,RIGHT,22.000,22
FCS,Temple,Temple,RIGHT,22.000,59
FCS,BostonCollege,BostonCollege,WRONG,19.000,0
NorthernIllinois,Arkansas,Arkansas,RIGHT,19.000,38
FloridaAtlantic,Wyoming,Wyoming,RIGHT,19.000,1
Clemson,FloridaState,FloridaState,RIGHT,18.000,6
Hawaii,Colorado,Hawaii,WRONG,18.000,-9
FCS,Northwestern,Northwestern,RIGHT,18.000,17
MiamiFL,Nebraska,Nebraska,RIGHT,17.000,10
FCS,Purdue,Purdue,RIGHT,17.000,22
EasternMichigan,MichiganState,MichiganState,RIGHT,16.000,59
SouthCarolina,Vanderbilt,SouthCarolina,RIGHT,16.000,14
Louisville,FloridaInternational,Louisville,RIGHT,16.000,31
Massachusetts,PennState,PennState,RIGHT,16.000,41
California,Arizona,Arizona,RIGHT,15.000,4
FCS,Buffalo,Buffalo,RIGHT,13.000,29
Tulane,Duke,Duke,RIGHT,12.000,34
Virginia,BrighamYoung,BrighamYoung,RIGHT,12.000,8
MiddleTennessee,Memphis,Memphis,RIGHT,12.000,19
Oregon,WashingtonState,Oregon,RIGHT,12.000,7
FCS,WesternMichigan,WesternMichigan,RIGHT,11.000,31
UNLV,Houston,Houston,RIGHT,11.000,33
Iowa,Pittsburgh,Pittsburgh,WRONG,11.000,-4
MississippiState,LSU,MississippiState,RIGHT,10.000,5
Oklahoma,WestVirginia,Oklahoma,RIGHT,10.000,12
BallState,Toledo,Toledo,RIGHT,10.000,11
Connecticut,SouthFlorida,SouthFlorida,RIGHT,10.000,3
GeorgiaState,Washington,Washington,RIGHT,9.000,31
FCS,LouisianaTech,LouisianaTech,WRONG,9.000,-3
BowlingGreen,Wisconsin,Wisconsin,RIGHT,9.000,51
Indiana,Missouri,Missouri,WRONG,8.000,-4
GeorgiaTech,VirginiaTech,VirginiaTech,WRONG,8.000,-3
NewMexico,NewMexicoState,NewMexicoState,WRONG,8.000,-3
FCS,FresnoState,FresnoState,RIGHT,7.000,40
Army,WakeForest,WakeForest,RIGHT,7.000,3
Florida,Alabama,Florida,WRONG,7.000,-21
Auburn,KansasState,Auburn,RIGHT,6.000,6
Utah,Michigan,Utah,RIGHT,6.000,16
SanDiegoState,OregonState,OregonState,RIGHT,6.000,21
Idaho,Ohio,Ohio,RIGHT,6.000,12
UtahState,ArkansasState,ArkansasState,RIGHT,5.000,7
NorthCarolina,EastCarolina,EastCarolina,RIGHT,5.000,29
Marshall,Akron,Marshall,RIGHT,4.000,31
CentralMichigan,Kansas,CentralMichigan,WRONG,4.000,-14
Rutgers,Navy,Navy,WRONG,3.000,-7
Maryland,Syracuse,Syracuse,WRONG,2.000,-14
FCS,NorthTexas,NorthTexas,RIGHT,2.000,74
TexasState,Illinois,TexasState,WRONG,2.000,-7
AppalachianState,SouthernMiss,SouthernMiss,RIGHT,0.000,1
OldDominion,Rice,OldDominion,RIGHT,0.000,3
SanJoseState,Minnesota,Minnesota,RIGHT,0.000,17
