AwayTeam,HomeTeam,PredictedWinner,Result,PredictionConfidence,ActualMoV
FCS,Alabama,Alabama,RIGHT,35.000,34
FCS,Georgia,Georgia,RIGHT,35.000,46
FCS,Auburn,Auburn,RIGHT,34.000,24
GeorgiaState,Clemson,Clemson,RIGHT,32.000,28
Vanderbilt,MississippiState,MississippiState,RIGHT,31.000,51
Colorado,Oregon,Oregon,RIGHT,27.000,34
SouthernMethodist,UCF,UCF,RIGHT,27.000,46
OklahomaState,Baylor,Baylor,RIGHT,26.000,21
Indiana,OhioState,OhioState,RIGHT,25.000,15
FCS,Florida,Florida,RIGHT,24.000,49
Kansas,Oklahoma,Oklahoma,RIGHT,24.000,37
FCS,BrighamYoung,BrighamYoung,RIGHT,22.000,64
SouthFlorida,Memphis,Memphis,RIGHT,20.000,11
FloridaAtlantic,MiddleTennessee,MiddleTennessee,RIGHT,20.000,1
Rutgers,MichiganState,MichiganState,RIGHT,19.000,42
Tulane,EastCarolina,EastCarolina,RIGHT,18.000,28
WashingtonState,ArizonaState,ArizonaState,RIGHT,18.000,21
Marshall,UAB,Marshall,RIGHT,16.000,5
EasternMichigan,BallState,BallState,RIGHT,16.000,15
FresnoState,Nevada,Nevada,WRONG,15.000,-20
NorthCarolina,Duke,Duke,WRONG,15.000,-25
Cincinnati,Connecticut,Cincinnati,RIGHT,14.000,41
BoiseState,Wyoming,BoiseState,RIGHT,13.000,49
UNLV,Hawaii,Hawaii,RIGHT,13.000,2
SanJoseState,UtahState,UtahState,RIGHT,12.000,34
NewMexico,ColoradoState,ColoradoState,RIGHT,12.000,38
Tulsa,Houston,Houston,RIGHT,12.000,10
LouisianaTech,OldDominion,LouisianaTech,WRONG,11.000,-3
BostonCollege,FloridaState,FloridaState,RIGHT,11.000,3
AppalachianState,LouisianaLafayette,LouisianaLafayette,WRONG,11.000,-19
UTSA,WesternKentucky,WesternKentucky,RIGHT,10.000,38
MiamiFL,Virginia,MiamiFL,WRONG,10.000,-17
Minnesota,Nebraska,Nebraska,WRONG,10.000,-4
OregonState,Washington,Washington,RIGHT,10.000,24
SouthAlabama,SouthCarolina,SouthCarolina,RIGHT,9.000,25
Maryland,Michigan,Michigan,WRONG,7.000,-7
VirginiaTech,WakeForest,VirginiaTech,WRONG,7.000,-3
PennState,Illinois,PennState,WRONG,7.000,-2
Massachusetts,Akron,Akron,RIGHT,6.000,24
Wisconsin,Iowa,Wisconsin,RIGHT,6.000,2
Stanford,California,Stanford,RIGHT,6.000,21
NorthernIllinois,Ohio,NorthernIllinois,RIGHT,5.000,7
LouisianaMonroe,NewMexicoState,LouisianaMonroe,RIGHT,5.000,13
Syracuse,Pittsburgh,Pittsburgh,RIGHT,5.000,23
FCS,Army,Army,RIGHT,5.000,11
BowlingGreen,Toledo,Toledo,RIGHT,5.000,7
AirForce,SanDiegoState,AirForce,WRONG,4.000,-16
Missouri,Tennessee,Tennessee,WRONG,4.000,-8
Louisville,NotreDame,NotreDame,WRONG,4.000,-3
ArkansasState,TexasState,ArkansasState,WRONG,2.000,-18
Northwestern,Purdue,Purdue,WRONG,2.000,-24
TexasTech,IowaState,TexasTech,RIGHT,2.000,3
FloridaInternational,NorthTexas,NorthTexas,RIGHT,2.000,3
OleMiss,Arkansas,OleMiss,WRONG,2.000,-30
Arizona,Utah,Utah,WRONG,1.000,-32
UTEP,Rice,Rice,RIGHT,1.000,18
KansasState,WestVirginia,KansasState,RIGHT,1.000,6
USC,UCLA,UCLA,RIGHT,1.000,18
WesternMichigan,CentralMichigan,CentralMichigan,WRONG,0.000,-12
