AwayTeam,HomeTeam,PredictedWinner,Result,PredictionConfidence,ActualMoV
Baylor,TexasTech,Baylor,RIGHT,26.000,2
Connecticut,Memphis,Memphis,RIGHT,24.000,31
Kansas,KansasState,KansasState,RIGHT,22.000,38
Oregon,OregonState,Oregon,RIGHT,21.000,28
WestVirginia,IowaState,WestVirginia,RIGHT,20.000,13
Houston,SouthernMethodist,Houston,RIGHT,20.000,26
Toledo,EasternMichigan,Toledo,RIGHT,20.000,36
Idaho,AppalachianState,AppalachianState,RIGHT,18.000,17
Tennessee,Vanderbilt,Tennessee,RIGHT,17.000,7
Michigan,OhioState,OhioState,RIGHT,17.000,14
NewMexicoState,ArkansasState,ArkansasState,RIGHT,17.000,33
WesternKentucky,Marshall,Marshall,WRONG,16.000,-1
TexasState,GeorgiaState,TexasState,RIGHT,16.000,23
WakeForest,Duke,Duke,RIGHT,15.000,20
EastCarolina,Tulsa,EastCarolina,RIGHT,15.000,17
LouisianaMonroe,GeorgiaSouthern,GeorgiaSouthern,RIGHT,15.000,6
GeorgiaTech,Georgia,Georgia,WRONG,14.000,-6
Kentucky,Louisville,Louisville,RIGHT,14.000,4
Nevada,UNLV,Nevada,RIGHT,14.000,22
LouisianaLafayette,Troy,LouisianaLafayette,RIGHT,14.000,19
Minnesota,Wisconsin,Wisconsin,RIGHT,13.000,10
Utah,Colorado,Utah,RIGHT,11.000,4
UCF,SouthFlorida,UCF,RIGHT,11.000,16
MichiganState,PennState,MichiganState,RIGHT,10.000,24
UtahState,BoiseState,BoiseState,RIGHT,10.000,31
Navy,SouthAlabama,Navy,RIGHT,10.000,2
SanJoseState,SanDiegoState,SanDiegoState,RIGHT,9.000,31
SouthCarolina,Clemson,Clemson,RIGHT,9.000,18
ArizonaState,Arizona,Arizona,RIGHT,8.000,7
Auburn,Alabama,Alabama,RIGHT,8.000,11
Syracuse,BostonCollege,BostonCollege,RIGHT,8.000,21
UAB,SouthernMiss,UAB,RIGHT,8.000,21
Pittsburgh,MiamiFL,MiamiFL,WRONG,8.000,-12
TCU,Texas,TCU,RIGHT,7.000,38
Stanford,UCLA,UCLA,WRONG,7.000,-21
Illinois,Northwestern,Northwestern,WRONG,7.000,-14
Florida,FloridaState,FloridaState,RIGHT,7.000,5
Akron,KentState,Akron,WRONG,7.000,-3
NotreDame,USC,USC,RIGHT,6.000,35
Wyoming,NewMexico,NewMexico,RIGHT,6.000,6
Rice,LouisianaTech,LouisianaTech,RIGHT,6.000,45
Rutgers,Maryland,Maryland,WRONG,5.000,-3
BrighamYoung,California,BrighamYoung,RIGHT,4.000,7
MississippiState,OleMiss,OleMiss,RIGHT,4.000,14
Nebraska,Iowa,Nebraska,RIGHT,4.000,3
NorthCarolinaState,NorthCarolina,NorthCarolina,WRONG,4.000,-28
Washington,WashingtonState,Washington,RIGHT,4.000,18
OldDominion,FloridaAtlantic,OldDominion,RIGHT,4.000,3
Purdue,Indiana,Indiana,RIGHT,3.000,7
NorthernIllinois,WesternMichigan,WesternMichigan,WRONG,3.000,-10
NorthTexas,UTSA,UTSA,RIGHT,3.000,7
BallState,BowlingGreen,BowlingGreen,WRONG,3.000,-17
ColoradoState,AirForce,AirForce,RIGHT,2.000,3
LSU,TexasAM,TexasAM,WRONG,2.000,-6
Arkansas,Missouri,Arkansas,WRONG,2.000,-7
Virginia,VirginiaTech,VirginiaTech,RIGHT,2.000,4
Hawaii,FresnoState,FresnoState,RIGHT,1.000,7
Buffalo,Massachusetts,Buffalo,RIGHT,1.000,20
Ohio,MiamiOH,Ohio,RIGHT,1.000,3
MiddleTennessee,UTEP,UTEP,RIGHT,1.000,3
Cincinnati,Temple,Cincinnati,RIGHT,0.000,8
