AwayTeam,HomeTeam,PredictedWinner,PredictedMarginOfVictory
Clemson,GeorgiaTech,Clemson,0.944
Louisville,NotreDame,NotreDame,0.877
FCS,Troy,Troy,0.873
Vanderbilt,Missouri,Missouri,0.843
Army,UTSA,Army,0.803
Massachusetts,GeorgiaSouthern,GeorgiaSouthern,0.767
AppalachianState,GeorgiaSouthern,AppalachianState,0.763
Cincinnati,Tulsa,Cincinnati,0.759
SouthFlorida,Temple,Temple,0.756
BostonCollege,VirginiaTech,VirginiaTech,0.755
BrighamYoung,Houston,BrighamYoung,0.702
Pittsburgh,MiamiFL,MiamiFL,0.689
Liberty,Syracuse,Liberty,0.688
Kansas,WestVirginia,WestVirginia,0.688
CoastalCarolina,LouisianaLafayette,LouisianaLafayette,0.684
CoastalCarolina,LouisianaLafayette,LouisianaLafayette,0.684
NorthCarolina,FloridaState,NorthCarolina,0.674
TexasAM,MississippiState,TexasAM,0.663
Georgia,Alabama,Alabama,0.654
NorthTexas,MiddleTennessee,MiddleTennessee,0.647
Virginia,WakeForest,WakeForest,0.640
SouthernMiss,UTEP,SouthernMiss,0.626
Navy,EastCarolina,Navy,0.624
FloridaInternational,Charlotte,Charlotte,0.616
WesternKentucky,UAB,UAB,0.609
LSU,Florida,Florida,0.602
TexasState,SouthAlabama,TexasState,0.602
SouthernMethodist,Tulane,SouthernMethodist,0.592
OklahomaState,Baylor,Baylor,0.581
Kentucky,Tennessee,Tennessee,0.578
OleMiss,Arkansas,OleMiss,0.570
Auburn,SouthCarolina,Auburn,0.569
UCF,Memphis,UCF,0.568
Duke,NorthCarolinaState,NorthCarolinaState,0.558
Marshall,LouisianaTech,LouisianaTech,0.553
GeorgiaState,ArkansasState,GeorgiaState,0.531
