AwayTeam,HomeTeam,PredictedWinner,PredictedMarginOfVictory
Syracuse,Clemson,Clemson,0.936
FCS,Army,Army,0.920
Nebraska,OhioState,OhioState,0.916
FCS,WesternKentucky,WesternKentucky,0.902
FCS,FloridaInternational,FloridaInternational,0.884
Kansas,KansasState,KansasState,0.864
ArkansasState,AppalachianState,AppalachianState,0.863
SouthCarolina,LSU,LSU,0.835
Alabama,Tennessee,Alabama,0.835
TexasState,BrighamYoung,BrighamYoung,0.831
NotreDame,Pittsburgh,NotreDame,0.804
Missouri,Florida,Florida,0.803
AirForce,SanJoseState,AirForce,0.797
Illinois,Wisconsin,Wisconsin,0.791
Rutgers,MichiganState,MichiganState,0.791
FCS,SouthAlabama,SouthAlabama,0.783
UNLV,SanDiegoState,SanDiegoState,0.766
UtahState,BoiseState,BoiseState,0.762
GeorgiaTech,BostonCollege,BostonCollege,0.759
SouthernMiss,Liberty,Liberty,0.739
Temple,Memphis,Memphis,0.736
Tulane,UCF,UCF,0.719
Houston,Navy,Navy,0.706
IowaState,OklahomaState,OklahomaState,0.695
Wyoming,Nevada,Wyoming,0.684
LouisianaTech,UTSA,LouisianaTech,0.682
Virginia,MiamiFL,MiamiFL,0.675
Tulsa,SouthFlorida,Tulsa,0.672
NorthCarolinaState,NorthCarolina,NorthCarolina,0.658
Auburn,OleMiss,Auburn,0.644
Iowa,Purdue,Iowa,0.642
GeorgiaSouthern,CoastalCarolina,CoastalCarolina,0.633
Baylor,Texas,Baylor,0.623
Michigan,Minnesota,Minnesota,0.622
Kentucky,Missouri,Kentucky,0.608
UTEP,Charlotte,Charlotte,0.593
MiddleTennessee,Rice,Rice,0.587
VirginiaTech,WakeForest,VirginiaTech,0.586
GeorgiaState,Troy,Troy,0.571
Cincinnati,SouthernMethodist,Cincinnati,0.561
Oklahoma,TCU,Oklahoma,0.557
Maryland,Northwestern,Northwestern,0.554
FloridaState,Louisville,FloridaState,0.547
Hawaii,FresnoState,FresnoState,0.546
PennState,Indiana,PennState,0.545
FloridaAtlantic,Marshall,Marshall,0.536
LouisianaLafayette,UAB,LouisianaLafayette,0.507
Georgia,Kentucky,Georgia,0.507
WestVirginia,TexasTech,WestVirginia,0.504
