AwayTeam,HomeTeam,PredictedWinner,Result,PredictionConfidence,ActualMoV
Northwestern,OhioState,OhioState,RIGHT,0.951,12
BallState,Buffalo,Buffalo,WRONG,0.897,-10
Marshall,Buffalo,Buffalo,RIGHT,0.858,7
Tulsa,Cincinnati,Cincinnati,RIGHT,0.842,3
Illinois,PennState,PennState,RIGHT,0.842,35
WashingtonState,Utah,Utah,RIGHT,0.796,17
Texas,Colorado,Texas,RIGHT,0.787,32
WesternKentucky,GeorgiaState,WesternKentucky,WRONG,0.757,-18
NotreDame,Alabama,Alabama,RIGHT,0.748,17
AppalachianState,NorthTexas,AppalachianState,RIGHT,0.723,28
Florida,Oklahoma,Oklahoma,RIGHT,0.718,35
WestVirginia,Army,Army,WRONG,0.718,-3
UAB,Marshall,Marshall,WRONG,0.710,-9
TexasAM,NorthCarolina,NorthCarolina,WRONG,0.708,-14
WakeForest,Wisconsin,Wisconsin,RIGHT,0.702,14
Oregon,IowaState,IowaState,RIGHT,0.675,17
Tulsa,MississippiState,Tulsa,WRONG,0.671,-2
Nebraska,Rutgers,Nebraska,RIGHT,0.667,7
Clemson,NotreDame,Clemson,RIGHT,0.661,24
Liberty,CoastalCarolina,Liberty,RIGHT,0.653,3
BoiseState,SanJoseState,BoiseState,WRONG,0.635,-14
Alabama,Florida,Alabama,RIGHT,0.634,6
OhioState,Alabama,Alabama,RIGHT,0.628,28
OleMiss,LSU,OleMiss,WRONG,0.621,-5
ArizonaState,OregonState,OregonState,WRONG,0.602,-13
OklahomaState,MiamiFL,OklahomaState,RIGHT,0.597,3
LouisianaLafayette,UTSA,LouisianaLafayette,RIGHT,0.595,7
OleMiss,Indiana,Indiana,WRONG,0.590,-6
UCF,BrighamYoung,UCF,WRONG,0.588,-26
Oregon,USC,Oregon,RIGHT,0.584,7
Missouri,MississippiState,Missouri,WRONG,0.580,-19
OhioState,Clemson,Clemson,WRONG,0.549,-21
Auburn,Northwestern,Northwestern,RIGHT,0.548,16
AirForce,Army,AirForce,WRONG,0.535,-3
Tulane,Nevada,Tulane,WRONG,0.527,-11
Georgia,Cincinnati,Cincinnati,WRONG,0.526,-3
LouisianaTech,GeorgiaSouthern,LouisianaTech,WRONG,0.522,-35
Minnesota,Wisconsin,Wisconsin,RIGHT,0.522,3
TexasAM,Tennessee,Tennessee,WRONG,0.520,-21
Stanford,UCLA,UCLA,WRONG,0.519,-1
Memphis,FloridaAtlantic,Memphis,RIGHT,0.518,15
BallState,SanJoseState,SanJoseState,WRONG,0.508,-21
NorthCarolinaState,Kentucky,Kentucky,RIGHT,0.507,2
Oklahoma,IowaState,IowaState,WRONG,0.503,-6
Hawaii,Houston,Hawaii,RIGHT,0.501,14
