Division,Score
SEC_West,0.241
SEC_East,0.190
Pac12_South,0.145
B1G_East,0.143
B1G_West,0.130
ACC_Coastal,0.129
Pac12_North,0.103
Big12,0.095
ACC_Atlantic,0.088
MountainWest_Mountain,0.081
SunBelt_West,0.035
AAC_West,0.027
MAC_West,0.016
AAC_East,0.010
CUSA_West,0.001
MountainWest_West,-0.002
Independents,-0.011
MAC_East,-0.034
SunBelt_East,-0.084
CUSA_East,-0.147
FCS,-0.251
