Division,Score
SEC_West,0.164
SEC_East,0.133
B1G_East,0.129
ACC_Atlantic,0.115
Big12,0.101
AAC_East,0.068
Pac12_North,0.066
Pac12_South,0.059
ACC_Coastal,0.057
SunBelt_East,0.056
B1G_West,0.047
Independents,0.019
MountainWest_Mountain,0.014
AAC_West,-0.019
MountainWest_West,-0.029
MAC_West,-0.038
CUSA_West,-0.052
CUSA_East,-0.059
MAC_East,-0.085
SunBelt_West,-0.108
FCS,-0.350
