AwayTeam,HomeTeam,PredictedWinner,PredictedMarginOfVictory
EastCarolina,Houston,Houston,1.0
Massachusetts,MississippiState,MississippiState,1.0
Nevada,BoiseState,BoiseState,0.9
Rice,UAB,UAB,0.9
BallState,EasternMichigan,EasternMichigan,0.9
WakeForest,NotreDame,NotreDame,0.9
SanDiegoState,SanJoseState,SanDiegoState,0.9
Idaho,Troy,Troy,0.9
LSU,Alabama,Alabama,0.9
CoastalCarolina,Arkansas,Arkansas,0.9
BrighamYoung,FresnoState,FresnoState,0.9
OregonState,California,California,0.9
Oregon,Washington,Washington,0.9
UTEP,MiddleTennessee,MiddleTennessee,0.9
SouthCarolina,Georgia,Georgia,0.9
SouthFlorida,Connecticut,SouthFlorida,0.9
GeorgiaState,GeorgiaSouthern,GeorgiaState,0.8
Wisconsin,Indiana,Wisconsin,0.8
Illinois,Purdue,Purdue,0.8
Cincinnati,Tulane,Tulane,0.8
Texas,TCU,TCU,0.8
Minnesota,Michigan,Michigan,0.8
NorthernIllinois,Toledo,Toledo,0.8
LouisianaLafayette,SouthAlabama,SouthAlabama,0.7
ColoradoState,Wyoming,Wyoming,0.7
PennState,MichiganState,PennState,0.7
MiamiOH,Ohio,Ohio,0.7
UCF,SouthernMethodist,UCF,0.7
Navy,Temple,Navy,0.7
Marshall,FloridaAtlantic,FloridaAtlantic,0.7
OleMiss,Kentucky,Kentucky,0.7
Hawaii,UNLV,UNLV,0.7
CentralMichigan,WesternMichigan,WesternMichigan,0.7
AppalachianState,LouisianaMonroe,AppalachianState,0.7
Memphis,Tulsa,Memphis,0.7
KansasState,TexasTech,TexasTech,0.7
Charlotte,OldDominion,OldDominion,0.7
GeorgiaTech,Virginia,GeorgiaTech,0.7
Syracuse,FloridaState,Syracuse,0.7
Oklahoma,OklahomaState,OklahomaState,0.7
NewMexicoState,TexasState,NewMexicoState,0.7
OhioState,Iowa,OhioState,0.7
Northwestern,Nebraska,Northwestern,0.7
Auburn,TexasAM,Auburn,0.7
IowaState,WestVirginia,IowaState,0.7
UTSA,FloridaInternational,UTSA,0.6
BowlingGreen,KentState,KentState,0.6
SouthernMiss,Tennessee,SouthernMiss,0.6
Clemson,NorthCarolinaState,Clemson,0.6
UtahState,NewMexico,UtahState,0.6
VirginiaTech,MiamiFL,MiamiFL,0.6
Baylor,Kansas,Kansas,0.6
NorthTexas,LouisianaTech,LouisianaTech,0.6
Arizona,USC,USC,0.6
UCLA,Utah,Utah,0.6
Stanford,WashingtonState,WashingtonState,0.6
Florida,Missouri,Florida,0.6
Army,AirForce,Army,0.6
Colorado,ArizonaState,ArizonaState,0.5
Maryland,Rutgers,Maryland,0.5
WesternKentucky,Vanderbilt,WesternKentucky,0.5
