AwayTeam,HomeTeam,PredictedWinner,PredictedMarginOfVictory
FCS,UCF,UCF,1.0
GeorgiaSouthern,Troy,Troy,1.0
UCLA,Washington,Washington,0.9
OldDominion,NorthTexas,NorthTexas,0.9
UNLV,FresnoState,FresnoState,0.9
Wisconsin,Illinois,Wisconsin,0.9
Duke,VirginiaTech,VirginiaTech,0.9
UTSA,UTEP,UTSA,0.9
Stanford,OregonState,Stanford,0.9
MiamiFL,NorthCarolina,MiamiFL,0.9
NorthCarolinaState,NotreDame,NotreDame,0.9
Tulsa,SouthernMethodist,SouthernMethodist,0.9
FloridaInternational,Marshall,Marshall,0.8
Rutgers,Michigan,Michigan,0.8
Toledo,BallState,Toledo,0.8
GeorgiaTech,Clemson,Clemson,0.8
LouisianaTech,Rice,LouisianaTech,0.8
Vanderbilt,SouthCarolina,SouthCarolina,0.8
Georgia,Florida,Georgia,0.8
Texas,Baylor,Texas,0.8
TexasState,CoastalCarolina,CoastalCarolina,0.8
KansasState,Kansas,KansasState,0.8
SanDiegoState,Hawaii,SanDiegoState,0.8
AppalachianState,Massachusetts,AppalachianState,0.8
Houston,SouthFlorida,SouthFlorida,0.7
EasternMichigan,NorthernIllinois,NorthernIllinois,0.7
SanJoseState,BrighamYoung,BrighamYoung,0.7
PennState,OhioState,OhioState,0.7
Tennessee,Kentucky,Kentucky,0.7
TexasTech,Oklahoma,Oklahoma,0.7
Nebraska,Purdue,Purdue,0.7
BoiseState,UtahState,BoiseState,0.7
Tulane,Memphis,Memphis,0.7
UAB,SouthernMiss,SouthernMiss,0.7
Minnesota,Iowa,Iowa,0.7
LouisianaMonroe,Idaho,LouisianaMonroe,0.7
ArkansasState,NewMexicoState,ArkansasState,0.7
NewMexico,Wyoming,Wyoming,0.7
Louisville,WakeForest,WakeForest,0.7
Virginia,Pittsburgh,Virginia,0.7
AirForce,ColoradoState,ColoradoState,0.6
OklahomaState,WestVirginia,OklahomaState,0.6
USC,ArizonaState,USC,0.6
FloridaAtlantic,WesternKentucky,FloridaAtlantic,0.6
MichiganState,Northwestern,MichiganState,0.6
Indiana,Maryland,Indiana,0.6
MississippiState,TexasAM,MississippiState,0.6
Missouri,Connecticut,Connecticut,0.5
Utah,Oregon,Oregon,0.5
Buffalo,Akron,Akron,0.5
TCU,IowaState,TCU,0.5
Arkansas,OleMiss,OleMiss,0.5
FloridaState,BostonCollege,BostonCollege,0.5
SouthAlabama,GeorgiaState,SouthAlabama,0.5
WashingtonState,Arizona,Arizona,0.5
California,Colorado,California,0.5
