AwayTeam,HomeTeam,PredictedWinner,Result,PredictionConfidence,ActualMoV
Connecticut,UCF,UCF,RIGHT,1.000,25
BallState,NorthernIllinois,NorthernIllinois,RIGHT,1.000,46
Kansas,Texas,Texas,RIGHT,1.000,15
UTEP,NorthTexas,NorthTexas,RIGHT,1.000,35
Rutgers,PennState,PennState,RIGHT,1.000,29
OregonState,Arizona,Arizona,RIGHT,1.000,21
KentState,WesternMichigan,WesternMichigan,RIGHT,0.900,28
GeorgiaSouthern,AppalachianState,AppalachianState,RIGHT,0.900,21
FCS,Massachusetts,Massachusetts,RIGHT,0.900,13
SanJoseState,Nevada,Nevada,RIGHT,0.900,45
FloridaState,Clemson,Clemson,RIGHT,0.900,17
Troy,CoastalCarolina,Troy,RIGHT,0.900,25
NewMexico,TexasAM,TexasAM,RIGHT,0.800,41
SouthernMiss,Rice,SouthernMiss,RIGHT,0.800,9
OldDominion,FloridaInternational,FloridaInternational,WRONG,0.800,-7
FresnoState,Hawaii,FresnoState,RIGHT,0.800,10
LouisianaLafayette,OleMiss,OleMiss,RIGHT,0.800,28
Arkansas,LSU,LSU,RIGHT,0.800,23
BowlingGreen,Buffalo,Buffalo,RIGHT,0.800,10
Michigan,Maryland,Michigan,RIGHT,0.800,25
MichiganState,OhioState,OhioState,RIGHT,0.800,45
Iowa,Wisconsin,Wisconsin,RIGHT,0.800,24
ArkansasState,SouthAlabama,ArkansasState,WRONG,0.800,-5
TexasTech,Baylor,TexasTech,RIGHT,0.800,14
GeorgiaState,TexasState,GeorgiaState,RIGHT,0.800,3
NorthCarolina,Pittsburgh,Pittsburgh,WRONG,0.800,-3
Tulane,EastCarolina,Tulane,RIGHT,0.800,7
MiddleTennessee,Charlotte,MiddleTennessee,RIGHT,0.800,14
USC,Colorado,USC,RIGHT,0.800,14
WesternKentucky,Marshall,Marshall,RIGHT,0.800,7
Indiana,Illinois,Indiana,RIGHT,0.700,10
BoiseState,ColoradoState,BoiseState,RIGHT,0.700,7
FloridaAtlantic,LouisianaTech,FloridaAtlantic,RIGHT,0.700,25
Florida,SouthCarolina,SouthCarolina,RIGHT,0.700,8
BrighamYoung,UNLV,UNLV,WRONG,0.700,-10
Tennessee,Missouri,Missouri,RIGHT,0.700,33
Wyoming,AirForce,Wyoming,RIGHT,0.700,14
OklahomaState,IowaState,IowaState,WRONG,0.700,-7
Temple,Cincinnati,Temple,RIGHT,0.700,11
ArizonaState,UCLA,ArizonaState,WRONG,0.700,-7
WashingtonState,Utah,WashingtonState,RIGHT,0.700,8
EasternMichigan,CentralMichigan,EasternMichigan,WRONG,0.600,-12
Virginia,Louisville,Louisville,RIGHT,0.600,17
Washington,Stanford,Washington,WRONG,0.600,-8
Akron,MiamiOH,Akron,WRONG,0.600,-10
TCU,Oklahoma,Oklahoma,RIGHT,0.600,18
VirginiaTech,GeorgiaTech,VirginiaTech,WRONG,0.600,-6
Duke,Army,Army,RIGHT,0.600,5
Kentucky,Vanderbilt,Kentucky,RIGHT,0.600,23
Toledo,Ohio,Toledo,WRONG,0.600,-28
Purdue,Northwestern,Northwestern,RIGHT,0.600,10
Nebraska,Minnesota,Minnesota,RIGHT,0.600,33
WakeForest,Syracuse,WakeForest,RIGHT,0.500,21
WestVirginia,KansasState,WestVirginia,RIGHT,0.500,5
NotreDame,MiamiFL,NotreDame,WRONG,0.500,-33
SouthernMethodist,Navy,Navy,RIGHT,0.500,3
Georgia,Auburn,Auburn,RIGHT,0.500,23
Alabama,MississippiState,Alabama,RIGHT,0.500,7
NorthCarolinaState,BostonCollege,BostonCollege,WRONG,0.500,-3
UAB,UTSA,UTSA,WRONG,0.500,-5
