AwayTeam,HomeTeam,PredictedWinner,Result,PredictionConfidence,ActualMoV
FCS,WesternKentucky,WesternKentucky,RIGHT,1.000,14
FCS,MiamiFL,MiamiFL,RIGHT,1.000,28
FCS,SouthFlorida,SouthFlorida,RIGHT,1.000,14
FCS,Pittsburgh,Pittsburgh,RIGHT,1.000,7
FCS,SanDiegoState,SanDiegoState,RIGHT,1.000,21
FCS,WashingtonState,WashingtonState,RIGHT,1.000,31
FCS,Toledo,Toledo,RIGHT,1.000,34
FCS,KansasState,KansasState,RIGHT,1.000,36
FCS,AirForce,AirForce,RIGHT,1.000,62
FCS,BrighamYoung,BrighamYoung,RIGHT,1.000,14
FCS,LouisianaTech,LouisianaTech,RIGHT,1.000,28
KentState,Clemson,Clemson,RIGHT,1.000,53
FCS,OldDominion,OldDominion,RIGHT,1.000,14
FCS,Utah,Utah,RIGHT,1.000,21
FCS,TexasTech,TexasTech,RIGHT,1.000,46
FCS,NewMexico,NewMexico,RIGHT,0.900,24
FCS,Baylor,Baylor,WRONG,0.900,-3
FCS,Army,Army,RIGHT,0.900,58
FCS,TCU,TCU,RIGHT,0.900,63
FCS,MississippiState,MississippiState,RIGHT,0.900,49
FCS,WakeForest,WakeForest,RIGHT,0.900,44
UTEP,Oklahoma,Oklahoma,RIGHT,0.900,49
FCS,Ohio,Ohio,RIGHT,0.900,59
FCS,Arkansas,Arkansas,RIGHT,0.900,42
Buffalo,Minnesota,Minnesota,RIGHT,0.900,10
FCS,LouisianaLafayette,LouisianaLafayette,RIGHT,0.900,3
FCS,Oregon,Oregon,RIGHT,0.900,56
FCS,OregonState,OregonState,RIGHT,0.900,3
FCS,Hawaii,Hawaii,RIGHT,0.900,23
FCS,CentralMichigan,CentralMichigan,RIGHT,0.900,3
FCS,Missouri,Missouri,RIGHT,0.900,29
FCS,SouthernMethodist,SouthernMethodist,RIGHT,0.900,44
FCS,IowaState,IowaState,RIGHT,0.900,18
FCS,Syracuse,Syracuse,RIGHT,0.900,43
Akron,PennState,PennState,RIGHT,0.900,52
UtahState,Wisconsin,Wisconsin,RIGHT,0.900,49
FCS,Tulane,Tulane,RIGHT,0.900,29
FCS,Arizona,Arizona,RIGHT,0.900,38
FCS,Duke,Duke,RIGHT,0.900,53
FCS,UNLV,UNLV,WRONG,0.900,-3
FCS,NorthTexas,NorthTexas,RIGHT,0.900,45
FCS,GeorgiaState,GeorgiaState,WRONG,0.900,-7
FCS,Cincinnati,Cincinnati,RIGHT,0.900,12
LouisianaMonroe,Memphis,Memphis,RIGHT,0.900,8
FCS,EastCarolina,EastCarolina,WRONG,0.900,-20
FCS,SanJoseState,SanJoseState,RIGHT,0.900,21
FCS,Virginia,Virginia,RIGHT,0.800,18
FloridaState,Alabama,Alabama,RIGHT,0.800,17
FCS,Kansas,Kansas,RIGHT,0.800,22
FCS,Connecticut,Connecticut,RIGHT,0.800,7
FloridaInternational,UCF,UCF,RIGHT,0.800,44
Nevada,Northwestern,Northwestern,RIGHT,0.800,11
FCS,FresnoState,FresnoState,RIGHT,0.800,66
California,NorthCarolina,NorthCarolina,WRONG,0.800,-5
GeorgiaSouthern,Auburn,Auburn,RIGHT,0.800,34
FCS,TexasState,TexasState,RIGHT,0.800,9
Washington,Rutgers,Washington,RIGHT,0.800,16
Charlotte,EasternMichigan,EasternMichigan,RIGHT,0.800,17
OregonState,ColoradoState,ColoradoState,RIGHT,0.700,31
BrighamYoung,LSU,LSU,RIGHT,0.700,27
NewMexicoState,ArizonaState,ArizonaState,RIGHT,0.700,6
ArkansasState,Nebraska,Nebraska,RIGHT,0.700,7
Louisville,Purdue,Louisville,RIGHT,0.700,7
SouthAlabama,OleMiss,OleMiss,RIGHT,0.700,20
Wyoming,Iowa,Iowa,RIGHT,0.700,21
Maryland,Texas,Texas,WRONG,0.700,-10
WestVirginia,VirginiaTech,VirginiaTech,RIGHT,0.600,7
Troy,BoiseState,BoiseState,RIGHT,0.600,11
WesternMichigan,USC,USC,RIGHT,0.600,18
SouthFlorida,SanJoseState,SouthFlorida,RIGHT,0.600,20
Stanford,Rice,Stanford,RIGHT,0.600,55
BowlingGreen,MichiganState,MichiganState,RIGHT,0.600,25
OhioState,Indiana,OhioState,RIGHT,0.600,28
Navy,FloridaAtlantic,Navy,RIGHT,0.600,23
Tulsa,OklahomaState,OklahomaState,RIGHT,0.600,35
Michigan,Florida,Florida,WRONG,0.600,-16
TexasAM,UCLA,TexasAM,WRONG,0.600,-1
MiamiOH,Marshall,MiamiOH,WRONG,0.600,-5
Hawaii,Massachusetts,Hawaii,RIGHT,0.600,3
BostonCollege,NorthernIllinois,NorthernIllinois,WRONG,0.600,-3
NorthCarolinaState,SouthCarolina,NorthCarolinaState,WRONG,0.600,-7
Temple,NotreDame,Temple,WRONG,0.500,-33
Tennessee,GeorgiaTech,GeorgiaTech,WRONG,0.500,-1
Kentucky,SouthernMiss,SouthernMiss,WRONG,0.500,-7
BallState,Illinois,Illinois,RIGHT,0.500,3
Vanderbilt,MiddleTennessee,MiddleTennessee,WRONG,0.500,-22
AppalachianState,Georgia,AppalachianState,WRONG,0.500,-21
Colorado,ColoradoState,ColoradoState,WRONG,0.500,-14
