Division,Score
Pac12_North,0.197
ACC_Atlantic,0.177
SEC_West,0.173
B1G_Legends,0.172
Pac12_South,0.149
SEC_East,0.141
Big12,0.118
ACC_Coastal,0.108
B1G_Leaders,0.107
AAC,0.011
MountainWest_Mountain,-0.026
MAC_West,-0.052
MountainWest_West,-0.053
Independents,-0.065
SunBelt,-0.070
CUSA_West,-0.085
CUSA_East,-0.089
MAC_East,-0.116
FCS,-0.275
