Division,Score
B1G_Legends,0.217
Pac12_South,0.207
SEC_West,0.195
Pac12_North,0.180
B1G_Leaders,0.143
ACC_Atlantic,0.142
SEC_East,0.122
Big12,0.107
ACC_Coastal,0.043
AAC,0.018
MountainWest_Mountain,-0.013
MAC_West,-0.032
CUSA_West,-0.070
SunBelt,-0.074
CUSA_East,-0.085
Independents,-0.100
MAC_East,-0.115
MountainWest_West,-0.157
FCS,-0.243
