Division,Score
SEC_West,0.151
B1G_Legends,0.114
Pac12_South,0.104
ACC_Atlantic,0.092
Pac12_North,0.081
SEC_East,0.076
ACC_Coastal,0.072
Big12,0.070
B1G_Leaders,0.064
AAC,-0.000
MountainWest_West,-0.028
MAC_West,-0.030
SunBelt,-0.038
MountainWest_Mountain,-0.039
CUSA_West,-0.045
Independents,-0.071
CUSA_East,-0.081
MAC_East,-0.093
FCS,-0.287
