Division,Score
SEC_West,0.138
B1G_Legends,0.112
Pac12_South,0.090
ACC_Atlantic,0.079
Pac12_North,0.077
SEC_East,0.069
Big12,0.059
ACC_Coastal,0.055
B1G_Leaders,0.045
AAC,0.001
MountainWest_West,-0.026
CUSA_West,-0.041
MAC_West,-0.041
SunBelt,-0.042
MountainWest_Mountain,-0.046
Independents,-0.079
CUSA_East,-0.081
MAC_East,-0.085
FCS,-0.294
