Division,Score
SEC_West,0.161
B1G_Legends,0.123
Pac12_South,0.106
ACC_Atlantic,0.103
Pac12_North,0.091
SEC_East,0.080
Big12,0.076
ACC_Coastal,0.068
B1G_Leaders,0.064
AAC,-0.002
MountainWest_Mountain,-0.030
MAC_West,-0.032
MountainWest_West,-0.036
SunBelt,-0.041
CUSA_West,-0.048
Independents,-0.068
CUSA_East,-0.093
MAC_East,-0.094
FCS,-0.289
