Division,Score
Pac12_South,0.249
Pac12_North,0.211
SEC_West,0.198
B1G_Legends,0.174
B1G_Leaders,0.130
ACC_Coastal,0.122
ACC_Atlantic,0.115
Big12,0.094
SEC_East,0.084
AAC,-0.003
MountainWest_Mountain,-0.004
CUSA_West,-0.031
SunBelt,-0.043
Independents,-0.066
MAC_West,-0.072
CUSA_East,-0.109
MountainWest_West,-0.120
MAC_East,-0.160
FCS,-0.268
