Team,Rank,PrevRank,DeltaRank,RankScore
Cincinnati,38,37,-1,0.128
Connecticut,102,110,8,-0.161
Houston,28,33,5,0.162
Louisville,13,16,3,0.243
Memphis,87,82,-5,-0.068
Rutgers,85,81,-4,-0.060
SouthernMethodist,93,87,-6,-0.095
SouthFlorida,110,113,3,-0.207
Temple,100,104,4,-0.129
UCF,19,18,-1,0.195
BostonCollege,60,57,-3,0.036
Clemson,15,7,-8,0.239
FloridaState,1,1,0,0.420
Maryland,67,70,3,0.018
NorthCarolinaState,101,98,-3,-0.141
Syracuse,69,68,-1,0.014
WakeForest,82,83,1,-0.033
Duke,27,23,-4,0.173
GeorgiaTech,44,38,-6,0.104
MiamiFL,37,41,4,0.132
NorthCarolina,53,56,3,0.070
Pittsburgh,74,64,-10,0.003
Virginia,103,103,0,-0.164
VirginiaTech,36,32,-4,0.135
Illinois,92,90,-2,-0.094
Indiana,63,66,3,0.027
OhioState,3,4,1,0.330
PennState,54,60,6,0.068
Purdue,113,112,-1,-0.245
Wisconsin,14,9,-5,0.241
Iowa,40,50,10,0.124
Michigan,41,40,-1,0.121
MichiganState,7,10,3,0.271
Minnesota,47,44,-3,0.100
Nebraska,52,46,-6,0.070
Northwestern,77,77,0,-0.013
Baylor,5,3,-2,0.324
IowaState,97,100,3,-0.120
Kansas,109,108,-1,-0.193
KansasState,43,48,5,0.110
Oklahoma,21,22,1,0.189
OklahomaState,6,6,0,0.310
TCU,81,80,-1,-0.028
Texas,39,49,10,0.128
TexasTech,58,51,-7,0.058
WestVirginia,98,93,-5,-0.122
EastCarolina,29,19,-10,0.161
FloridaAtlantic,65,67,2,0.024
FloridaInternational,125,124,-1,-0.353
Marshall,22,30,8,0.184
MiddleTennessee,64,69,5,0.026
SouthernMiss,124,125,1,-0.333
UAB,112,109,-3,-0.227
LouisianaTech,107,105,-2,-0.178
NorthTexas,31,39,8,0.147
Rice,49,52,3,0.088
Tulane,59,58,-1,0.048
Tulsa,106,102,-4,-0.172
UTEP,115,115,0,-0.268
UTSA,66,72,6,0.021
Army,105,101,-4,-0.172
BrighamYoung,30,27,-3,0.160
Idaho,123,121,-2,-0.331
Navy,50,53,3,0.081
NewMexicoState,120,123,3,-0.294
NotreDame,48,45,-3,0.093
Akron,90,95,5,-0.090
BowlingGreen,23,29,6,0.182
Buffalo,55,47,-8,0.064
KentState,96,96,0,-0.109
Massachusetts,119,118,-1,-0.293
MiamiOH,126,126,0,-0.387
Ohio,71,76,5,0.012
BallState,25,26,1,0.175
CentralMichigan,89,99,10,-0.089
EasternMichigan,121,120,-1,-0.311
NorthernIllinois,10,11,1,0.252
Toledo,57,54,-3,0.058
WesternMichigan,116,117,1,-0.273
AirForce,114,111,-3,-0.247
BoiseState,33,36,3,0.143
ColoradoState,70,74,4,0.013
NewMexico,108,107,-1,-0.188
UtahState,32,43,11,0.146
Wyoming,95,89,-6,-0.108
FresnoState,20,15,-5,0.193
Hawaii,111,114,3,-0.209
Nevada,91,92,1,-0.090
SanDiegoState,83,73,-10,-0.038
SanJoseState,79,85,6,-0.015
UNLV,73,79,6,0.009
California,117,116,-1,-0.273
Oregon,8,8,0,0.265
OregonState,62,62,0,0.031
Stanford,11,14,3,0.250
Washington,26,28,2,0.173
WashingtonState,72,63,-9,0.010
Arizona,42,31,-11,0.114
ArizonaState,9,13,4,0.264
Colorado,99,97,-2,-0.128
UCLA,17,24,7,0.205
USC,34,25,-9,0.142
Utah,76,75,-1,-0.001
Florida,80,71,-9,-0.020
Georgia,35,34,-1,0.140
Kentucky,104,106,2,-0.171
Missouri,4,5,1,0.326
SouthCarolina,16,21,5,0.214
Tennessee,78,84,6,-0.014
Vanderbilt,51,55,4,0.073
Alabama,2,2,0,0.373
Arkansas,94,94,0,-0.107
Auburn,12,12,0,0.250
LSU,18,17,-1,0.201
MississippiState,75,78,3,-0.000
OleMiss,46,35,-11,0.103
TexasAM,24,20,-4,0.178
ArkansasState,68,61,-7,0.017
GeorgiaState,122,122,0,-0.326
LouisianaLafayette,45,42,-3,0.104
LouisianaMonroe,86,91,5,-0.066
SouthAlabama,61,65,4,0.033
TexasState,88,86,-2,-0.082
Troy,84,88,4,-0.042
WesternKentucky,56,59,3,0.061
FCS,118,119,1,-0.292
