Team,Rank,PrevRank,DeltaRank,RankScore
Cincinnati,55,57,2,0.069
Connecticut,113,113,0,-0.237
Houston,20,18,-2,0.201
Louisville,9,9,0,0.256
Memphis,89,93,4,-0.052
Rutgers,64,60,-4,0.037
SouthernMethodist,95,99,4,-0.116
SouthFlorida,110,111,1,-0.209
Temple,103,103,0,-0.165
UCF,17,20,3,0.214
BostonCollege,67,73,6,0.028
Clemson,8,8,0,0.270
FloridaState,1,1,0,0.450
Maryland,74,62,-12,-0.009
NorthCarolinaState,93,92,-1,-0.086
Syracuse,58,67,9,0.054
WakeForest,76,65,-11,-0.012
Duke,28,35,7,0.164
GeorgiaTech,31,33,2,0.157
MiamiFL,33,22,-11,0.155
NorthCarolina,60,74,14,0.046
Pittsburgh,61,75,14,0.046
Virginia,102,97,-5,-0.144
VirginiaTech,30,43,13,0.162
Illinois,92,88,-4,-0.081
Indiana,54,59,5,0.070
OhioState,4,5,1,0.352
PennState,63,54,-9,0.045
Purdue,112,112,0,-0.221
Wisconsin,12,19,7,0.249
Iowa,50,55,5,0.090
Michigan,36,28,-8,0.143
MichiganState,13,11,-2,0.247
Minnesota,34,37,3,0.153
Nebraska,40,42,2,0.134
Northwestern,68,69,1,0.025
Baylor,3,4,1,0.413
IowaState,106,105,-1,-0.174
Kansas,104,102,-2,-0.172
KansasState,35,50,15,0.147
Oklahoma,27,16,-11,0.176
OklahomaState,10,13,3,0.253
TCU,81,80,-1,-0.027
Texas,39,36,-3,0.139
TexasTech,45,27,-18,0.125
WestVirginia,90,87,-3,-0.064
EastCarolina,25,30,5,0.184
FloridaAtlantic,84,82,-2,-0.038
FloridaInternational,123,122,-1,-0.324
Marshall,42,45,3,0.131
MiddleTennessee,79,90,11,-0.019
SouthernMiss,125,125,0,-0.364
UAB,108,108,0,-0.206
LouisianaTech,94,100,6,-0.111
NorthTexas,29,31,2,0.164
Rice,57,56,-1,0.057
Tulane,66,61,-5,0.030
Tulsa,109,107,-2,-0.206
UTEP,117,116,-1,-0.282
UTSA,82,89,7,-0.034
Army,101,104,3,-0.143
BrighamYoung,23,12,-11,0.192
Idaho,122,118,-4,-0.312
Navy,65,68,3,0.037
NewMexicoState,121,123,2,-0.309
NotreDame,51,39,-12,0.089
Akron,96,98,2,-0.117
BowlingGreen,49,52,3,0.098
Buffalo,37,51,14,0.142
KentState,107,109,2,-0.193
Massachusetts,120,121,1,-0.291
MiamiOH,126,126,0,-0.397
Ohio,52,38,-14,0.088
BallState,19,25,6,0.203
CentralMichigan,105,101,-4,-0.173
EasternMichigan,116,119,3,-0.265
NorthernIllinois,18,23,5,0.208
Toledo,53,53,0,0.078
WesternMichigan,119,120,1,-0.290
AirForce,111,110,-1,-0.212
BoiseState,44,40,-4,0.127
ColoradoState,77,84,7,-0.013
NewMexico,100,106,6,-0.136
UtahState,47,49,2,0.109
Wyoming,85,78,-7,-0.039
FresnoState,16,21,5,0.226
Hawaii,115,115,0,-0.258
Nevada,99,95,-4,-0.133
SanDiegoState,80,86,6,-0.025
SanJoseState,73,66,-7,0.006
UNLV,87,81,-6,-0.045
California,114,114,0,-0.245
Oregon,5,3,-2,0.341
OregonState,48,47,-1,0.102
Stanford,7,7,0,0.275
Washington,26,32,6,0.177
WashingtonState,75,77,2,-0.010
Arizona,38,29,-9,0.140
ArizonaState,14,10,-4,0.239
Colorado,97,94,-3,-0.119
UCLA,21,24,3,0.200
USC,32,34,2,0.157
Utah,62,58,-4,0.046
Florida,59,48,-11,0.048
Georgia,43,46,3,0.130
Kentucky,98,96,-2,-0.124
Missouri,6,6,0,0.333
SouthCarolina,24,26,2,0.185
Tennessee,78,71,-7,-0.016
Vanderbilt,56,63,7,0.066
Alabama,2,2,0,0.415
Arkansas,91,91,0,-0.078
Auburn,11,17,6,0.251
LSU,22,14,-8,0.196
MississippiState,83,79,-4,-0.037
OleMiss,41,41,0,0.134
TexasAM,15,15,0,0.238
ArkansasState,71,85,14,0.012
GeorgiaState,124,124,0,-0.345
LouisianaLafayette,46,44,-2,0.124
LouisianaMonroe,88,76,-12,-0.047
SouthAlabama,69,64,-5,0.023
TexasState,72,70,-2,0.010
Troy,86,83,-3,-0.044
WesternKentucky,70,72,2,0.020
FCS,118,117,-1,-0.287
