Team,Rank,PrevRank,DeltaRank,RankScore
Cincinnati,65,66,1,0.036
Connecticut,113,109,-4,-0.227
Houston,15,25,10,0.233
Louisville,8,10,2,0.266
Memphis,90,92,2,-0.070
Rutgers,63,49,-14,0.041
SouthernMethodist,97,100,3,-0.116
SouthFlorida,110,111,1,-0.215
Temple,106,104,-2,-0.170
UCF,22,28,6,0.203
BostonCollege,83,67,-16,-0.035
Clemson,9,13,4,0.254
FloridaState,1,1,0,0.441
Maryland,64,54,-10,0.037
NorthCarolinaState,84,81,-3,-0.044
Syracuse,76,76,0,-0.009
WakeForest,55,51,-4,0.065
Duke,33,36,3,0.152
GeorgiaTech,36,38,2,0.135
MiamiFL,10,9,-1,0.252
NorthCarolina,80,94,14,-0.022
Pittsburgh,61,47,-14,0.049
Virginia,93,90,-3,-0.088
VirginiaTech,32,22,-10,0.153
Illinois,85,74,-11,-0.052
Indiana,58,56,-2,0.059
OhioState,5,6,1,0.345
PennState,56,40,-16,0.064
Purdue,111,113,2,-0.218
Wisconsin,21,18,-3,0.205
Iowa,44,52,8,0.108
Michigan,16,15,-1,0.232
MichiganState,19,24,5,0.225
Minnesota,34,42,8,0.151
Nebraska,43,27,-16,0.118
Northwestern,67,65,-2,0.027
Baylor,4,5,1,0.376
IowaState,100,95,-5,-0.132
Kansas,99,96,-3,-0.125
KansasState,57,72,15,0.060
Oklahoma,12,16,4,0.237
OklahomaState,23,30,7,0.199
TCU,75,68,-7,-0.005
Texas,42,61,19,0.118
TexasTech,17,7,-10,0.230
WestVirginia,91,83,-8,-0.073
EastCarolina,35,35,0,0.144
FloridaAtlantic,94,87,-7,-0.091
FloridaInternational,121,119,-2,-0.313
Marshall,53,43,-10,0.076
MiddleTennessee,92,98,6,-0.087
SouthernMiss,124,122,-2,-0.351
UAB,109,106,-3,-0.200
LouisianaTech,101,108,7,-0.133
NorthTexas,37,45,8,0.130
Rice,49,62,13,0.089
Tulane,52,55,3,0.087
Tulsa,102,101,-1,-0.141
UTEP,115,116,1,-0.260
UTSA,95,103,8,-0.097
Army,98,97,-1,-0.118
BrighamYoung,18,21,3,0.230
Idaho,120,118,-2,-0.300
Navy,68,75,7,0.026
NewMexicoState,123,126,3,-0.341
NotreDame,40,50,10,0.122
Akron,104,99,-5,-0.146
BowlingGreen,50,39,-11,0.088
Buffalo,48,60,12,0.090
KentState,107,105,-2,-0.178
Massachusetts,122,121,-1,-0.313
MiamiOH,126,125,-1,-0.400
Ohio,41,41,0,0.120
BallState,27,29,2,0.190
CentralMichigan,103,102,-1,-0.146
EasternMichigan,118,120,2,-0.287
NorthernIllinois,24,26,2,0.198
Toledo,59,69,10,0.051
WesternMichigan,119,123,4,-0.295
AirForce,116,115,-1,-0.268
BoiseState,47,33,-14,0.096
ColoradoState,77,78,1,-0.011
NewMexico,108,110,2,-0.180
UtahState,54,58,4,0.074
Wyoming,81,73,-8,-0.023
FresnoState,26,19,-7,0.192
Hawaii,112,114,2,-0.221
Nevada,96,93,-3,-0.107
SanDiegoState,89,89,0,-0.069
SanJoseState,79,88,9,-0.013
UNLV,72,84,12,-0.000
California,114,112,-2,-0.238
Oregon,2,2,0,0.407
OregonState,29,17,-12,0.157
Stanford,7,8,1,0.278
Washington,30,32,2,0.156
WashingtonState,69,70,1,0.025
Arizona,25,31,6,0.195
ArizonaState,14,14,0,0.234
Colorado,88,80,-8,-0.059
UCLA,28,12,-16,0.184
USC,45,59,14,0.107
Utah,60,46,-14,0.049
Florida,38,37,-1,0.127
Georgia,46,44,-2,0.101
Kentucky,105,107,2,-0.159
Missouri,6,4,-2,0.312
SouthCarolina,31,34,3,0.155
Tennessee,62,53,-9,0.042
Vanderbilt,70,57,-13,0.021
Alabama,3,3,0,0.404
Arkansas,86,86,0,-0.055
Auburn,20,23,3,0.219
LSU,11,11,0,0.250
MississippiState,71,77,6,0.012
OleMiss,39,48,9,0.124
TexasAM,13,20,7,0.236
ArkansasState,87,82,-5,-0.056
GeorgiaState,125,124,-1,-0.354
LouisianaLafayette,51,64,13,0.088
LouisianaMonroe,82,91,9,-0.033
SouthAlabama,66,63,-3,0.035
TexasState,74,79,5,-0.003
Troy,78,85,7,-0.013
WesternKentucky,73,71,-2,-0.001
FCS,117,117,0,-0.286
