Team,Rank,PrevRank,DeltaRank,RankScore
Cincinnati,43,55,12,0.107
Connecticut,115,113,-2,-0.250
Houston,27,20,-7,0.169
Louisville,11,9,-2,0.255
Memphis,78,89,11,-0.021
Rutgers,73,64,-9,-0.005
SouthernMethodist,92,95,3,-0.087
SouthFlorida,111,110,-1,-0.230
Temple,104,103,-1,-0.150
UCF,22,17,-5,0.190
BostonCollege,59,67,8,0.054
Clemson,7,8,1,0.287
FloridaState,1,1,0,0.455
Maryland,69,74,5,0.015
NorthCarolinaState,96,93,-3,-0.104
Syracuse,65,58,-7,0.024
WakeForest,74,76,2,-0.013
Duke,23,28,5,0.186
GeorgiaTech,40,31,-9,0.114
MiamiFL,41,33,-8,0.111
NorthCarolina,58,60,2,0.058
Pittsburgh,66,61,-5,0.018
Virginia,101,102,1,-0.144
VirginiaTech,36,30,-6,0.135
Illinois,94,92,-2,-0.096
Indiana,62,54,-8,0.036
OhioState,5,4,-1,0.345
PennState,56,63,7,0.068
Purdue,112,112,0,-0.230
Wisconsin,9,12,3,0.261
Iowa,53,50,-3,0.086
Michigan,33,36,3,0.145
MichiganState,10,13,3,0.256
Minnesota,32,34,2,0.148
Nebraska,47,40,-7,0.101
Northwestern,72,68,-4,0.002
Baylor,2,3,1,0.423
IowaState,107,106,-1,-0.193
Kansas,98,104,6,-0.136
KansasState,38,35,-3,0.128
Oklahoma,24,27,3,0.183
OklahomaState,8,10,2,0.274
TCU,82,81,-1,-0.031
Texas,44,39,-5,0.105
TexasTech,50,45,-5,0.095
WestVirginia,93,90,-3,-0.093
EastCarolina,20,25,5,0.196
FloridaAtlantic,76,84,8,-0.016
FloridaInternational,124,123,-1,-0.347
Marshall,37,42,5,0.132
MiddleTennessee,75,79,4,-0.014
SouthernMiss,125,125,0,-0.382
UAB,110,108,-2,-0.223
LouisianaTech,99,94,-5,-0.140
NorthTexas,28,29,1,0.162
Rice,52,57,5,0.089
Tulane,64,66,2,0.026
Tulsa,108,109,1,-0.201
UTEP,113,117,4,-0.237
UTSA,83,82,-1,-0.036
Army,102,101,-1,-0.148
BrighamYoung,19,23,4,0.205
Idaho,122,122,0,-0.313
Navy,57,65,8,0.063
NewMexicoState,121,121,0,-0.305
NotreDame,51,51,0,0.092
Akron,97,96,-1,-0.104
BowlingGreen,34,49,15,0.142
Buffalo,49,37,-12,0.098
KentState,106,107,1,-0.164
Massachusetts,118,120,2,-0.271
MiamiOH,126,126,0,-0.401
Ohio,61,52,-9,0.039
BallState,26,19,-7,0.173
CentralMichigan,103,105,2,-0.149
EasternMichigan,117,116,-1,-0.270
NorthernIllinois,16,18,2,0.240
Toledo,48,53,5,0.100
WesternMichigan,119,119,0,-0.284
AirForce,109,111,2,-0.210
BoiseState,31,44,13,0.155
ColoradoState,67,77,10,0.018
NewMexico,105,100,-5,-0.164
UtahState,46,47,1,0.104
Wyoming,90,85,-5,-0.081
FresnoState,17,16,-1,0.228
Hawaii,114,115,1,-0.248
Nevada,91,99,8,-0.085
SanDiegoState,77,80,3,-0.018
SanJoseState,85,73,-12,-0.043
UNLV,87,87,0,-0.050
California,116,114,-2,-0.264
Oregon,4,5,1,0.345
OregonState,55,48,-7,0.072
Stanford,15,7,-8,0.241
Washington,35,26,-9,0.139
WashingtonState,70,75,5,0.014
Arizona,45,38,-7,0.105
ArizonaState,13,14,1,0.249
Colorado,95,97,2,-0.096
UCLA,18,21,3,0.207
USC,29,32,3,0.162
Utah,71,62,-9,0.014
Florida,63,59,-4,0.032
Georgia,42,43,1,0.109
Kentucky,100,98,-2,-0.144
Missouri,6,6,0,0.330
SouthCarolina,25,24,-1,0.178
Tennessee,79,78,-1,-0.022
Vanderbilt,54,56,2,0.076
Alabama,3,2,-1,0.397
Arkansas,89,91,2,-0.079
Auburn,12,11,-1,0.252
LSU,21,22,1,0.192
MississippiState,84,83,-1,-0.041
OleMiss,30,41,11,0.161
TexasAM,14,15,1,0.247
ArkansasState,60,71,11,0.047
GeorgiaState,123,124,1,-0.339
LouisianaLafayette,39,46,7,0.124
LouisianaMonroe,86,88,2,-0.048
SouthAlabama,81,69,-12,-0.029
TexasState,80,72,-8,-0.025
Troy,88,86,-2,-0.070
WesternKentucky,68,70,2,0.016
FCS,120,118,-2,-0.289
