Team,Rank,PrevRank,DeltaRank,RankScore
Cincinnati,53,64,11,0.125
Connecticut,98,108,10,-0.086
Houston,34,43,9,0.190
Louisville,10,8,-2,0.365
Memphis,84,109,25,0.020
Rutgers,30,32,2,0.219
SouthernMethodist,104,89,-15,-0.138
SouthFlorida,125,121,-4,-0.401
Temple,109,114,5,-0.170
UCF,19,14,-5,0.292
BostonCollege,66,75,9,0.070
Clemson,17,29,12,0.297
FloridaState,2,3,1,0.464
Maryland,22,35,13,0.281
NorthCarolinaState,64,38,-26,0.084
Syracuse,52,82,30,0.127
WakeForest,71,83,12,0.049
Duke,65,71,6,0.080
GeorgiaTech,14,6,-8,0.326
MiamiFL,16,20,4,0.313
NorthCarolina,74,72,-2,0.036
Pittsburgh,60,69,9,0.097
Virginia,61,84,23,0.090
VirginiaTech,41,41,0,0.177
Illinois,33,33,0,0.194
Indiana,38,24,-14,0.187
OhioState,18,12,-6,0.297
PennState,27,37,10,0.228
Purdue,110,107,-3,-0.176
Wisconsin,32,53,21,0.202
Iowa,56,70,14,0.117
Michigan,29,16,-13,0.220
MichiganState,55,40,-15,0.119
Minnesota,20,25,5,0.290
Nebraska,36,55,19,0.188
Northwestern,24,19,-5,0.262
Baylor,3,11,8,0.432
IowaState,112,115,3,-0.184
Kansas,78,79,1,0.026
KansasState,75,59,-16,0.036
Oklahoma,8,5,-3,0.379
OklahomaState,12,22,10,0.361
TCU,79,78,-1,0.026
Texas,89,95,6,-0.021
TexasTech,13,18,5,0.341
WestVirginia,85,68,-17,0.009
EastCarolina,50,61,11,0.131
FloridaAtlantic,106,103,-3,-0.147
FloridaInternational,117,120,3,-0.255
Marshall,62,58,-4,0.090
MiddleTennessee,80,81,1,0.025
SouthernMiss,118,116,-2,-0.257
UAB,92,113,21,-0.041
LouisianaTech,101,97,-4,-0.123
NorthTexas,73,46,-27,0.044
Rice,91,86,-5,-0.028
Tulane,86,52,-34,0.003
Tulsa,107,100,-7,-0.151
UTEP,103,80,-23,-0.133
UTSA,83,91,8,0.021
Army,105,98,-7,-0.145
BrighamYoung,72,57,-15,0.047
Idaho,121,118,-3,-0.305
Navy,21,17,-4,0.289
NewMexicoState,122,124,2,-0.357
NotreDame,57,65,8,0.116
Akron,99,87,-12,-0.105
BowlingGreen,47,56,9,0.141
Buffalo,100,101,1,-0.114
KentState,108,105,-3,-0.160
Massachusetts,123,123,0,-0.366
MiamiOH,126,125,-1,-0.406
Ohio,54,73,19,0.119
BallState,39,54,15,0.181
CentralMichigan,113,106,-7,-0.203
EasternMichigan,111,110,-1,-0.179
NorthernIllinois,51,45,-6,0.130
Toledo,77,99,22,0.028
WesternMichigan,115,112,-3,-0.233
AirForce,114,111,-3,-0.222
BoiseState,58,39,-19,0.116
ColoradoState,96,88,-8,-0.072
NewMexico,102,104,2,-0.124
UtahState,49,34,-15,0.132
Wyoming,37,62,25,0.187
FresnoState,46,36,-10,0.142
Hawaii,120,119,-1,-0.302
Nevada,76,85,9,0.030
SanDiegoState,116,122,6,-0.238
SanJoseState,88,76,-12,-0.016
UNLV,81,93,12,0.024
California,95,90,-5,-0.065
Oregon,1,1,0,0.481
OregonState,63,63,0,0.086
Stanford,15,13,-2,0.325
Washington,6,4,-2,0.394
WashingtonState,35,47,12,0.188
Arizona,4,9,5,0.425
ArizonaState,45,23,-22,0.152
Colorado,28,28,0,0.225
UCLA,5,2,-3,0.417
USC,40,27,-13,0.179
Utah,44,42,-2,0.157
Florida,31,60,29,0.208
Georgia,26,48,22,0.239
Kentucky,97,92,-5,-0.081
Missouri,11,21,10,0.362
SouthCarolina,48,51,3,0.134
Tennessee,59,49,-10,0.100
Vanderbilt,70,77,7,0.056
Alabama,7,7,0,0.386
Arkansas,43,30,-13,0.170
Auburn,42,15,-27,0.172
LSU,9,10,1,0.377
MississippiState,67,94,27,0.068
OleMiss,23,26,3,0.270
TexasAM,25,31,6,0.241
ArkansasState,90,44,-46,-0.022
GeorgiaState,124,126,2,-0.391
LouisianaLafayette,93,102,9,-0.061
LouisianaMonroe,82,67,-15,0.024
SouthAlabama,68,66,-2,0.067
TexasState,69,50,-19,0.060
Troy,94,74,-20,-0.065
WesternKentucky,87,96,9,-0.010
FCS,119,117,-2,-0.260
