Team,Rank,PrevRank,DeltaRank,RankScore
Cincinnati,40,38,-2,0.114
Connecticut,97,102,5,-0.113
Houston,26,28,2,0.161
Louisville,11,13,2,0.250
Memphis,93,87,-6,-0.104
Rutgers,82,85,3,-0.032
SouthernMethodist,88,93,5,-0.087
SouthFlorida,111,110,-1,-0.225
Temple,100,100,0,-0.129
UCF,22,19,-3,0.188
BostonCollege,61,60,-1,0.036
Clemson,13,15,2,0.236
FloridaState,1,1,0,0.435
Maryland,66,67,1,0.020
NorthCarolinaState,102,101,-1,-0.142
Syracuse,69,69,0,0.013
WakeForest,83,82,-1,-0.035
Duke,34,27,-7,0.138
GeorgiaTech,46,44,-2,0.100
MiamiFL,36,37,1,0.129
NorthCarolina,52,53,1,0.067
Pittsburgh,74,74,0,0.002
Virginia,103,103,0,-0.167
VirginiaTech,35,36,1,0.132
Illinois,92,92,0,-0.096
Indiana,63,63,0,0.025
OhioState,4,3,-1,0.293
PennState,53,54,1,0.066
Purdue,114,113,-1,-0.250
Wisconsin,12,14,2,0.238
Iowa,39,40,1,0.120
Michigan,38,41,3,0.122
MichiganState,6,7,1,0.284
Minnesota,45,47,2,0.100
Nebraska,50,52,2,0.070
Northwestern,78,77,-1,-0.014
Baylor,3,5,2,0.334
IowaState,99,97,-2,-0.122
Kansas,109,109,0,-0.192
KansasState,43,43,0,0.106
Oklahoma,18,21,3,0.203
OklahomaState,7,6,-1,0.272
TCU,81,81,0,-0.030
Texas,44,39,-5,0.102
TexasTech,59,58,-1,0.054
WestVirginia,98,98,0,-0.122
EastCarolina,27,29,2,0.158
FloridaAtlantic,65,65,0,0.023
FloridaInternational,125,125,0,-0.353
Marshall,30,22,-8,0.149
MiddleTennessee,64,64,0,0.023
SouthernMiss,124,124,0,-0.335
UAB,112,112,0,-0.228
LouisianaTech,107,107,0,-0.177
NorthTexas,29,31,2,0.149
Rice,41,49,8,0.111
Tulane,60,59,-1,0.049
Tulsa,104,106,2,-0.168
UTEP,115,115,0,-0.266
UTSA,67,66,-1,0.019
Army,105,105,0,-0.171
BrighamYoung,28,30,2,0.155
Idaho,123,123,0,-0.332
Navy,49,50,1,0.081
NewMexicoState,120,120,0,-0.296
NotreDame,48,48,0,0.095
Akron,91,90,-1,-0.092
BowlingGreen,15,23,8,0.214
Buffalo,55,55,0,0.063
KentState,95,96,1,-0.108
Massachusetts,119,119,0,-0.295
MiamiOH,126,126,0,-0.387
Ohio,68,71,3,0.014
BallState,24,25,1,0.172
CentralMichigan,90,89,-1,-0.092
EasternMichigan,121,121,0,-0.310
NorthernIllinois,17,10,-7,0.210
Toledo,58,57,-1,0.056
WesternMichigan,117,116,-1,-0.275
AirForce,113,114,1,-0.249
BoiseState,31,33,2,0.141
ColoradoState,71,70,-1,0.011
NewMexico,108,108,0,-0.188
UtahState,37,32,-5,0.125
Wyoming,96,95,-1,-0.108
FresnoState,21,20,-1,0.199
Hawaii,110,111,1,-0.209
Nevada,89,91,2,-0.089
SanDiegoState,84,83,-1,-0.041
SanJoseState,79,79,0,-0.015
UNLV,73,73,0,0.008
California,116,117,1,-0.274
Oregon,10,8,-2,0.264
OregonState,62,62,0,0.029
Stanford,8,11,3,0.272
Washington,25,26,1,0.170
WashingtonState,72,72,0,0.009
Arizona,42,42,0,0.111
ArizonaState,14,9,-5,0.226
Colorado,101,99,-2,-0.132
UCLA,19,17,-2,0.203
USC,32,34,2,0.141
Utah,76,76,0,-0.003
Florida,80,80,0,-0.023
Georgia,33,35,2,0.138
Kentucky,106,104,-2,-0.172
Missouri,5,4,-1,0.286
SouthCarolina,16,16,0,0.212
Tennessee,77,78,1,-0.014
Vanderbilt,51,51,0,0.070
Alabama,2,2,0,0.370
Arkansas,94,94,0,-0.107
Auburn,9,12,3,0.269
LSU,20,18,-2,0.201
MississippiState,75,75,0,-0.000
OleMiss,47,46,-1,0.100
TexasAM,23,24,1,0.177
ArkansasState,70,68,-2,0.013
GeorgiaState,122,122,0,-0.329
LouisianaLafayette,56,45,-11,0.060
LouisianaMonroe,86,86,0,-0.062
SouthAlabama,54,61,7,0.065
TexasState,87,88,1,-0.083
Troy,85,84,-1,-0.044
WesternKentucky,57,56,-1,0.060
FCS,118,118,0,-0.293
