Division,Score
SEC_West,0.142
ACC_Atlantic,0.104
B1G_East,0.097
Pac12_North,0.065
B1G_West,0.060
Pac12_South,0.055
Big12,0.046
AAC_West,0.046
ACC_Coastal,0.046
SEC_East,0.044
Independents,0.043
MountainWest_Mountain,0.005
MAC_West,0.002
AAC_East,-0.005
CUSA_East,-0.035
CUSA_West,-0.061
MAC_East,-0.061
MountainWest_West,-0.071
SunBelt,-0.087
FCS,-0.335
