Division,Score
SEC_West,0.248
Pac12_South,0.202
Pac12_North,0.169
Big12,0.145
B1G_West,0.141
ACC_Coastal,0.122
Independents,0.122
SEC_East,0.118
B1G_East,0.110
AAC_West,0.105
ACC_Atlantic,0.101
MountainWest_West,0.060
MountainWest_Mountain,0.044
MAC_West,0.030
AAC_East,0.017
CUSA_West,-0.000
CUSA_East,-0.089
SunBelt,-0.108
MAC_East,-0.151
FCS,-0.243
