Division,Score
B1G_East,0.177
B1G_West,0.160
SEC_West,0.157
ACC_Coastal,0.144
Pac12_North,0.140
Pac12_South,0.124
Big12,0.121
ACC_Atlantic,0.112
AAC_West,0.109
SEC_East,0.100
AAC_East,0.050
MAC_West,0.014
MountainWest_Mountain,0.011
Independents,-0.006
CUSA_West,-0.059
CUSA_East,-0.082
MAC_East,-0.087
MountainWest_West,-0.096
SunBelt,-0.146
FCS,-0.317
