Division,Score
B1G_East,0.154
SEC_West,0.150
ACC_Atlantic,0.116
Pac12_North,0.094
Pac12_South,0.082
ACC_Coastal,0.075
Big12,0.075
B1G_West,0.075
AAC_West,0.075
SEC_East,0.061
MountainWest_Mountain,0.035
AAC_East,0.028
MAC_West,0.011
Independents,0.009
CUSA_East,-0.046
CUSA_West,-0.059
MAC_East,-0.077
MountainWest_West,-0.078
SunBelt,-0.113
FCS,-0.324
