Division,Score
SEC_West,0.142
B1G_East,0.135
ACC_Atlantic,0.103
Pac12_North,0.081
Pac12_South,0.078
B1G_West,0.075
AAC_West,0.074
Big12,0.067
SEC_East,0.062
ACC_Coastal,0.056
Independents,0.037
MountainWest_Mountain,0.035
MAC_West,0.009
AAC_East,0.003
CUSA_East,-0.047
CUSA_West,-0.052
MAC_East,-0.079
MountainWest_West,-0.084
SunBelt,-0.106
FCS,-0.326
