AwayTeam,HomeTeam,PredictedWinner,PredictedMarginOfVictory
Louisville,Virginia,Louisville,36
Michigan,MichiganState,Michigan,35
NewMexicoState,TexasAM,TexasAM,34
Kansas,Oklahoma,Oklahoma,27
WesternKentucky,FloridaAtlantic,WesternKentucky,22
Northwestern,OhioState,OhioState,21
Rice,LouisianaTech,LouisianaTech,19
California,USC,USC,18
MiddleTennessee,FloridaInternational,MiddleTennessee,17
PennState,Purdue,PennState,17
AirForce,FresnoState,AirForce,17
FCS,MississippiState,MississippiState,16
KansasState,IowaState,KansasState,14
Marshall,SouthernMiss,SouthernMiss,14
BostonCollege,NorthCarolinaState,NorthCarolinaState,13
Cincinnati,Temple,Temple,13
Washington,Utah,Washington,12
Akron,Buffalo,Akron,12
OldDominion,UTEP,OldDominion,11
Tennessee,SouthCarolina,Tennessee,11
Auburn,OleMiss,Auburn,10
Ohio,Toledo,Toledo,10
UCF,Houston,Houston,10
LouisianaMonroe,ArkansasState,ArkansasState,9
Florida,Georgia,Florida,9
Baylor,Texas,Baylor,9
ArizonaState,Oregon,Oregon,8
Duke,GeorgiaTech,GeorgiaTech,8
MiamiFL,NotreDame,MiamiFL,8
MiamiOH,EasternMichigan,EasternMichigan,8
Kentucky,Missouri,Missouri,7
TexasTech,TCU,TexasTech,7
Tulsa,Memphis,Memphis,7
NewMexico,Hawaii,NewMexico,7
KentState,CentralMichigan,CentralMichigan,6
BoiseState,Wyoming,BoiseState,6
Clemson,FloridaState,Clemson,5
FCS,Massachusetts,Massachusetts,4
VirginiaTech,Pittsburgh,VirginiaTech,4
Nebraska,Wisconsin,Wisconsin,4
Maryland,Indiana,Maryland,4
SouthernMethodist,Tulane,SouthernMethodist,4
UNLV,SanJoseState,UNLV,3
Stanford,Arizona,Stanford,3
NorthTexas,UTSA,UTSA,3
Army,WakeForest,WakeForest,3
Minnesota,Illinois,Minnesota,2
AppalachianState,GeorgiaSouthern,AppalachianState,2
Connecticut,EastCarolina,EastCarolina,1
SanDiegoState,UtahState,SanDiegoState,1
WestVirginia,OklahomaState,OklahomaState,1
WashingtonState,OregonState,WashingtonState,1
GeorgiaState,SouthAlabama,SouthAlabama,0
Navy,SouthFlorida,SouthFlorida,0
