AwayTeam,HomeTeam,PredictedWinner,Result,PredictionConfidence,ActualMoV
MississippiState,Alabama,Alabama,RIGHT,28.000,48
BoiseState,Hawaii,BoiseState,RIGHT,25.000,36
FCS,BrighamYoung,BrighamYoung,RIGHT,24.000,30
WakeForest,Louisville,Louisville,RIGHT,24.000,32
Pittsburgh,Clemson,Clemson,WRONG,23.000,-1
Michigan,Iowa,Michigan,WRONG,23.000,-1
Colorado,Arizona,Colorado,RIGHT,22.000,25
OhioState,Maryland,OhioState,RIGHT,21.000,59
Tulane,Houston,Houston,RIGHT,19.000,12
NorthTexas,WesternKentucky,WesternKentucky,RIGHT,19.000,38
BowlingGreen,Akron,Akron,WRONG,17.000,-10
WesternMichigan,KentState,WesternMichigan,RIGHT,17.000,16
BostonCollege,FloridaState,FloridaState,RIGHT,17.000,38
Auburn,Georgia,Auburn,WRONG,16.000,-6
NewMexicoState,ArkansasState,ArkansasState,RIGHT,16.000,19
SouthCarolina,Florida,Florida,RIGHT,16.000,13
Illinois,Wisconsin,Wisconsin,RIGHT,15.000,45
Kentucky,Tennessee,Tennessee,RIGHT,15.000,13
USC,Washington,Washington,WRONG,15.000,-13
MiamiFL,Virginia,MiamiFL,RIGHT,14.000,20
California,WashingtonState,WashingtonState,RIGHT,14.000,35
OleMiss,TexasAM,TexasAM,WRONG,13.000,-1
SanDiegoState,Nevada,SanDiegoState,RIGHT,13.000,30
Cincinnati,UCF,UCF,RIGHT,13.000,21
PennState,Indiana,PennState,RIGHT,13.000,14
UTSA,LouisianaTech,LouisianaTech,RIGHT,12.000,28
Northwestern,Purdue,Northwestern,RIGHT,12.000,28
GeorgiaTech,VirginiaTech,VirginiaTech,WRONG,11.000,-10
Idaho,TexasState,Idaho,RIGHT,10.000,33
Wyoming,UNLV,Wyoming,WRONG,10.000,-3
NewMexico,UtahState,NewMexico,RIGHT,10.000,3
TexasTech,OklahomaState,OklahomaState,RIGHT,9.000,1
Baylor,Oklahoma,Oklahoma,RIGHT,9.000,21
MiamiOH,Buffalo,MiamiOH,RIGHT,9.000,11
NorthCarolinaState,Syracuse,NorthCarolinaState,RIGHT,9.000,15
LouisianaLafayette,GeorgiaSouthern,GeorgiaSouthern,WRONG,8.000,-7
Rutgers,MichiganState,MichiganState,RIGHT,8.000,49
Minnesota,Nebraska,Nebraska,RIGHT,8.000,7
LouisianaMonroe,GeorgiaState,GeorgiaState,WRONG,8.000,-14
Rice,Charlotte,Charlotte,WRONG,7.000,-1
OregonState,UCLA,UCLA,RIGHT,7.000,14
Army,NotreDame,Army,WRONG,5.000,-38
SouthernMiss,OldDominion,OldDominion,RIGHT,5.000,16
AppalachianState,Troy,Troy,RIGHT,5.000,4
MiddleTennessee,Marshall,MiddleTennessee,WRONG,4.000,-25
NorthCarolina,Duke,NorthCarolina,WRONG,4.000,-1
Toledo,NorthernIllinois,Toledo,RIGHT,4.000,7
SouthFlorida,Memphis,Memphis,WRONG,4.000,-7
ColoradoState,AirForce,AirForce,RIGHT,4.000,3
UTEP,FloridaAtlantic,FloridaAtlantic,RIGHT,3.000,4
WestVirginia,Texas,WestVirginia,RIGHT,3.000,4
EasternMichigan,BallState,EasternMichigan,RIGHT,2.000,7
Vanderbilt,Missouri,Missouri,RIGHT,2.000,9
Stanford,Oregon,Oregon,WRONG,2.000,-25
LSU,Arkansas,LSU,RIGHT,2.000,28
SouthernMethodist,EastCarolina,EastCarolina,WRONG,1.000,-24
IowaState,Kansas,Kansas,WRONG,1.000,-7
Tulsa,Navy,Tulsa,WRONG,1.000,-2
Utah,ArizonaState,Utah,RIGHT,0.000,23
