AwayTeam,HomeTeam,PredictedWinner,Result,PredictionConfidence,ActualMoV
ArkansasState,TexasState,ArkansasState,RIGHT,17.000,22
OklahomaState,Oklahoma,Oklahoma,RIGHT,13.000,18
Alabama,Florida,Alabama,RIGHT,13.000,38
Colorado,Washington,Washington,RIGHT,12.000,31
NewMexicoState,SouthAlabama,SouthAlabama,RIGHT,11.000,7
WesternMichigan,Ohio,WesternMichigan,RIGHT,11.000,6
Clemson,VirginiaTech,Clemson,RIGHT,11.000,7
Baylor,WestVirginia,WestVirginia,RIGHT,10.000,3
LouisianaLafayette,LouisianaMonroe,LouisianaLafayette,RIGHT,6.000,27
LouisianaTech,WesternKentucky,WesternKentucky,RIGHT,6.000,14
Temple,Navy,Navy,WRONG,4.000,-24
GeorgiaState,Idaho,Idaho,RIGHT,3.000,25
Troy,GeorgiaSouthern,Troy,WRONG,2.000,-4
SanDiegoState,Wyoming,SanDiegoState,RIGHT,1.000,3
Wisconsin,PennState,PennState,RIGHT,1.000,7
KansasState,TCU,TCU,WRONG,0.000,-24
