AwayTeam,HomeTeam,PredictedWinner,PredictedMarginOfVictory
Duke,FloridaState,FloridaState,27
Texas,Baylor,Baylor,24
UCF,SouthernMethodist,UCF,15
Oklahoma,OklahomaState,OklahomaState,13
BowlingGreen,NorthernIllinois,NorthernIllinois,8
SouthFlorida,Rutgers,Rutgers,7
Missouri,Auburn,Auburn,6
Stanford,ArizonaState,ArizonaState,6
Louisville,Cincinnati,Louisville,6
OhioState,MichiganState,OhioState,4
UtahState,FresnoState,FresnoState,4
Marshall,Rice,Marshall,3
Memphis,Connecticut,Memphis,3
LouisianaLafayette,SouthAlabama,LouisianaLafayette,1
