AwayTeam,HomeTeam,PredictedWinner,PredictedMarginOfVictory
MiamiOH,BallState,BallState,34
WesternMichigan,NorthernIllinois,NorthernIllinois,28
FCS,NorthCarolina,NorthCarolina,26
FloridaInternational,FloridaAtlantic,FloridaAtlantic,25
FloridaState,Florida,FloridaState,25
Baylor,TCU,Baylor,25
SouthFlorida,UCF,UCF,23
Colorado,Utah,Utah,22
Arkansas,LSU,LSU,21
UTEP,MiddleTennessee,MiddleTennessee,21
Purdue,Indiana,Indiana,20
OregonState,Oregon,Oregon,20
NewMexico,BoiseState,BoiseState,20
SouthernMethodist,Houston,Houston,20
KansasState,Kansas,KansasState,19
SouthAlabama,GeorgiaState,SouthAlabama,19
PennState,Wisconsin,Wisconsin,18
WashingtonState,Washington,Washington,18
Wyoming,UtahState,UtahState,18
SouthernMiss,UAB,UAB,17
BrighamYoung,Nevada,BrighamYoung,17
OhioState,Michigan,OhioState,16
Massachusetts,Ohio,Ohio,16
NorthTexas,Tulsa,NorthTexas,16
FresnoState,SanJoseState,FresnoState,14
LouisianaTech,UTSA,UTSA,14
LouisianaMonroe,LouisianaLafayette,LouisianaLafayette,14
VirginiaTech,Virginia,VirginiaTech,14
Toledo,Akron,Toledo,13
AirForce,ColoradoState,ColoradoState,13
Temple,Memphis,Memphis,12
EasternMichigan,CentralMichigan,CentralMichigan,12
TexasAM,Missouri,Missouri,12
Arizona,ArizonaState,ArizonaState,11
Tulane,Rice,Rice,10
Georgia,GeorgiaTech,GeorgiaTech,10
Minnesota,MichiganState,MichiganState,9
NotreDame,Stanford,Stanford,9
Tennessee,Kentucky,Tennessee,7
IowaState,WestVirginia,WestVirginia,6
Rutgers,Connecticut,Rutgers,5
UCLA,USC,USC,5
Northwestern,Illinois,Northwestern,5
WakeForest,Vanderbilt,Vanderbilt,4
ArkansasState,WesternKentucky,WesternKentucky,4
MiamiFL,Pittsburgh,MiamiFL,4
Iowa,Nebraska,Nebraska,3
BostonCollege,Syracuse,BostonCollege,3
SanDiegoState,UNLV,UNLV,2
TexasTech,Texas,Texas,2
Idaho,NewMexicoState,NewMexicoState,2
OleMiss,MississippiState,OleMiss,2
Clemson,SouthCarolina,SouthCarolina,2
Maryland,NorthCarolinaState,Maryland,1
Army,Hawaii,Army,1
BowlingGreen,Buffalo,BowlingGreen,1
EastCarolina,Marshall,Marshall,1
Duke,NorthCarolina,Duke,0
TexasState,Troy,Troy,0
