AwayTeam,HomeTeam,PredictedWinner,Result,PredictionConfidence,ActualMoV
GeorgiaState,Alabama,Alabama,RIGHT,39.000,42
WestVirginia,Baylor,Baylor,RIGHT,39.000,31
Oregon,Colorado,Oregon,RIGHT,26.000,41
Massachusetts,BowlingGreen,BowlingGreen,RIGHT,22.000,21
Louisville,Temple,Louisville,RIGHT,21.000,23
Cincinnati,SouthFlorida,Cincinnati,WRONG,20.000,-6
FresnoState,Idaho,FresnoState,RIGHT,19.000,47
Rutgers,SouthernMethodist,Rutgers,RIGHT,19.000,3
TCU,Oklahoma,Oklahoma,RIGHT,18.000,3
WesternMichigan,Toledo,Toledo,RIGHT,17.000,27
NewMexicoState,NewMexico,NewMexico,RIGHT,17.000,49
AirForce,Navy,Navy,RIGHT,17.000,18
Kentucky,SouthCarolina,SouthCarolina,RIGHT,17.000,7
NorthCarolina,VirginiaTech,VirginiaTech,RIGHT,17.000,10
UTSA,Marshall,Marshall,RIGHT,16.000,24
NorthernIllinois,KentState,NorthernIllinois,RIGHT,16.000,14
Maryland,FloridaState,FloridaState,RIGHT,14.000,63
Rice,Tulsa,Rice,RIGHT,12.000,3
GeorgiaTech,MiamiFL,MiamiFL,RIGHT,12.000,15
MichiganState,Iowa,Iowa,WRONG,12.000,-12
Arkansas,Florida,Florida,RIGHT,11.000,20
KansasState,OklahomaState,OklahomaState,RIGHT,11.000,4
PennState,Indiana,Indiana,RIGHT,10.000,20
LSU,MississippiState,LSU,RIGHT,10.000,33
TexasTech,Kansas,TexasTech,RIGHT,9.000,38
Ohio,Akron,Ohio,RIGHT,9.000,40
EastCarolina,MiddleTennessee,EastCarolina,RIGHT,9.000,7
EasternMichigan,Buffalo,Buffalo,RIGHT,9.000,28
ArizonaState,NotreDame,ArizonaState,WRONG,9.000,-3
Minnesota,Michigan,Michigan,RIGHT,8.000,29
SouthAlabama,Troy,SouthAlabama,WRONG,8.000,-1
NorthCarolinaState,WakeForest,NorthCarolinaState,WRONG,7.000,-15
Illinois,Nebraska,Nebraska,RIGHT,7.000,20
Missouri,Vanderbilt,Missouri,RIGHT,7.000,23
UCF,Memphis,UCF,RIGHT,7.000,7
Washington,Stanford,Stanford,RIGHT,6.000,3
WesternKentucky,LouisianaMonroe,WesternKentucky,RIGHT,6.000,21
TexasState,LouisianaLafayette,TexasState,WRONG,5.000,-24
Georgia,Tennessee,Georgia,RIGHT,5.000,3
BrighamYoung,UtahState,UtahState,WRONG,5.000,-17
OhioState,Northwestern,OhioState,RIGHT,5.000,10
WashingtonState,California,WashingtonState,RIGHT,5.000,22
FloridaInternational,SouthernMiss,SouthernMiss,WRONG,5.000,-1
Clemson,Syracuse,Clemson,RIGHT,5.000,35
CentralMichigan,MiamiOH,CentralMichigan,RIGHT,5.000,12
FloridaAtlantic,UAB,UAB,WRONG,4.000,-14
LouisianaTech,UTEP,LouisianaTech,RIGHT,4.000,3
UCLA,Utah,Utah,WRONG,4.000,-7
BallState,Virginia,BallState,RIGHT,3.000,21
Nevada,SanDiegoState,Nevada,WRONG,2.000,-7
Army,BostonCollege,BostonCollege,RIGHT,2.000,21
OleMiss,Auburn,Auburn,RIGHT,2.000,8
SanJoseState,Hawaii,Hawaii,WRONG,1.000,-10
NorthTexas,Tulane,NorthTexas,WRONG,1.000,-3
Texas,IowaState,IowaState,WRONG,1.000,-1
