AwayTeam,HomeTeam,PredictedWinner,Result,PredictionConfidence,ActualMoV
Baylor,KansasState,Baylor,RIGHT,31.000,10
California,UCLA,UCLA,RIGHT,29.000,27
FCS,Auburn,Auburn,RIGHT,29.000,59
BostonCollege,Clemson,Clemson,RIGHT,22.000,10
CentralMichigan,Ohio,Ohio,WRONG,22.000,-3
IowaState,TexasTech,TexasTech,RIGHT,21.000,7
KentState,BallState,BallState,RIGHT,21.000,3
Alabama,Kentucky,Alabama,RIGHT,20.000,41
EasternMichigan,Army,Army,RIGHT,20.000,25
Idaho,ArkansasState,ArkansasState,RIGHT,18.000,24
Colorado,ArizonaState,ArizonaState,RIGHT,18.000,41
SouthFlorida,Connecticut,Connecticut,WRONG,17.000,-3
Memphis,Houston,Houston,RIGHT,16.000,10
Nebraska,Purdue,Nebraska,RIGHT,16.000,37
MiddleTennessee,NorthTexas,NorthTexas,RIGHT,16.000,27
Akron,NorthernIllinois,NorthernIllinois,RIGHT,16.000,7
Buffalo,WesternMichigan,Buffalo,RIGHT,15.000,33
Marshall,FloridaAtlantic,Marshall,RIGHT,14.000,1
Florida,LSU,LSU,RIGHT,13.000,11
Kansas,TCU,TCU,RIGHT,13.000,10
Hawaii,UNLV,UNLV,RIGHT,13.000,2
Virginia,Maryland,Maryland,RIGHT,13.000,1
Rutgers,Louisville,Louisville,RIGHT,12.000,14
Oklahoma,Texas,Oklahoma,WRONG,11.000,-16
Troy,GeorgiaState,Troy,RIGHT,11.000,7
LouisianaMonroe,TexasState,TexasState,WRONG,9.000,-7
Michigan,PennState,Michigan,WRONG,8.000,-3
Northwestern,Wisconsin,Wisconsin,RIGHT,7.000,29
NewMexico,Wyoming,Wyoming,RIGHT,7.000,7
Missouri,Georgia,Georgia,WRONG,7.000,-15
BowlingGreen,MississippiState,MississippiState,RIGHT,6.000,1
Rice,UTSA,Rice,RIGHT,6.000,6
Arizona,USC,Arizona,WRONG,5.000,-7
Stanford,Utah,Stanford,WRONG,5.000,-6
Temple,Cincinnati,Cincinnati,RIGHT,5.000,18
SanDiegoState,AirForce,SanDiegoState,RIGHT,5.000,7
EastCarolina,Tulane,EastCarolina,WRONG,5.000,-3
Pittsburgh,VirginiaTech,VirginiaTech,RIGHT,4.000,10
MiamiOH,Massachusetts,Massachusetts,RIGHT,4.000,7
GeorgiaTech,BrighamYoung,BrighamYoung,RIGHT,4.000,18
OregonState,WashingtonState,OregonState,RIGHT,4.000,28
TexasAM,OleMiss,TexasAM,RIGHT,3.000,3
UAB,FloridaInternational,UAB,RIGHT,3.000,3
SouthCarolina,Arkansas,SouthCarolina,RIGHT,3.000,45
Tulsa,UTEP,Tulsa,RIGHT,3.000,14
SanJoseState,ColoradoState,ColoradoState,WRONG,2.000,-7
Oregon,Washington,Oregon,RIGHT,1.000,21
BoiseState,UtahState,UtahState,WRONG,1.000,-11
Indiana,MichiganState,MichiganState,RIGHT,1.000,14
Navy,Duke,Duke,RIGHT,1.000,28
Syracuse,NorthCarolinaState,NorthCarolinaState,WRONG,0.000,-14
