AwayTeam,HomeTeam,PredictedWinner,Result,PredictionConfidence,ActualMoV
Akron,Michigan,Michigan,RIGHT,32.000,4
FCS,OklahomaState,OklahomaState,RIGHT,32.000,56
FCS,UtahState,UtahState,RIGHT,28.000,64
NorthernIllinois,Idaho,NorthernIllinois,RIGHT,26.000,10
UTSA,Arizona,Arizona,RIGHT,25.000,25
FCS,Cincinnati,Cincinnati,RIGHT,25.000,57
WesternMichigan,Northwestern,Northwestern,RIGHT,23.000,21
GeorgiaState,WestVirginia,WestVirginia,RIGHT,23.000,34
KentState,LSU,LSU,RIGHT,23.000,32
FCS,Syracuse,Syracuse,RIGHT,22.000,54
MississippiState,Auburn,Auburn,RIGHT,21.000,4
FCS,Navy,Navy,RIGHT,21.000,44
FCS,Minnesota,Minnesota,RIGHT,19.000,17
Tulsa,Oklahoma,Oklahoma,RIGHT,18.000,31
NotreDame,Purdue,NotreDame,RIGHT,18.000,7
FCS,Wyoming,Wyoming,RIGHT,18.000,28
EasternMichigan,Rutgers,Rutgers,RIGHT,17.000,18
FCS,WashingtonState,WashingtonState,RIGHT,16.000,38
Nevada,FloridaState,FloridaState,RIGHT,16.000,55
VirginiaTech,EastCarolina,EastCarolina,WRONG,16.000,-5
TCU,TexasTech,TexasTech,RIGHT,15.000,10
OregonState,Utah,Utah,WRONG,15.000,-3
SouthernMiss,Arkansas,Arkansas,RIGHT,14.000,21
AirForce,BoiseState,BoiseState,RIGHT,13.000,22
Tennessee,Oregon,Oregon,RIGHT,13.000,45
Louisville,Kentucky,Louisville,RIGHT,13.000,14
Alabama,TexasAM,Alabama,RIGHT,13.000,7
FCS,MichiganState,MichiganState,RIGHT,12.000,38
Iowa,IowaState,Iowa,RIGHT,12.000,6
Massachusetts,KansasState,KansasState,RIGHT,10.000,30
Stanford,Army,Stanford,RIGHT,10.000,14
BallState,NorthTexas,BallState,WRONG,9.000,-7
UCLA,Nebraska,Nebraska,WRONG,9.000,-20
OhioState,California,OhioState,RIGHT,8.000,18
FCS,FloridaInternational,FloridaInternational,WRONG,8.000,-21
Wisconsin,ArizonaState,ArizonaState,RIGHT,7.000,2
UCF,PennState,UCF,RIGHT,7.000,3
FCS,ColoradoState,ColoradoState,RIGHT,7.000,17
Troy,ArkansasState,ArkansasState,RIGHT,6.000,7
Maryland,Connecticut,Connecticut,WRONG,6.000,-11
WesternKentucky,SouthAlabama,SouthAlabama,RIGHT,5.000,7
FCS,LouisianaLafayette,FCS,WRONG,5.000,-63
Marshall,Ohio,Marshall,WRONG,5.000,-3
NewMexico,Pittsburgh,NewMexico,WRONG,5.000,-22
FCS,Buffalo,Buffalo,RIGHT,4.000,3
BowlingGreen,Indiana,BowlingGreen,WRONG,3.000,-32
CentralMichigan,UNLV,CentralMichigan,WRONG,3.000,-10
Memphis,MiddleTennessee,MiddleTennessee,RIGHT,3.000,2
FCS,Toledo,Toledo,RIGHT,3.000,12
FCS,Temple,Temple,WRONG,3.000,-1
Kansas,Rice,Rice,RIGHT,2.000,9
LouisianaMonroe,WakeForest,WakeForest,WRONG,2.000,-2
BostonCollege,USC,USC,RIGHT,1.000,28
UTEP,NewMexicoState,UTEP,RIGHT,1.000,21
Washington,Illinois,Illinois,WRONG,1.000,-10
OleMiss,Texas,OleMiss,RIGHT,1.000,21
FloridaAtlantic,SouthFlorida,FloridaAtlantic,RIGHT,0.000,18
Vanderbilt,SouthCarolina,SouthCarolina,RIGHT,0.000,10
Tulane,LouisianaTech,Tulane,RIGHT,0.000,9
GeorgiaTech,Duke,Duke,WRONG,0.000,-24
