AwayTeam,HomeTeam,PredictedWinner,Result,PredictionConfidence,ActualMoV
UTEP,TexasAM,TexasAM,RIGHT,33.000,50
OhioState,Purdue,OhioState,RIGHT,27.000,56
SouthernMiss,Marshall,Marshall,RIGHT,27.000,48
EasternMichigan,Toledo,Toledo,RIGHT,27.000,39
SouthFlorida,Houston,Houston,RIGHT,27.000,12
EastCarolina,FloridaInternational,EastCarolina,RIGHT,26.000,21
NewMexicoState,LouisianaLafayette,LouisianaLafayette,RIGHT,25.000,14
Colorado,UCLA,UCLA,RIGHT,23.000,22
Hawaii,UtahState,UtahState,RIGHT,23.000,37
Arizona,California,Arizona,RIGHT,21.000,5
Kansas,Texas,Texas,RIGHT,20.000,22
Nevada,FresnoState,FresnoState,RIGHT,19.000,18
MiamiFL,FloridaState,FloridaState,RIGHT,19.000,27
IowaState,KansasState,KansasState,RIGHT,18.000,34
WesternKentucky,GeorgiaState,WesternKentucky,RIGHT,18.000,16
Tennessee,Missouri,Missouri,RIGHT,17.000,28
Temple,Rutgers,Rutgers,RIGHT,16.000,3
NorthernIllinois,Massachusetts,NorthernIllinois,RIGHT,16.000,44
TexasState,Idaho,TexasState,RIGHT,14.000,16
Auburn,Arkansas,Auburn,RIGHT,14.000,18
Clemson,Virginia,Clemson,RIGHT,14.000,49
Pittsburgh,GeorgiaTech,GeorgiaTech,RIGHT,14.000,11
ArizonaState,WashingtonState,ArizonaState,RIGHT,13.000,34
Illinois,PennState,PennState,RIGHT,13.000,7
Navy,NotreDame,NotreDame,RIGHT,13.000,4
Northwestern,Nebraska,Nebraska,RIGHT,12.000,3
FCS,Kentucky,Kentucky,RIGHT,11.000,34
WestVirginia,TCU,TCU,WRONG,9.000,-3
Minnesota,Indiana,Indiana,WRONG,9.000,-3
MississippiState,SouthCarolina,SouthCarolina,RIGHT,8.000,18
Army,AirForce,Army,WRONG,7.000,-14
ArkansasState,SouthAlabama,SouthAlabama,WRONG,7.000,-1
BoiseState,ColoradoState,BoiseState,RIGHT,6.000,12
OklahomaState,TexasTech,TexasTech,WRONG,6.000,-18
VirginiaTech,BostonCollege,VirginiaTech,WRONG,5.000,-7
NewMexico,SanDiegoState,SanDiegoState,RIGHT,5.000,5
KentState,Akron,Akron,RIGHT,5.000,9
MiddleTennessee,UAB,MiddleTennessee,RIGHT,4.000,3
Tulane,FloridaAtlantic,Tulane,WRONG,4.000,-17
Rice,NorthTexas,NorthTexas,RIGHT,3.000,12
Michigan,MichiganState,Michigan,WRONG,3.000,-23
NorthCarolina,NorthCarolinaState,NorthCarolina,RIGHT,2.000,8
WakeForest,Syracuse,WakeForest,WRONG,1.000,-13
Cincinnati,Memphis,Cincinnati,RIGHT,1.000,13
SanJoseState,UNLV,UNLV,WRONG,1.000,-10
USC,OregonState,OregonState,WRONG,1.000,-17
Georgia,Florida,Florida,WRONG,1.000,-3
UTSA,Tulsa,UTSA,RIGHT,1.000,19
Wisconsin,Iowa,Iowa,WRONG,0.000,-19
LouisianaMonroe,Troy,Troy,WRONG,0.000,-12
