AwayTeam,HomeTeam,PredictedWinner,Result,PredictionConfidence,ActualMoV
NewMexicoState,UCLA,UCLA,RIGHT,42.000,46
FCS,Washington,Washington,RIGHT,38.000,56
FCS,FloridaState,FloridaState,RIGHT,32.000,48
FCS,OhioState,OhioState,RIGHT,32.000,76
FloridaInternational,Louisville,Louisville,RIGHT,31.000,72
ColoradoState,Alabama,Alabama,RIGHT,27.000,25
Cincinnati,MiamiOH,Cincinnati,RIGHT,26.000,14
FCS,MiamiFL,MiamiFL,RIGHT,25.000,70
LouisianaMonroe,Baylor,Baylor,RIGHT,24.000,63
FCS,Virginia,Virginia,RIGHT,24.000,49
Vanderbilt,Massachusetts,Vanderbilt,RIGHT,24.000,17
Idaho,WashingtonState,WashingtonState,RIGHT,24.000,42
FCS,Nebraska,Nebraska,RIGHT,23.000,39
FCS,Ohio,Ohio,RIGHT,23.000,38
FCS,Northwestern,Northwestern,RIGHT,23.000,14
FCS,BowlingGreen,BowlingGreen,RIGHT,22.000,41
ArkansasState,Memphis,ArkansasState,WRONG,21.000,-24
SouthernMethodist,TexasAM,TexasAM,RIGHT,21.000,29
KentState,PennState,PennState,RIGHT,20.000,34
FCS,NorthernIllinois,NorthernIllinois,RIGHT,20.000,4
BallState,EasternMichigan,BallState,RIGHT,19.000,31
NorthCarolina,GeorgiaTech,GeorgiaTech,RIGHT,19.000,8
FCS,UNLV,UNLV,RIGHT,18.000,31
Missouri,Indiana,Indiana,WRONG,16.000,-17
Auburn,LSU,LSU,RIGHT,16.000,14
TexasState,TexasTech,TexasTech,RIGHT,15.000,26
Hawaii,Nevada,Nevada,RIGHT,15.000,22
Purdue,Wisconsin,Wisconsin,RIGHT,14.000,31
Michigan,Connecticut,Michigan,RIGHT,14.000,3
FCS,UAB,UAB,RIGHT,13.000,24
Troy,MississippiState,MississippiState,RIGHT,11.000,55
Wyoming,AirForce,Wyoming,RIGHT,10.000,33
NorthTexas,Georgia,Georgia,RIGHT,10.000,24
FCS,GeorgiaState,FCS,RIGHT,9.000,6
ArizonaState,Stanford,Stanford,RIGHT,9.000,14
Tulane,Syracuse,Syracuse,RIGHT,8.000,35
LouisianaLafayette,Akron,Akron,WRONG,8.000,-5
OregonState,SanDiegoState,OregonState,RIGHT,8.000,4
FCS,WesternKentucky,WesternKentucky,RIGHT,8.000,41
KansasState,Texas,KansasState,WRONG,6.000,-10
WestVirginia,Maryland,Maryland,RIGHT,6.000,37
Arkansas,Rutgers,Rutgers,RIGHT,6.000,4
UtahState,USC,USC,RIGHT,5.000,3
LouisianaTech,Kansas,Kansas,RIGHT,5.000,3
SanJoseState,Minnesota,Minnesota,RIGHT,5.000,19
Tennessee,Florida,Florida,RIGHT,5.000,14
Houston,Rice,Houston,RIGHT,5.000,5
WesternMichigan,Iowa,Iowa,RIGHT,3.000,56
UTSA,UTEP,UTEP,WRONG,3.000,-19
Marshall,VirginiaTech,Marshall,WRONG,3.000,-8
Clemson,NorthCarolinaState,NorthCarolinaState,WRONG,3.000,-12
BoiseState,FresnoState,FresnoState,RIGHT,2.000,1
MichiganState,NotreDame,NotreDame,RIGHT,2.000,4
Utah,BrighamYoung,BrighamYoung,WRONG,2.000,-7
Toledo,CentralMichigan,CentralMichigan,WRONG,2.000,-21
Pittsburgh,Duke,Pittsburgh,RIGHT,1.000,3
WakeForest,Army,Army,WRONG,0.000,-14
MiddleTennessee,FloridaAtlantic,FloridaAtlantic,WRONG,0.000,-7
