AwayTeam,HomeTeam,PredictedWinner,Result,PredictionConfidence,ActualMoV
UCF,Baylor,Baylor,WRONG,21.000,-10
Auburn,FloridaState,FloridaState,RIGHT,18.000,3
Pittsburgh,BowlingGreen,BowlingGreen,WRONG,17.000,-3
MiamiFL,Louisville,Louisville,RIGHT,13.000,27
Nebraska,Georgia,Georgia,WRONG,12.000,-5
ArkansasState,BallState,BallState,WRONG,12.000,-3
Oklahoma,Alabama,Alabama,WRONG,12.000,-14
Duke,TexasAM,TexasAM,RIGHT,12.000,4
Marshall,Maryland,Marshall,RIGHT,12.000,11
ArizonaState,TexasTech,ArizonaState,WRONG,12.000,-14
UNLV,NorthTexas,NorthTexas,RIGHT,12.000,22
Clemson,OhioState,OhioState,WRONG,11.000,-5
Rutgers,NotreDame,NotreDame,RIGHT,11.000,13
Vanderbilt,Houston,Houston,WRONG,10.000,-17
Iowa,LSU,LSU,RIGHT,9.000,7
Syracuse,Minnesota,Minnesota,WRONG,9.000,-4
UtahState,NorthernIllinois,NorthernIllinois,WRONG,9.000,-7
OklahomaState,Missouri,Missouri,RIGHT,8.000,10
BoiseState,OregonState,BoiseState,WRONG,8.000,-15
VirginiaTech,UCLA,UCLA,RIGHT,8.000,30
OleMiss,GeorgiaTech,GeorgiaTech,WRONG,7.000,-8
Arizona,BostonCollege,Arizona,RIGHT,6.000,23
Oregon,Texas,Oregon,RIGHT,6.000,23
BrighamYoung,Washington,Washington,RIGHT,6.000,15
Buffalo,SanDiegoState,Buffalo,WRONG,5.000,-25
Cincinnati,NorthCarolina,NorthCarolina,RIGHT,5.000,22
MiddleTennessee,Navy,Navy,RIGHT,4.000,18
Rice,MississippiState,MississippiState,RIGHT,4.000,37
Tulane,LouisianaLafayette,LouisianaLafayette,RIGHT,3.000,3
Wisconsin,SouthCarolina,SouthCarolina,RIGHT,2.000,10
FresnoState,USC,USC,RIGHT,1.000,25
WashingtonState,ColoradoState,WashingtonState,WRONG,1.000,-3
Michigan,KansasState,KansasState,RIGHT,1.000,17
Stanford,MichiganState,MichiganState,RIGHT,0.000,4
