AwayTeam,HomeTeam,PredictedWinner,PredictedMarginOfVictory
Baylor,SouthernMethodist,Baylor,41
FCS,Oregon,Oregon,36
FCS,OleMiss,OleMiss,33
FCS,Clemson,Clemson,30
FCS,GeorgiaTech,GeorgiaTech,30
LouisianaMonroe,Georgia,Georgia,29
MississippiState,SouthernMiss,MississippiState,28
FCS,KansasState,KansasState,27
FCS,Missouri,Missouri,27
Purdue,Marshall,Marshall,27
Troy,NorthCarolinaState,NorthCarolinaState,26
FCS,Memphis,Memphis,26
FCS,MiamiFL,MiamiFL,25
FCS,LSU,LSU,25
FCS,Navy,Navy,24
FCS,Cincinnati,Cincinnati,24
FCS,LouisianaTech,LouisianaTech,24
FCS,ColoradoState,ColoradoState,24
NewMexicoState,Florida,Florida,24
FCS,AirForce,AirForce,23
FCS,EastCarolina,EastCarolina,23
FCS,Toledo,Toledo,23
FCS,Rutgers,Rutgers,22
UNLV,NorthernIllinois,NorthernIllinois,22
FCS,UtahState,UtahState,22
UTSA,Arizona,Arizona,21
FCS,Maryland,Maryland,20
FCS,Pittsburgh,Pittsburgh,20
FCS,Iowa,Iowa,19
FCS,Nevada,Nevada,19
FCS,MiddleTennessee,MiddleTennessee,19
BowlingGreen,Tennessee,Tennessee,19
FCS,BostonCollege,BostonCollege,18
FCS,Rice,Rice,18
FCS,WashingtonState,WashingtonState,17
FCS,Houston,Houston,17
FCS,SanDiegoState,SanDiegoState,17
OhioState,VirginiaTech,OhioState,17
FCS,California,California,17
MichiganState,WesternMichigan,MichiganState,16
Akron,Oklahoma,Oklahoma,16
WesternKentucky,Vanderbilt,WesternKentucky,16
UTEP,Arkansas,Arkansas,16
ArkansasState,USC,USC,16
Washington,BoiseState,BoiseState,16
Duke,Tulane,Duke,15
FloridaInternational,UCF,UCF,14
FCS,TexasTech,TexasTech,14
FCS,Indiana,Indiana,14
FCS,NewMexico,NewMexico,13
FCS,BallState,BallState,13
FCS,SouthAlabama,SouthAlabama,13
FCS,AppalachianState,AppalachianState,13
FCS,OregonState,OregonState,13
FCS,Buffalo,Buffalo,12
TexasState,FloridaState,FloridaState,12
FCS,WakeForest,WakeForest,12
FCS,FresnoState,FresnoState,12
TCU,Minnesota,TCU,11
Virginia,UCLA,UCLA,11
OldDominion,EasternMichigan,OldDominion,11
FCS,MiamiOH,MiamiOH,10
Wisconsin,Alabama,Alabama,10
FCS,Wyoming,Wyoming,10
NorthCarolina,SouthCarolina,SouthCarolina,10
Louisville,Auburn,Auburn,9
Ohio,Idaho,Ohio,9
FCS,SanJoseState,SanJoseState,9
BrighamYoung,Nebraska,Nebraska,8
Texas,NotreDame,NotreDame,8
KentState,Illinois,Illinois,8
FCS,Army,Army,8
FCS,SouthFlorida,SouthFlorida,8
FCS,Kansas,Kansas,7
FCS,Syracuse,Syracuse,7
Stanford,Northwestern,Stanford,7
OklahomaState,CentralMichigan,CentralMichigan,6
Michigan,Utah,Utah,6
FCS,GeorgiaState,GeorgiaState,6
FCS,IowaState,IowaState,6
ArizonaState,TexasAM,TexasAM,4
GeorgiaSouthern,WestVirginia,WestVirginia,3
FloridaAtlantic,Tulsa,Tulsa,3
FCS,Connecticut,Connecticut,3
Colorado,Hawaii,Colorado,1
PennState,Temple,Temple,1
LouisianaLafayette,Kentucky,Kentucky,0
