AwayTeam,HomeTeam,PredictedWinner,PredictedMarginOfVictory
FCS,Alabama,Alabama,37
FCS,FloridaState,FloridaState,32
WakeForest,Clemson,Clemson,27
WestVirginia,Kansas,WestVirginia,25
NorthTexas,MiddleTennessee,MiddleTennessee,25
FresnoState,BrighamYoung,BrighamYoung,24
FloridaAtlantic,Florida,Florida,22
LouisianaTech,UTEP,LouisianaTech,22
OldDominion,SouthernMiss,SouthernMiss,21
Purdue,Iowa,Iowa,20
Idaho,Auburn,Auburn,20
BostonCollege,NotreDame,NotreDame,19
FCS,SouthCarolina,SouthCarolina,18
Navy,Tulsa,Navy,18
WesternKentucky,FloridaInternational,WesternKentucky,16
Washington,OregonState,Washington,14
EastCarolina,UCF,EastCarolina,14
Syracuse,NorthCarolinaState,NorthCarolinaState,13
MichiganState,OhioState,OhioState,13
BallState,Ohio,Ohio,13
Houston,Connecticut,Houston,12
California,Stanford,Stanford,12
SanJoseState,Hawaii,SanJoseState,11
SanDiegoState,UNLV,SanDiegoState,11
Charlotte,Kentucky,Kentucky,11
CentralMichigan,KentState,CentralMichigan,10
TCU,Oklahoma,Oklahoma,10
UCLA,Utah,Utah,10
NewMexicoState,LouisianaLafayette,LouisianaLafayette,9
Arizona,ArizonaState,ArizonaState,9
Northwestern,Wisconsin,Wisconsin,9
LouisianaMonroe,TexasState,TexasState,9
AirForce,BoiseState,BoiseState,9
Colorado,WashingtonState,WashingtonState,8
Nevada,UtahState,UtahState,8
Rice,UTSA,UTSA,8
GeorgiaSouthern,Georgia,Georgia,7
NorthCarolina,VirginiaTech,NorthCarolina,7
Tennessee,Missouri,Tennessee,7
Baylor,OklahomaState,Baylor,7
Duke,Virginia,Duke,6
IowaState,KansasState,KansasState,5
Michigan,PennState,Michigan,5
LSU,OleMiss,OleMiss,5
Rutgers,Army,Rutgers,5
Tulane,SouthernMethodist,SouthernMethodist,5
Indiana,Maryland,Maryland,4
TexasAM,Vanderbilt,TexasAM,4
Louisville,Pittsburgh,Pittsburgh,4
GeorgiaTech,MiamiFL,GeorgiaTech,3
Memphis,Temple,Memphis,3
MississippiState,Arkansas,Arkansas,3
Buffalo,Akron,Akron,3
WesternMichigan,NorthernIllinois,NorthernIllinois,3
MiamiOH,Massachusetts,Massachusetts,3
Cincinnati,SouthFlorida,SouthFlorida,2
Toledo,BowlingGreen,BowlingGreen,2
Illinois,Minnesota,Illinois,2
USC,Oregon,USC,2
SouthAlabama,GeorgiaState,GeorgiaState,1
ColoradoState,NewMexico,NewMexico,0
