AwayTeam,HomeTeam,PredictedWinner,Result,PredictionConfidence,ActualMoV
Baylor,SouthernMethodist,Baylor,RIGHT,41.000,35
FCS,Oregon,Oregon,RIGHT,36.000,19
FCS,OleMiss,OleMiss,RIGHT,33.000,73
FCS,Clemson,Clemson,RIGHT,30.000,39
FCS,GeorgiaTech,GeorgiaTech,RIGHT,30.000,63
LouisianaMonroe,Georgia,Georgia,RIGHT,29.000,37
MississippiState,SouthernMiss,MississippiState,RIGHT,28.000,18
FCS,KansasState,KansasState,RIGHT,27.000,34
FCS,Missouri,Missouri,RIGHT,27.000,31
Purdue,Marshall,Marshall,RIGHT,27.000,10
Troy,NorthCarolinaState,NorthCarolinaState,RIGHT,26.000,28
FCS,Memphis,Memphis,RIGHT,26.000,56
FCS,MiamiFL,MiamiFL,RIGHT,25.000,45
FCS,Navy,Navy,RIGHT,24.000,38
FCS,Cincinnati,Cincinnati,RIGHT,24.000,42
FCS,LouisianaTech,LouisianaTech,RIGHT,24.000,47
FCS,ColoradoState,ColoradoState,RIGHT,24.000,52
NewMexicoState,Florida,Florida,RIGHT,24.000,48
FCS,AirForce,AirForce,RIGHT,23.000,56
FCS,EastCarolina,EastCarolina,RIGHT,23.000,8
FCS,Rutgers,Rutgers,RIGHT,22.000,50
UNLV,NorthernIllinois,NorthernIllinois,RIGHT,22.000,8
FCS,UtahState,UtahState,RIGHT,22.000,3
UTSA,Arizona,Arizona,RIGHT,21.000,10
FCS,Maryland,Maryland,RIGHT,20.000,29
FCS,Pittsburgh,Pittsburgh,RIGHT,20.000,8
FCS,Iowa,Iowa,RIGHT,19.000,17
FCS,Nevada,Nevada,RIGHT,19.000,14
FCS,MiddleTennessee,MiddleTennessee,RIGHT,19.000,56
BowlingGreen,Tennessee,Tennessee,RIGHT,19.000,29
FCS,BostonCollege,BostonCollege,RIGHT,18.000,21
FCS,Rice,Rice,RIGHT,18.000,40
FCS,WashingtonState,WashingtonState,WRONG,17.000,-7
FCS,Houston,Houston,RIGHT,17.000,28
FCS,SanDiegoState,SanDiegoState,RIGHT,17.000,34
OhioState,VirginiaTech,OhioState,RIGHT,17.000,18
FCS,California,California,RIGHT,17.000,59
MichiganState,WesternMichigan,MichiganState,RIGHT,16.000,13
Akron,Oklahoma,Oklahoma,RIGHT,16.000,38
WesternKentucky,Vanderbilt,WesternKentucky,RIGHT,16.000,2
UTEP,Arkansas,Arkansas,RIGHT,16.000,35
ArkansasState,USC,USC,RIGHT,16.000,49
Washington,BoiseState,BoiseState,RIGHT,16.000,3
Duke,Tulane,Duke,RIGHT,15.000,30
FloridaInternational,UCF,UCF,WRONG,14.000,-1
FCS,TexasTech,TexasTech,RIGHT,14.000,14
FCS,Indiana,Indiana,RIGHT,14.000,1
FCS,NewMexico,NewMexico,RIGHT,13.000,66
FCS,BallState,BallState,RIGHT,13.000,12
FCS,SouthAlabama,SouthAlabama,RIGHT,13.000,10
FCS,AppalachianState,AppalachianState,RIGHT,13.000,49
FCS,OregonState,OregonState,RIGHT,13.000,19
FCS,Buffalo,Buffalo,RIGHT,12.000,37
TexasState,FloridaState,FloridaState,RIGHT,12.000,43
FCS,WakeForest,WakeForest,RIGHT,12.000,38
FCS,FresnoState,FresnoState,RIGHT,12.000,21
TCU,Minnesota,TCU,RIGHT,11.000,6
Virginia,UCLA,UCLA,RIGHT,11.000,18
OldDominion,EasternMichigan,OldDominion,RIGHT,11.000,4
FCS,MiamiOH,MiamiOH,RIGHT,10.000,19
Wisconsin,Alabama,Alabama,RIGHT,10.000,18
FCS,Wyoming,Wyoming,WRONG,10.000,-11
NorthCarolina,SouthCarolina,SouthCarolina,RIGHT,10.000,4
Louisville,Auburn,Auburn,RIGHT,9.000,7
Ohio,Idaho,Ohio,RIGHT,9.000,17
FCS,SanJoseState,SanJoseState,RIGHT,9.000,30
BrighamYoung,Nebraska,Nebraska,WRONG,8.000,-5
Texas,NotreDame,NotreDame,RIGHT,8.000,35
KentState,Illinois,Illinois,RIGHT,8.000,49
FCS,Army,Army,WRONG,8.000,-2
FCS,SouthFlorida,SouthFlorida,RIGHT,8.000,48
FCS,Kansas,Kansas,WRONG,7.000,-3
FCS,Syracuse,Syracuse,RIGHT,7.000,47
Stanford,Northwestern,Stanford,WRONG,7.000,-10
OklahomaState,CentralMichigan,CentralMichigan,WRONG,6.000,-11
Michigan,Utah,Utah,RIGHT,6.000,7
FCS,IowaState,IowaState,RIGHT,6.000,24
ArizonaState,TexasAM,TexasAM,RIGHT,4.000,21
GeorgiaSouthern,WestVirginia,WestVirginia,RIGHT,3.000,44
FloridaAtlantic,Tulsa,Tulsa,RIGHT,3.000,3
FCS,Connecticut,Connecticut,RIGHT,3.000,5
Colorado,Hawaii,Colorado,WRONG,1.000,-8
PennState,Temple,Temple,RIGHT,1.000,17
LouisianaLafayette,Kentucky,Kentucky,RIGHT,0.000,7
