AwayTeam,HomeTeam,PredictedWinner,Result,PredictionConfidence,ActualMoV
EasternMichigan,LSU,LSU,RIGHT,29.000,22
Wyoming,AppalachianState,AppalachianState,RIGHT,29.000,18
FCS,Kentucky,Kentucky,RIGHT,29.000,7
Kansas,IowaState,IowaState,RIGHT,25.000,25
NorthTexas,SouthernMiss,SouthernMiss,RIGHT,23.000,35
Louisville,NorthCarolinaState,NorthCarolinaState,WRONG,22.000,-7
Michigan,Maryland,Michigan,RIGHT,22.000,28
TexasTech,Baylor,Baylor,RIGHT,20.000,28
Purdue,MichiganState,MichiganState,RIGHT,19.000,3
Idaho,ArkansasState,ArkansasState,RIGHT,19.000,14
ArizonaState,UCLA,UCLA,WRONG,18.000,-15
Texas,TCU,TCU,RIGHT,17.000,43
Minnesota,Northwestern,Northwestern,RIGHT,17.000,27
LouisianaLafayette,LouisianaTech,LouisianaTech,RIGHT,17.000,29
WesternKentucky,Rice,WesternKentucky,RIGHT,16.000,39
MiamiOH,KentState,KentState,RIGHT,15.000,6
Hawaii,BoiseState,BoiseState,RIGHT,14.000,55
Army,PennState,PennState,RIGHT,14.000,6
OldDominion,Marshall,Marshall,RIGHT,14.000,20
Temple,Charlotte,Temple,RIGHT,14.000,34
KansasState,OklahomaState,OklahomaState,RIGHT,14.000,2
MississippiState,TexasAM,TexasAM,RIGHT,13.000,13
WashingtonState,California,California,RIGHT,13.000,6
BostonCollege,Duke,Duke,RIGHT,12.000,2
Memphis,SouthFlorida,Memphis,RIGHT,12.000,7
SouthAlabama,Troy,Troy,WRONG,11.000,-6
Connecticut,BrighamYoung,BrighamYoung,RIGHT,11.000,17
FloridaState,WakeForest,FloridaState,RIGHT,11.000,8
Arizona,Stanford,Stanford,RIGHT,10.000,38
Arkansas,Tennessee,Tennessee,WRONG,10.000,-4
FCS,GeorgiaState,GeorgiaState,WRONG,9.000,-8
Vanderbilt,MiddleTennessee,MiddleTennessee,WRONG,8.000,-4
FloridaInternational,Massachusetts,Massachusetts,RIGHT,8.000,10
SouthCarolina,Missouri,Missouri,RIGHT,8.000,14
AirForce,Navy,Navy,RIGHT,8.000,22
GeorgiaSouthern,LouisianaMonroe,GeorgiaSouthern,RIGHT,8.000,20
Iowa,Wisconsin,Wisconsin,WRONG,8.000,-4
FresnoState,SanDiegoState,SanDiegoState,RIGHT,8.000,14
NorthCarolina,GeorgiaTech,GeorgiaTech,WRONG,7.000,-7
EastCarolina,SouthernMethodist,EastCarolina,RIGHT,6.000,26
Ohio,Akron,Ohio,RIGHT,6.000,2
UTSA,UTEP,UTSA,RIGHT,6.000,19
BowlingGreen,Buffalo,Buffalo,WRONG,6.000,-6
ColoradoState,UtahState,ColoradoState,WRONG,5.000,-15
Toledo,BallState,Toledo,RIGHT,4.000,14
Alabama,Georgia,Georgia,WRONG,4.000,-28
UNLV,Nevada,Nevada,WRONG,4.000,-6
NewMexicoState,NewMexico,NewMexico,RIGHT,3.000,9
Houston,Tulsa,Tulsa,WRONG,3.000,-14
OleMiss,Florida,OleMiss,WRONG,3.000,-28
OhioState,Indiana,OhioState,RIGHT,3.000,7
Nebraska,Illinois,Nebraska,WRONG,2.000,-1
NotreDame,Clemson,Clemson,RIGHT,2.000,2
MiamiFL,Cincinnati,Cincinnati,RIGHT,1.000,11
Oregon,Colorado,Oregon,RIGHT,1.000,17
UCF,Tulane,Tulane,RIGHT,1.000,14
WestVirginia,Oklahoma,Oklahoma,RIGHT,1.000,20
SanJoseState,Auburn,Auburn,RIGHT,1.000,14
Pittsburgh,VirginiaTech,Pittsburgh,RIGHT,1.000,4
NorthernIllinois,CentralMichigan,CentralMichigan,RIGHT,1.000,10
