AwayTeam,HomeTeam,PredictedWinner,Result,PredictionConfidence,ActualMoV
WesternKentucky,NorthTexas,WesternKentucky,RIGHT,34.000,27
UCF,Temple,Temple,RIGHT,27.000,14
EasternMichigan,Toledo,Toledo,RIGHT,26.000,43
TexasTech,Kansas,TexasTech,RIGHT,23.000,10
NewMexicoState,GeorgiaSouthern,GeorgiaSouthern,RIGHT,20.000,30
MichiganState,Michigan,Michigan,WRONG,19.000,-4
Houston,Tulane,Houston,RIGHT,19.000,35
Purdue,Wisconsin,Wisconsin,RIGHT,18.000,17
BostonCollege,Clemson,Clemson,RIGHT,18.000,17
GeorgiaState,BallState,BallState,WRONG,17.000,-12
Nevada,Wyoming,Nevada,WRONG,16.000,-7
WestVirginia,Baylor,Baylor,RIGHT,16.000,24
ArizonaState,Utah,Utah,RIGHT,16.000,16
WesternMichigan,Ohio,Ohio,WRONG,15.000,-35
AppalachianState,LouisianaMonroe,AppalachianState,RIGHT,14.000,45
TCU,IowaState,TCU,RIGHT,14.000,24
FCS,Army,Army,RIGHT,14.000,7
Louisville,FloridaState,FloridaState,RIGHT,13.000,20
UNLV,FresnoState,UNLV,WRONG,13.000,-3
Rutgers,Indiana,Indiana,WRONG,13.000,-3
Idaho,Troy,Troy,WRONG,12.000,-3
BoiseState,UtahState,BoiseState,WRONG,11.000,-26
Marshall,FloridaAtlantic,Marshall,RIGHT,11.000,16
PennState,OhioState,OhioState,RIGHT,11.000,28
UTSA,SouthernMiss,SouthernMiss,RIGHT,11.000,22
Florida,LSU,LSU,RIGHT,10.000,7
UCLA,Stanford,Stanford,RIGHT,10.000,21
WakeForest,NorthCarolina,NorthCarolina,RIGHT,9.000,36
Tulsa,EastCarolina,EastCarolina,RIGHT,8.000,13
Auburn,Kentucky,Kentucky,WRONG,8.000,-3
Arizona,Colorado,Arizona,RIGHT,8.000,7
Pittsburgh,GeorgiaTech,GeorgiaTech,WRONG,7.000,-3
Oregon,Washington,Washington,WRONG,7.000,-6
LouisianaTech,MississippiState,MississippiState,RIGHT,7.000,25
Charlotte,OldDominion,OldDominion,RIGHT,6.000,3
USC,NotreDame,NotreDame,RIGHT,6.000,10
Missouri,Georgia,Georgia,RIGHT,6.000,3
Iowa,Northwestern,Northwestern,WRONG,6.000,-30
FloridaInternational,MiddleTennessee,MiddleTennessee,RIGHT,5.000,8
ArkansasState,SouthAlabama,ArkansasState,RIGHT,5.000,18
Alabama,TexasAM,TexasAM,WRONG,5.000,-18
Cincinnati,BrighamYoung,BrighamYoung,RIGHT,5.000,14
AirForce,ColoradoState,AirForce,WRONG,4.000,-15
Syracuse,Virginia,Syracuse,WRONG,3.000,-6
SanDiegoState,SanJoseState,SanDiegoState,RIGHT,3.000,23
OregonState,WashingtonState,WashingtonState,RIGHT,3.000,21
Hawaii,NewMexico,NewMexico,RIGHT,3.000,1
Buffalo,CentralMichigan,CentralMichigan,RIGHT,2.000,37
Nebraska,Minnesota,Nebraska,RIGHT,2.000,23
Oklahoma,KansasState,Oklahoma,RIGHT,1.000,55
VirginiaTech,MiamiFL,MiamiFL,RIGHT,1.000,10
OleMiss,Memphis,OleMiss,WRONG,1.000,-13
KentState,Massachusetts,Massachusetts,WRONG,1.000,-5
SouthFlorida,Connecticut,Connecticut,WRONG,1.000,-8
Vanderbilt,SouthCarolina,Vanderbilt,WRONG,0.000,-9
Akron,BowlingGreen,BowlingGreen,RIGHT,0.000,49
