AwayTeam,HomeTeam,PredictedWinner,PredictedMarginOfVictory
Rice,NorthTexas,NorthTexas,30
KansasState,Oklahoma,Oklahoma,30
UAB,UTEP,UAB,26
OregonState,Colorado,Colorado,24
NorthCarolina,Virginia,Virginia,21
FCS,Nebraska,Nebraska,20
NewMexico,UtahState,UtahState,20
Clemson,FloridaState,Clemson,20
Troy,SouthAlabama,Troy,17
Illinois,Maryland,Maryland,16
Hawaii,FresnoState,FresnoState,15
Tennessee,SouthCarolina,SouthCarolina,14
NotreDame,Navy,NotreDame,13
Utah,UCLA,Utah,13
Baylor,WestVirginia,WestVirginia,13
Florida,Georgia,Georgia,12
NewMexicoState,TexasState,TexasState,11
BallState,Ohio,Ohio,10
Cincinnati,SouthernMethodist,Cincinnati,10
WakeForest,Louisville,WakeForest,10
TCU,Kansas,TCU,9
TexasAM,MississippiState,MississippiState,8
Oregon,Arizona,Oregon,8
SouthFlorida,Houston,Houston,8
NorthCarolinaState,Syracuse,Syracuse,7
Army,EasternMichigan,Army,7
Washington,California,Washington,7
MiamiFL,BostonCollege,MiamiFL,7
Iowa,PennState,PennState,7
UNLV,SanJoseState,SanJoseState,7
NorthernIllinois,BrighamYoung,BrighamYoung,7
Wisconsin,Northwestern,Wisconsin,6
AppalachianState,GeorgiaSouthern,AppalachianState,6
Vanderbilt,Arkansas,Vanderbilt,6
MiddleTennessee,OldDominion,MiddleTennessee,6
Toledo,WesternMichigan,WesternMichigan,6
Massachusetts,Connecticut,Connecticut,6
Wyoming,ColoradoState,Wyoming,6
FloridaInternational,WesternKentucky,FloridaInternational,5
BoiseState,AirForce,BoiseState,5
Purdue,MichiganState,Purdue,5
Duke,Pittsburgh,Duke,5
CoastalCarolina,GeorgiaState,CoastalCarolina,4
CentralMichigan,Akron,Akron,3
Kentucky,Missouri,Missouri,3
Texas,OklahomaState,Texas,3
GeorgiaTech,VirginiaTech,GeorgiaTech,2
TexasTech,IowaState,TexasTech,2
WashingtonState,Stanford,Stanford,2
Indiana,Minnesota,Indiana,2
SanDiegoState,Nevada,SanDiegoState,1
ArizonaState,USC,USC,1
Tulane,Tulsa,Tulane,1
ArkansasState,LouisianaLafayette,ArkansasState,0
LouisianaTech,FloridaAtlantic,LouisianaTech,0
SouthernMiss,Charlotte,SouthernMiss,0
