AwayTeam,HomeTeam,PredictedWinner,PredictedMarginOfVictory
Akron,SouthCarolina,SouthCarolina,23.901
EastCarolina,NorthCarolinaState,NorthCarolinaState,22.642
LouisianaLafayette,AppalachianState,AppalachianState,22.144
Clemson,Pittsburgh,Clemson,17.376
Memphis,UCF,UCF,11.539
Northwestern,OhioState,OhioState,10.758
Marshall,VirginiaTech,Marshall,7.234
FCS,Liberty,FCS,6.966
Utah,Washington,Washington,6.726
NorthernIllinois,Buffalo,Buffalo,5.984
UAB,MiddleTennessee,MiddleTennessee,5.521
FresnoState,BoiseState,FresnoState,4.070
Stanford,California,Stanford,3.957
FCS,IowaState,FCS,2.493
Alabama,Georgia,Georgia,1.836
Texas,Oklahoma,Oklahoma,1.232
