AwayTeam,HomeTeam,PredictedWinner,PredictedMarginOfVictory
FCS,Army,Army,31
Louisville,Syracuse,Syracuse,30
SanJoseState,UtahState,UtahState,30
OklahomaState,Oklahoma,Oklahoma,28
OregonState,Stanford,Stanford,28
Michigan,Rutgers,Michigan,27
NorthTexas,OldDominion,NorthTexas,26
Navy,UCF,UCF,25
MississippiState,Alabama,Alabama,24
NorthCarolina,Duke,Duke,22
WakeForest,NorthCarolinaState,NorthCarolinaState,21
KentState,Buffalo,Buffalo,20
Rice,LouisianaTech,LouisianaTech,20
Auburn,Georgia,Georgia,18
FloridaState,NotreDame,NotreDame,18
ColoradoState,Nevada,Nevada,18
UNLV,SanDiegoState,SanDiegoState,18
GeorgiaState,LouisianaLafayette,LouisianaLafayette,18
EastCarolina,Tulane,Tulane,17
TCU,WestVirginia,WestVirginia,17
LSU,Arkansas,LSU,17
UCLA,ArizonaState,ArizonaState,17
SouthFlorida,Cincinnati,Cincinnati,16
WesternKentucky,FloridaAtlantic,FloridaAtlantic,15
OleMiss,TexasAM,TexasAM,15
Clemson,BostonCollege,Clemson,14
Liberty,Virginia,Virginia,14
Baylor,IowaState,IowaState,14
SouthernMiss,UAB,UAB,14
Tulsa,Memphis,Memphis,13
BowlingGreen,CentralMichigan,CentralMichigan,13
Vanderbilt,Missouri,Missouri,13
AppalachianState,TexasState,AppalachianState,13
SouthernMethodist,Connecticut,SouthernMethodist,13
Purdue,Minnesota,Purdue,12
Oregon,Utah,Utah,12
Charlotte,Marshall,Marshall,10
Illinois,Nebraska,Nebraska,10
MiddleTennessee,UTEP,MiddleTennessee,9
Wisconsin,PennState,PennState,9
NewMexico,AirForce,AirForce,9
Akron,EasternMichigan,EasternMichigan,9
Northwestern,Iowa,Iowa,9
VirginiaTech,Pittsburgh,Pittsburgh,8
SouthCarolina,Florida,Florida,8
WashingtonState,Colorado,WashingtonState,8
FloridaInternational,UTSA,FloridaInternational,8
BrighamYoung,Massachusetts,BrighamYoung,6
Kansas,KansasState,KansasState,6
California,USC,USC,6
LouisianaMonroe,SouthAlabama,LouisianaMonroe,6
ArkansasState,CoastalCarolina,CoastalCarolina,5
Toledo,NorthernIllinois,Toledo,5
Kentucky,Tennessee,Kentucky,5
Temple,Houston,Houston,4
Ohio,MiamiOH,Ohio,4
Maryland,Indiana,Maryland,3
FresnoState,BoiseState,FresnoState,3
Troy,GeorgiaSouthern,GeorgiaSouthern,2
MiamiFL,GeorgiaTech,MiamiFL,2
Texas,TexasTech,TexasTech,1
OhioState,MichiganState,OhioState,1
