AwayTeam,HomeTeam,PredictedWinner,PredictedMarginOfVictory
Duke,Temple,Temple,21.539
Texas,Georgia,Georgia,18.985
NotreDame,Clemson,Clemson,16.685
ArizonaState,FresnoState,FresnoState,12.175
LSU,UCF,UCF,12.021
WesternMichigan,BrighamYoung,BrighamYoung,11.571
Purdue,Auburn,Auburn,10.180
Stanford,Pittsburgh,Stanford,9.248
SanDiegoState,Ohio,Ohio,9.111
MiddleTennessee,AppalachianState,AppalachianState,8.410
Oklahoma,Alabama,Alabama,8.340
NorthTexas,UtahState,UtahState,7.454
NorthCarolinaState,TexasAM,NorthCarolinaState,7.171
Missouri,OklahomaState,Missouri,7.064
Florida,Michigan,Michigan,6.571
Cincinnati,VirginiaTech,Cincinnati,6.512
Marshall,SouthFlorida,Marshall,6.481
WestVirginia,Syracuse,WestVirginia,6.396
Clemson,Alabama,Clemson,6.280
Kentucky,PennState,PennState,5.880
IowaState,WashingtonState,WashingtonState,5.390
Vanderbilt,Baylor,Vanderbilt,5.345
Toledo,FloridaInternational,Toledo,3.761
MichiganState,Oregon,Oregon,3.667
MiamiFL,Wisconsin,MiamiFL,3.290
MississippiState,Iowa,MississippiState,3.174
UAB,NorthernIllinois,NorthernIllinois,2.858
SouthCarolina,Virginia,Virginia,2.466
Washington,OhioState,Washington,2.116
Memphis,WakeForest,WakeForest,2.104
LouisianaLafayette,Tulane,LouisianaLafayette,1.567
ArkansasState,Nevada,ArkansasState,1.473
Buffalo,Troy,Troy,1.415
GeorgiaSouthern,EasternMichigan,EasternMichigan,1.394
Hawaii,LouisianaTech,LouisianaTech,1.380
Northwestern,Utah,Utah,0.744
BostonCollege,BoiseState,BostonCollege,0.644
Houston,Army,Houston,0.639
California,TCU,California,0.342
Minnesota,GeorgiaTech,Minnesota,0.323
