AwayTeam,HomeTeam,PredictedWinner,Result,PredictionConfidence,ActualMoV
Louisville,Clemson,Clemson,RIGHT,34.000,61
FresnoState,UNLV,FresnoState,RIGHT,24.000,45
Rutgers,Wisconsin,Wisconsin,RIGHT,23.000,14
UTSA,UAB,UAB,RIGHT,23.000,49
Nebraska,OhioState,OhioState,RIGHT,20.000,5
BallState,Toledo,Toledo,RIGHT,19.000,32
LouisianaTech,MississippiState,MississippiState,RIGHT,18.000,42
AppalachianState,CoastalCarolina,AppalachianState,RIGHT,18.000,16
UtahState,Hawaii,UtahState,RIGHT,18.000,39
GeorgiaTech,NorthCarolina,GeorgiaTech,RIGHT,18.000,10
Navy,Cincinnati,Cincinnati,RIGHT,17.000,42
USC,OregonState,USC,RIGHT,16.000,17
AirForce,Army,Army,RIGHT,16.000,3
Temple,UCF,UCF,RIGHT,15.000,12
Houston,SouthernMethodist,Houston,WRONG,14.000,-14
GeorgiaSouthern,LouisianaMonroe,GeorgiaSouthern,WRONG,14.000,-19
PennState,Michigan,Michigan,RIGHT,14.000,35
WesternKentucky,MiddleTennessee,MiddleTennessee,RIGHT,14.000,19
Connecticut,Tulsa,Tulsa,RIGHT,13.000,30
CentralMichigan,EasternMichigan,EasternMichigan,RIGHT,13.000,10
FloridaState,NorthCarolinaState,NorthCarolinaState,RIGHT,12.000,19
IowaState,Kansas,IowaState,RIGHT,11.000,24
LouisianaLafayette,Troy,Troy,RIGHT,11.000,10
BrighamYoung,BoiseState,BoiseState,RIGHT,11.000,5
MiamiOH,Buffalo,Buffalo,RIGHT,11.000,9
California,WashingtonState,WashingtonState,RIGHT,11.000,6
UCLA,Oregon,Oregon,RIGHT,11.000,21
Syracuse,WakeForest,Syracuse,RIGHT,10.000,17
SouthAlabama,ArkansasState,ArkansasState,RIGHT,10.000,24
BostonCollege,VirginiaTech,BostonCollege,RIGHT,10.000,10
Pittsburgh,Virginia,Virginia,WRONG,10.000,-10
Missouri,Florida,Florida,WRONG,10.000,-21
Oklahoma,TexasTech,Oklahoma,RIGHT,9.000,5
Minnesota,Illinois,Minnesota,WRONG,9.000,-24
Duke,MiamiFL,MiamiFL,WRONG,9.000,-8
NotreDame,Northwestern,NotreDame,RIGHT,8.000,10
KansasState,TCU,TCU,RIGHT,7.000,1
Alabama,LSU,Alabama,RIGHT,6.000,29
Tulane,SouthFlorida,SouthFlorida,WRONG,6.000,-26
Georgia,Kentucky,Georgia,RIGHT,6.000,17
OklahomaState,Baylor,OklahomaState,WRONG,6.000,-4
FCS,NewMexicoState,NewMexicoState,RIGHT,6.000,10
SanJoseState,Wyoming,Wyoming,RIGHT,6.000,15
Utah,ArizonaState,Utah,WRONG,5.000,-18
Stanford,Washington,Washington,RIGHT,5.000,4
Liberty,Massachusetts,Massachusetts,RIGHT,5.000,3
SanDiegoState,NewMexico,SanDiegoState,RIGHT,5.000,8
MichiganState,Maryland,Maryland,WRONG,5.000,-21
FloridaAtlantic,FloridaInternational,FloridaInternational,WRONG,4.000,-35
TexasAM,Auburn,Auburn,RIGHT,4.000,4
Marshall,SouthernMiss,SouthernMiss,RIGHT,4.000,2
TexasState,GeorgiaState,GeorgiaState,WRONG,4.000,-9
NorthernIllinois,Akron,Akron,WRONG,3.000,-10
Colorado,Arizona,Arizona,RIGHT,3.000,8
Memphis,EastCarolina,Memphis,RIGHT,3.000,18
Ohio,WesternMichigan,WesternMichigan,WRONG,3.000,-45
SouthCarolina,OleMiss,OleMiss,WRONG,2.000,-4
UTEP,Rice,Rice,WRONG,2.000,-8
KentState,BowlingGreen,KentState,RIGHT,2.000,7
Charlotte,Tennessee,Tennessee,RIGHT,2.000,11
WestVirginia,Texas,WestVirginia,RIGHT,1.000,1
Iowa,Purdue,Purdue,RIGHT,1.000,2
