AwayTeam,HomeTeam,PredictedWinner,Result,PredictionConfidence,ActualMoV
NorthCarolina,Syracuse,Syracuse,RIGHT,29.000,3
Alabama,Tennessee,Alabama,RIGHT,27.000,37
UTEP,LouisianaTech,LouisianaTech,RIGHT,27.000,7
Connecticut,SouthFlorida,SouthFlorida,RIGHT,24.000,8
LouisianaLafayette,AppalachianState,AppalachianState,RIGHT,24.000,10
ColoradoState,BoiseState,BoiseState,RIGHT,23.000,28
Kansas,TexasTech,TexasTech,RIGHT,23.000,32
BowlingGreen,Ohio,Ohio,RIGHT,21.000,35
GeorgiaSouthern,NewMexicoState,GeorgiaSouthern,RIGHT,20.000,17
MiamiOH,Army,Army,RIGHT,19.000,1
Rice,FloridaInternational,FloridaInternational,RIGHT,19.000,19
Vanderbilt,Kentucky,Kentucky,RIGHT,19.000,7
FCS,Liberty,Liberty,RIGHT,19.000,7
UtahState,Wyoming,UtahState,RIGHT,18.000,8
UCF,EastCarolina,UCF,RIGHT,17.000,27
SanJoseState,SanDiegoState,SanDiegoState,RIGHT,17.000,3
PennState,Indiana,PennState,RIGHT,15.000,5
Illinois,Wisconsin,Wisconsin,RIGHT,14.000,29
Northwestern,Rutgers,Northwestern,RIGHT,13.000,3
MississippiState,LSU,LSU,RIGHT,13.000,16
NorthCarolinaState,Clemson,Clemson,RIGHT,13.000,34
Michigan,MichiganState,Michigan,RIGHT,13.000,14
TexasState,LouisianaMonroe,LouisianaMonroe,RIGHT,12.000,6
SouthernMethodist,Tulane,Tulane,WRONG,11.000,-4
Houston,Navy,Houston,RIGHT,11.000,13
OhioState,Purdue,OhioState,WRONG,11.000,-29
USC,Utah,Utah,RIGHT,10.000,13
GeorgiaState,ArkansasState,ArkansasState,RIGHT,10.000,16
FresnoState,NewMexico,FresnoState,RIGHT,9.000,31
Nevada,Hawaii,Hawaii,WRONG,9.000,-18
Virginia,Duke,Duke,WRONG,9.000,-14
Minnesota,Nebraska,Minnesota,WRONG,9.000,-25
Oklahoma,TCU,Oklahoma,RIGHT,7.000,25
UTSA,SouthernMiss,SouthernMiss,RIGHT,7.000,10
EasternMichigan,BallState,EasternMichigan,RIGHT,6.000,22
Charlotte,MiddleTennessee,MiddleTennessee,RIGHT,6.000,8
Maryland,Iowa,Iowa,RIGHT,5.000,23
Arizona,UCLA,UCLA,RIGHT,5.000,1
WesternMichigan,CentralMichigan,WesternMichigan,RIGHT,5.000,25
CoastalCarolina,Massachusetts,Massachusetts,WRONG,5.000,-11
NorthTexas,UAB,UAB,RIGHT,4.000,8
California,OregonState,California,RIGHT,4.000,42
Colorado,Washington,Washington,RIGHT,4.000,14
AirForce,UNLV,AirForce,RIGHT,4.000,6
FloridaAtlantic,Marshall,Marshall,RIGHT,4.000,24
Memphis,Missouri,Missouri,RIGHT,3.000,32
Cincinnati,Temple,Cincinnati,WRONG,3.000,-7
Auburn,OleMiss,OleMiss,WRONG,3.000,-15
Akron,KentState,Akron,RIGHT,2.000,1
Tulsa,Arkansas,Arkansas,RIGHT,2.000,23
Stanford,ArizonaState,ArizonaState,WRONG,2.000,-7
WakeForest,FloridaState,FloridaState,RIGHT,2.000,21
Buffalo,Toledo,Buffalo,RIGHT,2.000,14
Oregon,WashingtonState,Oregon,WRONG,1.000,-14
OldDominion,WesternKentucky,WesternKentucky,WRONG,1.000,-3
