AwayTeam,HomeTeam,PredictedWinner,Result,PredictionConfidence,ActualMoV
Arkansas,Missouri,Missouri,RIGHT,30.826,38
SouthCarolina,Clemson,Clemson,RIGHT,29.846,21
Akron,Ohio,Ohio,RIGHT,21.863,21
EastCarolina,Cincinnati,Cincinnati,RIGHT,21.846,50
Kentucky,Louisville,Kentucky,RIGHT,21.742,46
Illinois,Northwestern,Northwestern,RIGHT,21.371,8
SanJoseState,FresnoState,FresnoState,RIGHT,21.284,18
GeorgiaTech,Georgia,Georgia,RIGHT,17.561,24
Rutgers,MichiganState,MichiganState,RIGHT,16.781,4
MississippiState,OleMiss,MississippiState,RIGHT,16.628,32
UCF,SouthFlorida,UCF,RIGHT,16.613,28
ColoradoState,AirForce,AirForce,RIGHT,16.195,8
GeorgiaSouthern,GeorgiaState,GeorgiaSouthern,RIGHT,15.411,21
Oregon,OregonState,Oregon,RIGHT,14.886,40
CentralMichigan,Toledo,Toledo,RIGHT,13.698,38
NorthCarolinaState,NorthCarolina,NorthCarolinaState,RIGHT,13.347,6
Florida,FloridaState,Florida,RIGHT,13.323,27
Nebraska,Iowa,Iowa,RIGHT,13.066,3
Texas,Kansas,Texas,RIGHT,11.959,7
Temple,Connecticut,Temple,RIGHT,11.821,50
ArkansasState,TexasState,ArkansasState,RIGHT,11.519,26
Charlotte,FloridaAtlantic,FloridaAtlantic,WRONG,11.103,-3
Auburn,Alabama,Alabama,RIGHT,11.068,31
EasternMichigan,KentState,EasternMichigan,RIGHT,10.828,8
BallState,MiamiOH,MiamiOH,RIGHT,10.780,21
NotreDame,USC,NotreDame,RIGHT,10.612,7
Nevada,UNLV,Nevada,WRONG,10.372,-5
Michigan,OhioState,Michigan,WRONG,10.136,-23
WesternKentucky,LouisianaTech,LouisianaTech,WRONG,9.957,-15
Maryland,PennState,PennState,RIGHT,9.796,35
WakeForest,Duke,Duke,WRONG,8.701,-52
Stanford,UCLA,Stanford,RIGHT,8.526,7
Troy,AppalachianState,AppalachianState,RIGHT,8.396,11
Colorado,California,California,RIGHT,7.979,12
Buffalo,BowlingGreen,Buffalo,RIGHT,7.889,30
Minnesota,Wisconsin,Wisconsin,WRONG,7.680,-22
CoastalCarolina,SouthAlabama,CoastalCarolina,WRONG,7.454,-3
Hawaii,SanDiegoState,SanDiegoState,WRONG,7.276,-1
TexasTech,Baylor,Baylor,RIGHT,6.642,11
NorthernIllinois,WesternMichigan,NorthernIllinois,WRONG,5.500,-7
NewMexicoState,Liberty,Liberty,RIGHT,5.455,7
Pittsburgh,MiamiFL,MiamiFL,RIGHT,5.203,21
Navy,Tulane,Tulane,RIGHT,4.449,1
UAB,MiddleTennessee,MiddleTennessee,RIGHT,4.354,24
LSU,TexasAM,LSU,WRONG,4.249,-2
NorthTexas,UTSA,NorthTexas,RIGHT,4.118,3
ArizonaState,Arizona,ArizonaState,RIGHT,3.895,1
Tennessee,Vanderbilt,Vanderbilt,RIGHT,3.453,25
KansasState,IowaState,IowaState,RIGHT,3.144,4
Houston,Memphis,Houston,WRONG,3.131,-21
SouthernMiss,UTEP,SouthernMiss,RIGHT,2.617,32
OldDominion,Rice,OldDominion,WRONG,2.178,-14
BrighamYoung,Utah,Utah,RIGHT,1.871,8
Purdue,Indiana,Purdue,RIGHT,1.798,7
SouthernMethodist,Tulsa,Tulsa,RIGHT,1.744,3
Washington,WashingtonState,WashingtonState,WRONG,1.688,-13
UtahState,BoiseState,UtahState,WRONG,1.333,-9
Marshall,FloridaInternational,Marshall,RIGHT,0.849,3
OklahomaState,TCU,TCU,RIGHT,0.739,7
Syracuse,BostonCollege,Syracuse,RIGHT,0.696,21
LouisianaLafayette,LouisianaMonroe,LouisianaLafayette,RIGHT,0.459,3
Virginia,VirginiaTech,VirginiaTech,RIGHT,0.390,3
Oklahoma,WestVirginia,Oklahoma,RIGHT,0.214,3
Wyoming,NewMexico,Wyoming,RIGHT,0.071,28
