AwayTeam,HomeTeam,PredictedWinner,Result,PredictionConfidence,ActualMoV
Rice,NorthTexas,NorthTexas,RIGHT,30.000,24
KansasState,Oklahoma,Oklahoma,RIGHT,30.000,37
UAB,UTEP,UAB,RIGHT,26.000,19
OregonState,Colorado,Colorado,WRONG,24.000,-7
NorthCarolina,Virginia,Virginia,RIGHT,21.000,10
FCS,Nebraska,Nebraska,RIGHT,20.000,36
NewMexico,UtahState,UtahState,RIGHT,20.000,42
Clemson,FloridaState,Clemson,RIGHT,20.000,49
Troy,SouthAlabama,Troy,RIGHT,17.000,21
Illinois,Maryland,Maryland,RIGHT,16.000,30
Hawaii,FresnoState,FresnoState,RIGHT,15.000,30
Tennessee,SouthCarolina,SouthCarolina,RIGHT,14.000,3
NotreDame,Navy,NotreDame,RIGHT,13.000,22
Utah,UCLA,Utah,RIGHT,13.000,31
Baylor,WestVirginia,WestVirginia,RIGHT,13.000,44
Florida,Georgia,Georgia,RIGHT,12.000,19
NewMexicoState,TexasState,TexasState,RIGHT,11.000,7
BallState,Ohio,Ohio,RIGHT,10.000,38
Cincinnati,SouthernMethodist,Cincinnati,RIGHT,10.000,6
WakeForest,Louisville,WakeForest,RIGHT,10.000,21
TCU,Kansas,TCU,WRONG,9.000,-1
TexasAM,MississippiState,MississippiState,RIGHT,8.000,15
Oregon,Arizona,Oregon,WRONG,8.000,-29
SouthFlorida,Houston,Houston,RIGHT,8.000,21
NorthCarolinaState,Syracuse,Syracuse,RIGHT,7.000,10
Army,EasternMichigan,Army,RIGHT,7.000,15
Washington,California,Washington,WRONG,7.000,-2
MiamiFL,BostonCollege,MiamiFL,WRONG,7.000,-13
Iowa,PennState,PennState,RIGHT,7.000,6
UNLV,SanJoseState,SanJoseState,RIGHT,7.000,13
NorthernIllinois,BrighamYoung,BrighamYoung,WRONG,7.000,-1
Wisconsin,Northwestern,Wisconsin,WRONG,6.000,-14
AppalachianState,GeorgiaSouthern,AppalachianState,WRONG,6.000,-20
Vanderbilt,Arkansas,Vanderbilt,RIGHT,6.000,14
MiddleTennessee,OldDominion,MiddleTennessee,RIGHT,6.000,34
Toledo,WesternMichigan,WesternMichigan,WRONG,6.000,-27
Massachusetts,Connecticut,Connecticut,WRONG,6.000,-5
Wyoming,ColoradoState,Wyoming,RIGHT,6.000,13
FloridaInternational,WesternKentucky,FloridaInternational,RIGHT,5.000,21
BoiseState,AirForce,BoiseState,RIGHT,5.000,10
Purdue,MichiganState,Purdue,WRONG,5.000,-10
Duke,Pittsburgh,Duke,WRONG,5.000,-9
CoastalCarolina,GeorgiaState,CoastalCarolina,RIGHT,4.000,3
CentralMichigan,Akron,Akron,RIGHT,3.000,7
Kentucky,Missouri,Missouri,WRONG,3.000,-1
Texas,OklahomaState,Texas,WRONG,3.000,-3
GeorgiaTech,VirginiaTech,GeorgiaTech,RIGHT,2.000,21
TexasTech,IowaState,TexasTech,WRONG,2.000,-9
WashingtonState,Stanford,Stanford,WRONG,2.000,-3
Indiana,Minnesota,Indiana,WRONG,2.000,-7
SanDiegoState,Nevada,SanDiegoState,WRONG,1.000,-4
ArizonaState,USC,USC,WRONG,1.000,-3
Tulane,Tulsa,Tulane,RIGHT,1.000,7
ArkansasState,LouisianaLafayette,ArkansasState,WRONG,0.000,-4
LouisianaTech,FloridaAtlantic,LouisianaTech,RIGHT,0.000,8
SouthernMiss,Charlotte,SouthernMiss,WRONG,0.000,-3
