AwayTeam,HomeTeam,PredictedWinner,PredictedMarginOfVictory
Baylor,Rice,Baylor,0.778
NotreDame,Georgia,NotreDame,0.772
Troy,Akron,Troy,0.769
CoastalCarolina,Massachusetts,CoastalCarolina,0.753
MiamiOH,OhioState,OhioState,0.734
Temple,Buffalo,Temple,0.695
Washington,BrighamYoung,Washington,0.680
SouthernMiss,Alabama,Alabama,0.672
MichiganState,Northwestern,MichiganState,0.663
LSU,Vanderbilt,LSU,0.648
AppalachianState,NorthCarolina,AppalachianState,0.643
Utah,USC,Utah,0.620
CentralMichigan,MiamiFL,MiamiFL,0.620
Auburn,TexasAM,Auburn,0.617
WesternMichigan,Syracuse,WesternMichigan,0.616
Oregon,Stanford,Oregon,0.611
SouthAlabama,UAB,SouthAlabama,0.610
AirForce,BoiseState,AirForce,0.594
Houston,Tulane,Tulane,0.574
FloridaInternational,LouisianaTech,LouisianaTech,0.563
Connecticut,Indiana,Indiana,0.563
BowlingGreen,KentState,KentState,0.563
UTSA,NorthTexas,NorthTexas,0.563
UCLA,WashingtonState,WashingtonState,0.552
Charlotte,Clemson,Clemson,0.551
Michigan,Wisconsin,Wisconsin,0.550
SouthernMethodist,TCU,SouthernMethodist,0.549
SanJoseState,Arkansas,Arkansas,0.545
California,OleMiss,California,0.542
WestVirginia,Kansas,Kansas,0.541
SouthCarolina,Missouri,Missouri,0.541
BallState,NorthCarolinaState,NorthCarolinaState,0.538
OklahomaState,Texas,Texas,0.538
LouisianaLafayette,Ohio,Ohio,0.534
Tennessee,Florida,Florida,0.528
LouisianaMonroe,IowaState,IowaState,0.527
GeorgiaState,TexasState,TexasState,0.526
FCS,FloridaAtlantic,FloridaAtlantic,0.526
FCS,Hawaii,Hawaii,0.525
UCF,Pittsburgh,UCF,0.525
Colorado,ArizonaState,ArizonaState,0.524
Louisville,FloridaState,FloridaState,0.524
FCS,FresnoState,FresnoState,0.522
Nebraska,Illinois,Illinois,0.521
FCS,WakeForest,FCS,0.521
FCS,EasternMichigan,EasternMichigan,0.521
FCS,ArkansasState,ArkansasState,0.519
Kentucky,MississippiState,MississippiState,0.516
Wyoming,Tulsa,Wyoming,0.514
FCS,Liberty,Liberty,0.513
FCS,Army,FCS,0.513
Nevada,UTEP,UTEP,0.512
NewMexicoState,NewMexico,NewMexico,0.512
BostonCollege,Rutgers,Rutgers,0.510
OldDominion,Virginia,Virginia,0.507
UtahState,SanDiegoState,UtahState,0.507
Toledo,ColoradoState,Toledo,0.503
FCS,EastCarolina,FCS,0.502
