AwayTeam,HomeTeam,PredictedWinner,PredictedMarginOfVictory
NewMexicoState,Alabama,Alabama,0.698
Marshall,BoiseState,Marshall,0.696
Syracuse,Maryland,Syracuse,0.691
NorthTexas,SouthernMethodist,NorthTexas,0.680
Buffalo,PennState,Buffalo,0.653
UCF,FloridaAtlantic,UCF,0.648
UAB,Akron,UAB,0.641
California,Washington,California,0.628
OregonState,Hawaii,Hawaii,0.621
Charlotte,AppalachianState,Charlotte,0.597
ArkansasState,UNLV,ArkansasState,0.585
BowlingGreen,KansasState,BowlingGreen,0.584
Army,Michigan,Michigan,0.563
SouthFlorida,GeorgiaTech,GeorgiaTech,0.563
Illinois,Connecticut,Illinois,0.563
Nebraska,Colorado,Nebraska,0.561
FCS,Virginia,FCS,0.556
CoastalCarolina,Kansas,Kansas,0.554
UTEP,TexasTech,UTEP,0.553
Liberty,LouisianaLafayette,LouisianaLafayette,0.551
Ohio,Pittsburgh,Ohio,0.550
WestVirginia,Missouri,Missouri,0.549
WesternMichigan,MichiganState,WesternMichigan,0.549
Arkansas,OleMiss,Arkansas,0.545
FCS,SouthAlabama,SouthAlabama,0.545
Nevada,Oregon,Oregon,0.543
FCS,Massachusetts,Massachusetts,0.542
Vanderbilt,Purdue,Purdue,0.541
FCS,MiamiOH,MiamiOH,0.540
Wyoming,TexasState,Wyoming,0.539
OldDominion,VirginiaTech,VirginiaTech,0.539
FCS,Louisville,Louisville,0.539
FCS,Arizona,Arizona,0.538
CentralMichigan,Wisconsin,Wisconsin,0.537
FCS,ArizonaState,FCS,0.534
FCS,Duke,FCS,0.534
UTSA,Baylor,UTSA,0.534
FCS,NorthCarolinaState,FCS,0.534
NorthernIllinois,Utah,NorthernIllinois,0.533
TexasAM,Clemson,Clemson,0.533
FCS,KentState,KentState,0.531
FCS,Georgia,FCS,0.527
FCS,Florida,FCS,0.527
Cincinnati,OhioState,Cincinnati,0.525
FCS,BallState,BallState,0.525
FCS,ColoradoState,ColoradoState,0.524
WesternKentucky,FloridaInternational,WesternKentucky,0.524
Stanford,USC,Stanford,0.522
Tulane,Auburn,Auburn,0.522
WakeForest,Rice,WakeForest,0.521
EasternMichigan,Kentucky,Kentucky,0.520
FCS,Indiana,FCS,0.520
FCS,GeorgiaSouthern,FCS,0.519
LSU,Texas,LSU,0.519
Minnesota,FresnoState,Minnesota,0.518
FCS,BostonCollege,FCS,0.517
FCS,Houston,Houston,0.516
BrighamYoung,Tennessee,Tennessee,0.515
FCS,WashingtonState,FCS,0.514
FCS,EastCarolina,FCS,0.514
LouisianaMonroe,FloridaState,LouisianaMonroe,0.513
SouthernMiss,MississippiState,SouthernMiss,0.512
Rutgers,Iowa,Rutgers,0.510
FCS,SouthCarolina,SouthCarolina,0.510
Tulsa,SanJoseState,Tulsa,0.509
FCS,MiddleTennessee,MiddleTennessee,0.508
FCS,OklahomaState,FCS,0.508
MiamiFL,NorthCarolina,MiamiFL,0.508
FCS,UtahState,UtahState,0.505
FCS,Oklahoma,FCS,0.504
FCS,GeorgiaState,FCS,0.504
FCS,Memphis,Memphis,0.504
FCS,LouisianaTech,FCS,0.502
SanDiegoState,UCLA,SanDiegoState,0.501
