AwayTeam,HomeTeam,PredictedWinner,Result,PredictionConfidence,ActualMoV
Arkansas,Alabama,Alabama,RIGHT,0.817,41
AppalachianState,SouthAlabama,AppalachianState,RIGHT,0.806,27
LouisianaTech,UTEP,LouisianaTech,RIGHT,0.761,21
Memphis,Tulsa,Memphis,RIGHT,0.746,1
SouthernMethodist,Houston,SouthernMethodist,RIGHT,0.717,3
Hawaii,NewMexico,Hawaii,RIGHT,0.716,14
Ohio,BallState,BallState,WRONG,0.704,-13
Nevada,Wyoming,Wyoming,RIGHT,0.691,28
BowlingGreen,WesternMichigan,WesternMichigan,RIGHT,0.682,39
SanDiegoState,UNLV,SanDiegoState,RIGHT,0.675,3
NewMexicoState,GeorgiaSouthern,GeorgiaSouthern,RIGHT,0.671,34
OklahomaState,IowaState,IowaState,WRONG,0.666,-7
BostonCollege,Clemson,Clemson,RIGHT,0.664,52
Akron,NorthernIllinois,NorthernIllinois,RIGHT,0.652,49
SanJoseState,Army,Army,WRONG,0.650,-5
WashingtonState,Oregon,Oregon,RIGHT,0.649,2
USC,Colorado,USC,RIGHT,0.644,4
Oklahoma,KansasState,Oklahoma,WRONG,0.640,-7
ColoradoState,FresnoState,FresnoState,WRONG,0.637,-10
Troy,GeorgiaState,GeorgiaState,RIGHT,0.625,19
Iowa,Northwestern,Iowa,RIGHT,0.607,20
FloridaAtlantic,OldDominion,FloridaAtlantic,RIGHT,0.606,38
SouthCarolina,Tennessee,SouthCarolina,WRONG,0.604,-20
MiamiOH,KentState,KentState,WRONG,0.593,-7
Arizona,Stanford,Stanford,RIGHT,0.593,10
UCF,Temple,UCF,RIGHT,0.591,42
TexasState,ArkansasState,ArkansasState,RIGHT,0.590,24
Liberty,Rutgers,Liberty,WRONG,0.589,-10
UtahState,AirForce,AirForce,RIGHT,0.583,24
EasternMichigan,Toledo,Toledo,RIGHT,0.583,3
NorthTexas,Charlotte,Charlotte,RIGHT,0.582,1
Duke,NorthCarolina,NorthCarolina,RIGHT,0.575,3
MississippiState,TexasAM,TexasAM,RIGHT,0.573,19
Syracuse,FloridaState,FloridaState,RIGHT,0.566,18
MiamiFL,Pittsburgh,Pittsburgh,WRONG,0.563,-4
Illinois,Purdue,Purdue,WRONG,0.563,-18
PennState,MichiganState,PennState,RIGHT,0.561,21
Tulane,Navy,Navy,RIGHT,0.555,3
California,Utah,Utah,RIGHT,0.554,35
Connecticut,Massachusetts,Connecticut,RIGHT,0.547,21
TexasTech,Kansas,Kansas,RIGHT,0.541,3
FloridaInternational,MiddleTennessee,FloridaInternational,WRONG,0.538,-33
Wisconsin,OhioState,OhioState,RIGHT,0.536,31
Maryland,Minnesota,Minnesota,RIGHT,0.535,42
SouthFlorida,EastCarolina,SouthFlorida,RIGHT,0.535,25
CentralMichigan,Buffalo,Buffalo,RIGHT,0.534,23
NotreDame,Michigan,Michigan,RIGHT,0.528,31
Indiana,Nebraska,Indiana,RIGHT,0.526,7
Auburn,LSU,LSU,RIGHT,0.521,3
WesternKentucky,Marshall,Marshall,RIGHT,0.515,3
Virginia,Louisville,Louisville,RIGHT,0.515,7
Texas,TCU,Texas,WRONG,0.513,-10
SouthernMiss,Rice,Rice,WRONG,0.512,-14
Missouri,Kentucky,Missouri,WRONG,0.510,-22
ArizonaState,UCLA,ArizonaState,WRONG,0.507,-10
