AwayTeam,HomeTeam,PredictedWinner,Result,PredictionConfidence,ActualMoV
Oklahoma,LSU,LSU,RIGHT,17.250,35
Clemson,OhioState,OhioState,WRONG,15.889,-6
LouisianaLafayette,MiamiOH,LouisianaLafayette,RIGHT,14.483,10
AirForce,WashingtonState,AirForce,RIGHT,14.370,10
BostonCollege,Cincinnati,Cincinnati,RIGHT,13.820,32
AppalachianState,UAB,AppalachianState,RIGHT,13.355,14
Hawaii,BrighamYoung,BrighamYoung,WRONG,11.815,-4
Minnesota,Auburn,Auburn,WRONG,11.690,-7
Florida,Virginia,Florida,RIGHT,10.989,8
LouisianaTech,MiamiFL,MiamiFL,WRONG,9.793,-14
Liberty,GeorgiaSouthern,GeorgiaSouthern,WRONG,9.623,-7
SouthernMethodist,FloridaAtlantic,FloridaAtlantic,RIGHT,8.686,24
Utah,Texas,Utah,WRONG,8.279,-28
Michigan,Alabama,Alabama,RIGHT,8.021,19
GeorgiaState,Wyoming,Wyoming,RIGHT,7.780,21
VirginiaTech,Kentucky,Kentucky,RIGHT,7.648,7
Memphis,PennState,PennState,RIGHT,7.467,14
SouthernMiss,Tulane,Tulane,RIGHT,7.323,17
Buffalo,Charlotte,Buffalo,RIGHT,7.229,22
NotreDame,IowaState,NotreDame,RIGHT,7.170,24
California,Illinois,Illinois,WRONG,6.310,-15
UCF,Marshall,UCF,RIGHT,6.283,23
Navy,KansasState,Navy,RIGHT,6.276,3
FloridaInternational,ArkansasState,ArkansasState,RIGHT,5.927,8
Pittsburgh,EasternMichigan,EasternMichigan,WRONG,5.523,-4
Oregon,Wisconsin,Wisconsin,WRONG,5.459,-1
Ohio,Nevada,Ohio,RIGHT,4.733,9
Indiana,Tennessee,Tennessee,RIGHT,4.359,1
CentralMichigan,SanDiegoState,SanDiegoState,RIGHT,4.056,37
BoiseState,Washington,BoiseState,WRONG,3.080,-31
UtahState,KentState,UtahState,WRONG,2.321,-10
WesternKentucky,WesternMichigan,WesternKentucky,RIGHT,1.993,3
OklahomaState,TexasAM,TexasAM,RIGHT,1.690,3
FloridaState,ArizonaState,FloridaState,WRONG,1.585,-6
MichiganState,WakeForest,MichiganState,RIGHT,1.548,6
Georgia,Baylor,Baylor,WRONG,1.479,-12
USC,Iowa,Iowa,RIGHT,1.222,25
MississippiState,Louisville,Louisville,RIGHT,0.530,10
NorthCarolina,Temple,NorthCarolina,RIGHT,0.381,42
