AwayTeam,HomeTeam,PredictedWinner,Result,PredictionConfidence,ActualMoV
FCS,Alabama,Alabama,RIGHT,44.723,63
Arkansas,LSU,LSU,RIGHT,39.419,36
FCS,Auburn,Auburn,RIGHT,35.661,52
FCS,NorthCarolina,NorthCarolina,RIGHT,30.575,49
Akron,MiamiOH,MiamiOH,RIGHT,29.997,3
BrighamYoung,Massachusetts,BrighamYoung,RIGHT,28.868,32
FCS,MississippiState,MississippiState,RIGHT,28.470,38
Utah,Arizona,Utah,RIGHT,27.803,28
TexasState,AppalachianState,AppalachianState,RIGHT,27.109,22
Kansas,IowaState,IowaState,RIGHT,23.899,10
FCS,Kentucky,Kentucky,RIGHT,23.204,43
BostonCollege,NotreDame,NotreDame,RIGHT,21.175,33
PennState,OhioState,OhioState,RIGHT,20.596,11
Purdue,Wisconsin,Wisconsin,RIGHT,18.213,21
FloridaAtlantic,UTSA,FloridaAtlantic,RIGHT,18.101,14
OklahomaState,WestVirginia,OklahomaState,RIGHT,17.805,7
Temple,Cincinnati,Cincinnati,RIGHT,17.291,2
Liberty,Virginia,Virginia,RIGHT,17.030,28
Minnesota,Northwestern,Minnesota,RIGHT,16.712,16
MiamiFL,FloridaInternational,MiamiFL,WRONG,15.163,-6
MichiganState,Rutgers,MichiganState,RIGHT,15.053,27
SouthAlabama,GeorgiaState,GeorgiaState,RIGHT,14.790,13
Oregon,ArizonaState,Oregon,WRONG,14.729,-3
Washington,Colorado,Washington,WRONG,14.398,-6
Troy,LouisianaLafayette,LouisianaLafayette,RIGHT,13.881,50
Memphis,SouthFlorida,Memphis,RIGHT,12.461,39
Syracuse,Louisville,Louisville,RIGHT,12.334,22
OldDominion,MiddleTennessee,MiddleTennessee,RIGHT,11.550,21
Duke,WakeForest,WakeForest,RIGHT,11.442,12
Pittsburgh,VirginiaTech,VirginiaTech,RIGHT,10.806,28
SouthernMethodist,Navy,Navy,RIGHT,10.332,7
TCU,Oklahoma,Oklahoma,RIGHT,10.230,4
ColoradoState,Wyoming,Wyoming,RIGHT,10.128,10
FCS,Vanderbilt,Vanderbilt,RIGHT,10.102,38
Illinois,Iowa,Iowa,RIGHT,9.380,9
UCLA,USC,USC,RIGHT,9.225,17
BoiseState,UtahState,BoiseState,RIGHT,9.153,35
Michigan,Indiana,Michigan,RIGHT,8.429,25
Nevada,FresnoState,FresnoState,WRONG,8.135,-7
Texas,Baylor,Baylor,RIGHT,8.038,14
UTEP,NewMexicoState,NewMexicoState,RIGHT,7.553,9
EastCarolina,Connecticut,EastCarolina,RIGHT,7.233,7
Toledo,Buffalo,Buffalo,RIGHT,6.583,19
WesternKentucky,SouthernMiss,SouthernMiss,WRONG,6.240,-18
BallState,KentState,BallState,WRONG,5.844,-3
Tennessee,Missouri,Tennessee,RIGHT,5.574,4
LouisianaTech,UAB,LouisianaTech,WRONG,5.501,-6
UCF,Tulane,UCF,RIGHT,5.329,3
Marshall,Charlotte,Marshall,WRONG,5.254,-11
TexasAM,Georgia,Georgia,RIGHT,4.030,6
Nebraska,Maryland,Nebraska,RIGHT,3.897,47
EasternMichigan,NorthernIllinois,NorthernIllinois,WRONG,3.709,-28
Ohio,BowlingGreen,Ohio,RIGHT,3.420,42
KansasState,TexasTech,KansasState,RIGHT,3.350,3
OregonState,WashingtonState,WashingtonState,RIGHT,3.208,1
SanJoseState,UNLV,SanJoseState,WRONG,3.080,-3
NorthTexas,Rice,NorthTexas,WRONG,2.607,-6
SanDiegoState,Hawaii,Hawaii,RIGHT,1.804,3
NorthCarolinaState,GeorgiaTech,NorthCarolinaState,WRONG,1.422,-2
Houston,Tulsa,Houston,RIGHT,0.984,10
GeorgiaSouthern,ArkansasState,ArkansasState,RIGHT,0.802,5
CoastalCarolina,LouisianaMonroe,CoastalCarolina,WRONG,0.460,-3
California,Stanford,Stanford,WRONG,0.433,-4
