AwayTeam,HomeTeam,PredictedWinner,Result,PredictionConfidence,ActualMoV
OhioState,Rutgers,OhioState,RIGHT,38.514,35
FCS,FloridaState,FloridaState,RIGHT,32.782,37
NewMexico,BoiseState,BoiseState,RIGHT,28.726,33
FCS,BrighamYoung,BrighamYoung,RIGHT,28.146,32
Arizona,Oregon,Oregon,RIGHT,26.735,28
LouisianaLafayette,SouthAlabama,LouisianaLafayette,RIGHT,24.562,10
WestVirginia,KansasState,KansasState,WRONG,23.923,-4
Massachusetts,Northwestern,Northwestern,RIGHT,23.723,39
WakeForest,Clemson,Clemson,RIGHT,21.975,49
FCS,Army,Army,RIGHT,21.455,41
Kansas,OklahomaState,OklahomaState,RIGHT,18.866,18
LSU,OleMiss,LSU,RIGHT,18.181,21
Florida,Missouri,Florida,RIGHT,15.763,17
Indiana,PennState,PennState,RIGHT,15.580,7
UCLA,Utah,Utah,RIGHT,15.498,46
MichiganState,Michigan,Michigan,RIGHT,14.270,34
Wisconsin,Nebraska,Wisconsin,RIGHT,13.922,16
Kentucky,Vanderbilt,Kentucky,RIGHT,13.409,24
SouthernMiss,UTSA,SouthernMiss,RIGHT,13.402,19
EasternMichigan,Akron,EasternMichigan,RIGHT,13.256,28
Cincinnati,SouthFlorida,Cincinnati,RIGHT,13.199,3
AirForce,ColoradoState,AirForce,RIGHT,12.907,17
SouthCarolina,TexasAM,TexasAM,RIGHT,12.391,24
UTEP,UAB,UAB,RIGHT,12.000,27
AppalachianState,GeorgiaState,AppalachianState,RIGHT,11.926,29
Memphis,Houston,Memphis,RIGHT,11.328,18
BowlingGreen,MiamiOH,MiamiOH,RIGHT,10.400,41
Buffalo,KentState,Buffalo,WRONG,10.310,-3
Syracuse,Duke,Duke,WRONG,10.160,-43
Alabama,MississippiState,Alabama,RIGHT,9.896,31
Hawaii,UNLV,Hawaii,RIGHT,9.785,14
CoastalCarolina,ArkansasState,ArkansasState,RIGHT,9.416,1
LouisianaMonroe,GeorgiaSouthern,GeorgiaSouthern,RIGHT,9.232,22
Troy,TexasState,Troy,RIGHT,9.105,36
FCS,NewMexicoState,NewMexicoState,RIGHT,9.097,13
Stanford,WashingtonState,WashingtonState,RIGHT,8.684,27
Louisville,NorthCarolinaState,Louisville,RIGHT,7.812,14
Tulane,Temple,Tulane,WRONG,7.781,-8
VirginiaTech,GeorgiaTech,VirginiaTech,RIGHT,6.817,45
CentralMichigan,BallState,BallState,WRONG,6.772,-1
Rice,MiddleTennessee,MiddleTennessee,WRONG,5.821,-3
WesternMichigan,Ohio,WesternMichigan,RIGHT,5.667,3
NorthernIllinois,Toledo,Toledo,WRONG,5.367,-3
Texas,IowaState,IowaState,RIGHT,5.063,2
TCU,TexasTech,TCU,RIGHT,4.198,2
ArizonaState,OregonState,OregonState,RIGHT,3.837,1
FresnoState,SanDiegoState,SanDiegoState,RIGHT,3.815,10
Navy,NotreDame,NotreDame,RIGHT,3.552,32
USC,California,USC,RIGHT,3.073,24
Georgia,Auburn,Auburn,WRONG,2.451,-7
LouisianaTech,Marshall,LouisianaTech,WRONG,2.338,-21
Oklahoma,Baylor,Oklahoma,RIGHT,2.066,3
NorthCarolina,Pittsburgh,Pittsburgh,RIGHT,1.513,7
Wyoming,UtahState,Wyoming,WRONG,0.400,-5
Minnesota,Iowa,Iowa,RIGHT,0.126,4
