AwayTeam,HomeTeam,PredictedWinner,Result,PredictionConfidence,ActualMoV
NewMexicoState,Alabama,Alabama,RIGHT,0.698,52
Marshall,BoiseState,Marshall,WRONG,0.696,-7
Syracuse,Maryland,Syracuse,WRONG,0.691,-43
NorthTexas,SouthernMethodist,NorthTexas,WRONG,0.680,-22
Buffalo,PennState,Buffalo,WRONG,0.653,-32
UCF,FloridaAtlantic,UCF,RIGHT,0.648,34
UAB,Akron,UAB,RIGHT,0.641,11
California,Washington,California,RIGHT,0.628,1
OregonState,Hawaii,Hawaii,RIGHT,0.621,3
Charlotte,AppalachianState,Charlotte,WRONG,0.597,-15
ArkansasState,UNLV,ArkansasState,RIGHT,0.585,26
BowlingGreen,KansasState,BowlingGreen,WRONG,0.584,-52
Army,Michigan,Michigan,RIGHT,0.563,3
SouthFlorida,GeorgiaTech,GeorgiaTech,RIGHT,0.563,4
Illinois,Connecticut,Illinois,RIGHT,0.563,8
Nebraska,Colorado,Nebraska,WRONG,0.561,-3
FCS,Virginia,FCS,WRONG,0.556,-35
CoastalCarolina,Kansas,Kansas,WRONG,0.554,-5
UTEP,TexasTech,UTEP,WRONG,0.553,-35
Liberty,LouisianaLafayette,LouisianaLafayette,RIGHT,0.551,21
Ohio,Pittsburgh,Ohio,WRONG,0.550,-10
WestVirginia,Missouri,Missouri,RIGHT,0.549,31
WesternMichigan,MichiganState,WesternMichigan,WRONG,0.549,-34
Arkansas,OleMiss,Arkansas,WRONG,0.545,-14
FCS,SouthAlabama,SouthAlabama,RIGHT,0.545,23
Nevada,Oregon,Oregon,RIGHT,0.543,71
FCS,Massachusetts,Massachusetts,WRONG,0.542,-25
Vanderbilt,Purdue,Purdue,RIGHT,0.541,18
FCS,MiamiOH,MiamiOH,RIGHT,0.540,31
Wyoming,TexasState,Wyoming,RIGHT,0.539,9
OldDominion,VirginiaTech,VirginiaTech,RIGHT,0.539,14
FCS,Louisville,Louisville,RIGHT,0.539,42
FCS,Arizona,Arizona,RIGHT,0.538,24
CentralMichigan,Wisconsin,Wisconsin,RIGHT,0.537,61
FCS,ArizonaState,FCS,WRONG,0.534,-12
FCS,Duke,FCS,WRONG,0.534,-32
UTSA,Baylor,UTSA,WRONG,0.534,-49
FCS,NorthCarolinaState,FCS,WRONG,0.534,-41
NorthernIllinois,Utah,NorthernIllinois,WRONG,0.533,-18
TexasAM,Clemson,Clemson,RIGHT,0.533,14
FCS,KentState,KentState,RIGHT,0.531,3
FCS,Georgia,FCS,WRONG,0.527,-46
FCS,Florida,FCS,WRONG,0.527,-45
Cincinnati,OhioState,Cincinnati,WRONG,0.525,-42
FCS,BallState,BallState,RIGHT,0.525,28
FCS,ColoradoState,ColoradoState,RIGHT,0.524,25
WesternKentucky,FloridaInternational,WesternKentucky,RIGHT,0.524,6
Stanford,USC,Stanford,WRONG,0.522,-25
Tulane,Auburn,Auburn,RIGHT,0.522,18
WakeForest,Rice,WakeForest,RIGHT,0.521,20
EasternMichigan,Kentucky,Kentucky,RIGHT,0.520,21
FCS,Indiana,FCS,WRONG,0.520,-52
FCS,GeorgiaSouthern,FCS,WRONG,0.519,-8
LSU,Texas,LSU,RIGHT,0.519,7
Minnesota,FresnoState,Minnesota,RIGHT,0.518,3
FCS,BostonCollege,FCS,WRONG,0.517,-32
FCS,Houston,Houston,RIGHT,0.516,20
BrighamYoung,Tennessee,Tennessee,WRONG,0.515,-3
FCS,WashingtonState,FCS,WRONG,0.514,-42
FCS,EastCarolina,FCS,WRONG,0.514,-39
LouisianaMonroe,FloridaState,LouisianaMonroe,WRONG,0.513,-1
SouthernMiss,MississippiState,SouthernMiss,WRONG,0.512,-23
Rutgers,Iowa,Rutgers,WRONG,0.510,-30
FCS,SouthCarolina,SouthCarolina,RIGHT,0.510,62
Tulsa,SanJoseState,Tulsa,RIGHT,0.509,18
FCS,MiddleTennessee,MiddleTennessee,RIGHT,0.508,19
FCS,OklahomaState,FCS,WRONG,0.508,-42
MiamiFL,NorthCarolina,MiamiFL,WRONG,0.508,-3
FCS,UtahState,UtahState,RIGHT,0.505,55
FCS,Oklahoma,FCS,WRONG,0.504,-56
FCS,GeorgiaState,FCS,WRONG,0.504,-6
FCS,Memphis,Memphis,RIGHT,0.504,31
FCS,LouisianaTech,FCS,WRONG,0.502,-6
SanDiegoState,UCLA,SanDiegoState,RIGHT,0.501,9
