AwayTeam,HomeTeam,PredictedWinner,Result,PredictionConfidence,ActualMoV
OhioState,Northwestern,OhioState,RIGHT,0.891,49
Auburn,Arkansas,Auburn,RIGHT,0.804,41
Wisconsin,Illinois,Wisconsin,WRONG,0.797,-1
Missouri,Vanderbilt,Missouri,WRONG,0.772,-7
WestVirginia,Oklahoma,Oklahoma,RIGHT,0.759,38
Tennessee,Alabama,Alabama,RIGHT,0.759,22
Minnesota,Rutgers,Minnesota,RIGHT,0.751,35
BoiseState,BrighamYoung,BoiseState,WRONG,0.751,-3
Kansas,Texas,Texas,RIGHT,0.743,2
Clemson,Louisville,Clemson,RIGHT,0.740,35
EastCarolina,UCF,UCF,RIGHT,0.735,13
LouisianaMonroe,AppalachianState,AppalachianState,RIGHT,0.714,45
LSU,MississippiState,LSU,RIGHT,0.713,23
UTEP,FloridaInternational,FloridaInternational,RIGHT,0.695,15
MiddleTennessee,NorthTexas,NorthTexas,RIGHT,0.688,3
SouthAlabama,Troy,Troy,RIGHT,0.660,24
WesternMichigan,EasternMichigan,WesternMichigan,WRONG,0.659,-7
SouthFlorida,Navy,Navy,RIGHT,0.649,32
Buffalo,Akron,Buffalo,RIGHT,0.645,21
Houston,Connecticut,Houston,RIGHT,0.637,7
GeorgiaTech,MiamiFL,MiamiFL,WRONG,0.627,-7
Baylor,OklahomaState,Baylor,RIGHT,0.623,18
NewMexico,Wyoming,Wyoming,RIGHT,0.622,13
Colorado,WashingtonState,WashingtonState,RIGHT,0.619,31
Nevada,UtahState,UtahState,RIGHT,0.616,26
Charlotte,WesternKentucky,WesternKentucky,RIGHT,0.616,16
UNLV,FresnoState,FresnoState,RIGHT,0.602,29
OregonState,California,California,WRONG,0.595,-4
LouisianaLafayette,ArkansasState,LouisianaLafayette,RIGHT,0.584,17
Temple,SouthernMethodist,SouthernMethodist,RIGHT,0.575,24
SouthernMiss,LouisianaTech,LouisianaTech,RIGHT,0.574,15
Tulsa,Cincinnati,Cincinnati,RIGHT,0.572,11
Indiana,Maryland,Indiana,RIGHT,0.568,6
Kentucky,Georgia,Georgia,RIGHT,0.567,21
KentState,Ohio,Ohio,RIGHT,0.566,7
SanDiegoState,SanJoseState,SanDiegoState,RIGHT,0.565,10
Arizona,USC,USC,RIGHT,0.564,27
NorthCarolinaState,BostonCollege,BostonCollege,RIGHT,0.563,21
NorthernIllinois,MiamiOH,MiamiOH,RIGHT,0.563,3
OldDominion,UAB,UAB,RIGHT,0.563,24
CoastalCarolina,GeorgiaSouthern,GeorgiaSouthern,RIGHT,0.560,3
Duke,Virginia,Virginia,RIGHT,0.555,34
UCLA,Stanford,Stanford,WRONG,0.554,-18
CentralMichigan,BowlingGreen,CentralMichigan,RIGHT,0.553,18
ArizonaState,Utah,Utah,RIGHT,0.552,18
Marshall,FloridaAtlantic,FloridaAtlantic,WRONG,0.551,-5
TexasAM,OleMiss,OleMiss,WRONG,0.548,-7
Florida,SouthCarolina,Florida,RIGHT,0.548,11
NorthCarolina,VirginiaTech,VirginiaTech,RIGHT,0.548,2
Tulane,Memphis,Memphis,RIGHT,0.539,30
Oregon,Washington,Oregon,RIGHT,0.537,4
Purdue,Iowa,Iowa,RIGHT,0.534,6
Pittsburgh,Syracuse,Syracuse,WRONG,0.531,-7
Rice,UTSA,Rice,WRONG,0.530,-4
AirForce,Hawaii,Hawaii,WRONG,0.524,-30
Toledo,BallState,BallState,RIGHT,0.520,38
FCS,Liberty,FCS,WRONG,0.519,-15
Army,GeorgiaState,GeorgiaState,RIGHT,0.517,7
TCU,KansasState,TCU,WRONG,0.513,-7
Michigan,PennState,PennState,RIGHT,0.508,7
FloridaState,WakeForest,FloridaState,WRONG,0.504,-2
IowaState,TexasTech,TexasTech,WRONG,0.503,-10
