AwayTeam,HomeTeam,PredictedWinner,Result,PredictionConfidence,ActualMoV
Navy,Connecticut,Navy,RIGHT,0.828,46
WestVirginia,Baylor,Baylor,RIGHT,0.807,3
Houston,UCF,UCF,RIGHT,0.757,15
UTEP,NorthTexas,NorthTexas,RIGHT,0.749,26
BostonCollege,Syracuse,BostonCollege,RIGHT,0.746,31
Liberty,Massachusetts,Liberty,RIGHT,0.733,42
Colorado,UCLA,UCLA,RIGHT,0.728,17
VirginiaTech,NotreDame,NotreDame,RIGHT,0.726,1
Rutgers,Illinois,Illinois,RIGHT,0.721,28
Northwestern,Indiana,Indiana,RIGHT,0.721,31
Tulsa,Tulane,Tulane,RIGHT,0.717,12
Cincinnati,EastCarolina,Cincinnati,RIGHT,0.705,3
MississippiState,Arkansas,MississippiState,RIGHT,0.699,30
Vanderbilt,SouthCarolina,SouthCarolina,RIGHT,0.699,17
UTSA,TexasAM,TexasAM,RIGHT,0.699,31
BoiseState,SanJoseState,BoiseState,RIGHT,0.693,10
Michigan,Maryland,Michigan,RIGHT,0.692,31
TexasState,LouisianaLafayette,LouisianaLafayette,RIGHT,0.680,28
OldDominion,FloridaInternational,FloridaInternational,RIGHT,0.661,7
GeorgiaSouthern,AppalachianState,AppalachianState,WRONG,0.655,-3
Army,AirForce,AirForce,RIGHT,0.646,4
OleMiss,Auburn,Auburn,RIGHT,0.640,6
Akron,BowlingGreen,BowlingGreen,RIGHT,0.638,29
Oregon,USC,Oregon,RIGHT,0.615,32
FresnoState,Hawaii,Hawaii,WRONG,0.607,-3
NewMexico,Nevada,Nevada,RIGHT,0.604,11
NorthCarolinaState,WakeForest,WakeForest,RIGHT,0.592,34
OregonState,Arizona,Arizona,WRONG,0.586,-18
KansasState,Kansas,KansasState,RIGHT,0.583,28
Pittsburgh,GeorgiaTech,Pittsburgh,RIGHT,0.578,10
Troy,CoastalCarolina,CoastalCarolina,RIGHT,0.576,1
SouthernMethodist,Memphis,Memphis,RIGHT,0.572,6
MiddleTennessee,Charlotte,Charlotte,RIGHT,0.566,14
NorthernIllinois,CentralMichigan,CentralMichigan,RIGHT,0.563,38
Buffalo,EasternMichigan,Buffalo,RIGHT,0.553,29
MiamiFL,FloridaState,FloridaState,WRONG,0.546,-17
UNLV,ColoradoState,ColoradoState,RIGHT,0.546,20
Virginia,NorthCarolina,NorthCarolina,WRONG,0.541,-7
Marshall,Rice,Marshall,RIGHT,0.537,13
Utah,Washington,Utah,RIGHT,0.527,5
UAB,Tennessee,Tennessee,RIGHT,0.527,23
FloridaAtlantic,WesternKentucky,WesternKentucky,WRONG,0.526,-11
BrighamYoung,UtahState,UtahState,WRONG,0.525,-28
TCU,OklahomaState,OklahomaState,RIGHT,0.519,7
FCS,Clemson,Clemson,RIGHT,0.518,45
ArkansasState,LouisianaMonroe,ArkansasState,RIGHT,0.507,7
Georgia,Florida,Georgia,RIGHT,0.502,7
Nebraska,Purdue,Nebraska,WRONG,0.500,-4
