Division,Score
SEC_West,0.163
B1G_East,0.099
Pac12_North,0.073
Independents,0.072
Big12,0.063
Pac12_South,0.062
ACC_Atlantic,0.057
B1G_West,0.055
ACC_Coastal,0.046
AAC_West,0.038
SEC_East,0.028
AAC_East,-0.003
MAC_West,-0.010
MountainWest_Mountain,-0.013
CUSA_East,-0.030
MAC_East,-0.035
SunBelt,-0.071
MountainWest_West,-0.089
CUSA_West,-0.095
FCS,-0.358
