Division,Score
ACC_Atlantic,0.224
SEC_West,0.210
SEC_East,0.194
AAC_East,0.169
MountainWest_West,0.161
Big12,0.150
MountainWest_Mountain,0.107
Independents,0.104
B1G_East,0.094
CUSA_East,0.088
Pac12_South,0.076
ACC_Coastal,0.065
AAC_West,0.051
Pac12_North,0.041
B1G_West,0.012
CUSA_West,-0.022
MAC_West,-0.024
MAC_East,-0.026
SunBelt,-0.168
FCS,-0.243
