Division,Score
SEC_West,0.232
ACC_Atlantic,0.227
Pac12_South,0.184
B1G_West,0.176
Big12,0.173
Independents,0.149
SEC_East,0.144
B1G_East,0.130
ACC_Coastal,0.105
AAC_West,0.064
Pac12_North,0.050
AAC_East,0.046
CUSA_East,0.043
MountainWest_Mountain,0.006
MAC_West,0.001
MountainWest_West,-0.044
SunBelt,-0.068
MAC_East,-0.091
CUSA_West,-0.154
FCS,-0.321
