Team,Rank,PrevRank,DeltaRank,RankScore
Cincinnati,66,59,-7,0.037
Connecticut,81,76,-5,-0.014
EastCarolina,75,96,21,0.013
SouthFlorida,106,108,2,-0.124
Temple,26,25,-1,0.215
UCF,123,118,-5,-0.214
Houston,34,55,21,0.201
Memphis,24,31,7,0.224
Navy,12,14,2,0.308
SouthernMethodist,112,105,-7,-0.145
Tulane,121,119,-2,-0.202
Tulsa,57,66,9,0.092
BostonCollege,49,60,11,0.118
Clemson,20,34,14,0.248
FloridaState,3,6,3,0.352
Louisville,84,106,22,-0.024
NorthCarolinaState,2,5,3,0.364
Syracuse,44,21,-23,0.142
WakeForest,78,73,-5,0.007
Duke,31,41,10,0.210
GeorgiaTech,62,37,-25,0.062
MiamiFL,23,36,13,0.234
NorthCarolina,30,28,-2,0.211
Pittsburgh,51,58,7,0.117
Virginia,107,92,-15,-0.125
VirginiaTech,68,44,-24,0.030
Indiana,42,46,4,0.151
Maryland,90,71,-19,-0.040
Michigan,16,33,17,0.284
MichiganState,19,19,0,0.257
OhioState,5,2,-3,0.344
PennState,36,39,3,0.190
Rutgers,86,100,14,-0.028
Illinois,56,65,9,0.092
Iowa,28,29,1,0.212
Minnesota,64,79,15,0.052
Nebraska,50,54,4,0.118
Northwestern,13,9,-4,0.288
Purdue,114,113,-1,-0.164
Wisconsin,21,42,21,0.238
Baylor,7,12,5,0.329
IowaState,87,88,1,-0.033
Kansas,125,125,0,-0.271
KansasState,27,32,5,0.212
Oklahoma,4,7,3,0.352
OklahomaState,38,26,-12,0.177
TCU,18,11,-7,0.270
Texas,80,75,-5,-0.010
TexasTech,37,18,-19,0.180
WestVirginia,1,4,3,0.416
Charlotte,110,89,-21,-0.138
FloridaAtlantic,105,121,16,-0.121
FloridaInternational,93,78,-15,-0.054
Marshall,59,56,-3,0.087
MiddleTennessee,55,35,-20,0.093
OldDominion,95,74,-21,-0.075
WesternKentucky,48,72,24,0.122
LouisianaTech,58,83,25,0.088
NorthTexas,129,128,-1,-0.381
Rice,96,84,-12,-0.093
SouthernMiss,85,69,-16,-0.027
UTEP,118,123,5,-0.185
UTSA,124,122,-2,-0.232
Army,89,109,20,-0.038
BrighamYoung,63,47,-16,0.058
NotreDame,17,10,-7,0.281
Akron,76,103,27,0.012
BowlingGreen,71,82,11,0.020
Buffalo,67,68,1,0.034
KentState,97,107,10,-0.094
Massachusetts,119,117,-2,-0.188
MiamiOH,116,111,-5,-0.177
Ohio,39,20,-19,0.171
BallState,69,63,-6,0.021
CentralMichigan,94,86,-8,-0.070
EasternMichigan,122,101,-21,-0.204
NorthernIllinois,65,61,-4,0.048
Toledo,32,48,16,0.206
WesternMichigan,103,99,-4,-0.107
AirForce,40,45,5,0.164
BoiseState,46,57,11,0.133
ColoradoState,70,81,11,0.020
NewMexico,99,115,16,-0.098
UtahState,104,110,6,-0.113
Wyoming,128,129,1,-0.370
FresnoState,115,94,-21,-0.171
Hawaii,77,50,-27,0.010
Nevada,88,97,9,-0.034
SanDiegoState,109,104,-5,-0.132
SanJoseState,91,114,23,-0.040
UNLV,108,124,16,-0.128
California,33,24,-9,0.203
Oregon,61,43,-18,0.062
OregonState,79,70,-9,-0.003
Stanford,35,51,16,0.196
Washington,60,49,-11,0.070
WashingtonState,82,91,9,-0.022
Arizona,45,27,-18,0.136
ArizonaState,74,53,-21,0.014
Colorado,53,64,11,0.111
UCLA,11,17,6,0.310
USC,22,40,18,0.234
Utah,8,15,7,0.328
Florida,25,23,-2,0.223
Georgia,9,3,-6,0.320
Kentucky,47,62,15,0.125
Missouri,54,30,-24,0.100
SouthCarolina,73,93,20,0.014
Tennessee,43,38,-5,0.144
Vanderbilt,92,87,-5,-0.047
Alabama,10,13,3,0.311
Arkansas,72,67,-5,0.020
Auburn,83,77,-6,-0.023
LSU,14,16,2,0.286
MississippiState,29,22,-7,0.212
OleMiss,15,8,-7,0.286
TexasAM,6,1,-5,0.343
AppalachianState,41,90,49,0.157
ArkansasState,111,102,-9,-0.140
GeorgiaSouthern,52,52,0,0.116
GeorgiaState,117,116,-1,-0.181
Idaho,126,126,0,-0.313
LouisianaLafayette,98,80,-18,-0.098
LouisianaMonroe,100,85,-15,-0.099
NewMexicoState,120,120,0,-0.194
SouthAlabama,101,95,-6,-0.103
TexasState,113,98,-15,-0.156
Troy,102,112,10,-0.105
FCS,127,127,0,-0.354
