Team,Rank,PrevRank,DeltaRank,RankScore
Cincinnati,56,57,1,0.069
Connecticut,78,78,0,-0.031
EastCarolina,74,73,-1,-0.015
SouthFlorida,39,39,0,0.123
Temple,24,18,-6,0.172
UCF,127,127,0,-0.335
Houston,5,8,3,0.260
Memphis,22,23,1,0.187
Navy,8,7,-1,0.250
SouthernMethodist,119,118,-1,-0.216
Tulane,120,120,0,-0.223
Tulsa,79,81,2,-0.032
BostonCollege,88,88,0,-0.074
Clemson,4,4,0,0.299
FloridaState,9,10,1,0.245
Louisville,62,62,0,0.055
NorthCarolinaState,49,51,2,0.085
Syracuse,91,91,0,-0.085
WakeForest,100,100,0,-0.129
Duke,67,67,0,0.025
GeorgiaTech,83,82,-1,-0.042
MiamiFL,54,55,1,0.074
NorthCarolina,11,5,-6,0.229
Pittsburgh,48,50,2,0.087
Virginia,90,90,0,-0.081
VirginiaTech,66,66,0,0.032
Indiana,71,70,-1,0.007
Maryland,96,94,-2,-0.100
Michigan,12,13,1,0.228
MichiganState,7,6,-1,0.251
OhioState,3,3,0,0.331
PennState,50,52,2,0.085
Rutgers,98,97,-1,-0.108
Illinois,82,77,-5,-0.034
Iowa,14,11,-3,0.224
Minnesota,77,75,-2,-0.024
Nebraska,53,54,1,0.076
Northwestern,36,37,1,0.139
Purdue,107,108,1,-0.160
Wisconsin,27,29,2,0.166
Baylor,16,9,-7,0.211
IowaState,97,96,-1,-0.102
Kansas,128,128,0,-0.345
KansasState,70,72,2,0.007
Oklahoma,2,2,0,0.339
OklahomaState,23,24,1,0.175
TCU,20,21,1,0.194
Texas,73,76,3,-0.004
TexasTech,59,59,0,0.062
WestVirginia,45,41,-4,0.097
Charlotte,124,123,-1,-0.270
FloridaAtlantic,99,99,0,-0.125
FloridaInternational,95,95,0,-0.098
Marshall,34,36,2,0.143
MiddleTennessee,64,64,0,0.042
OldDominion,104,103,-1,-0.142
WesternKentucky,10,15,5,0.240
LouisianaTech,47,49,2,0.090
NorthTexas,126,126,0,-0.325
Rice,101,102,1,-0.132
SouthernMiss,38,32,-6,0.127
UTEP,111,111,0,-0.166
UTSA,110,110,0,-0.163
Army,112,112,0,-0.168
BrighamYoung,29,31,2,0.159
NotreDame,13,14,1,0.225
Akron,65,65,0,0.034
BowlingGreen,17,22,5,0.206
Buffalo,86,85,-1,-0.059
KentState,113,113,0,-0.170
Massachusetts,105,105,0,-0.155
MiamiOH,109,109,0,-0.161
Ohio,61,61,0,0.058
BallState,106,106,0,-0.159
CentralMichigan,60,60,0,0.059
EasternMichigan,125,125,0,-0.308
NorthernIllinois,58,48,-10,0.062
Toledo,18,17,-1,0.205
WesternMichigan,52,53,1,0.080
AirForce,51,47,-4,0.082
BoiseState,42,43,1,0.118
ColoradoState,72,71,-1,0.004
NewMexico,81,79,-2,-0.034
UtahState,69,69,0,0.017
Wyoming,123,122,-1,-0.264
FresnoState,116,117,1,-0.197
Hawaii,121,121,0,-0.234
Nevada,84,84,0,-0.051
SanDiegoState,30,34,4,0.158
SanJoseState,85,83,-2,-0.052
UNLV,108,107,-1,-0.161
California,57,58,1,0.067
Oregon,28,30,2,0.164
OregonState,118,119,1,-0.215
Stanford,6,12,6,0.256
Washington,46,46,0,0.094
WashingtonState,55,56,1,0.073
Arizona,80,80,0,-0.034
ArizonaState,63,63,0,0.046
Colorado,94,93,-1,-0.095
UCLA,43,45,2,0.114
USC,32,26,-6,0.144
Utah,21,20,-1,0.194
Florida,31,25,-6,0.148
Georgia,37,38,1,0.132
Kentucky,87,87,0,-0.068
Missouri,75,74,-1,-0.022
SouthCarolina,92,92,0,-0.089
Tennessee,25,27,2,0.172
Vanderbilt,89,89,0,-0.074
Alabama,1,1,0,0.354
Arkansas,40,42,2,0.120
Auburn,68,68,0,0.023
LSU,26,28,2,0.169
MississippiState,33,35,2,0.144
OleMiss,15,16,1,0.215
TexasAM,41,44,3,0.118
AppalachianState,19,19,0,0.202
ArkansasState,35,40,5,0.141
GeorgiaSouthern,44,33,-11,0.106
GeorgiaState,76,86,10,-0.024
Idaho,114,116,2,-0.190
LouisianaLafayette,103,98,-5,-0.138
LouisianaMonroe,122,124,2,-0.258
NewMexicoState,117,115,-2,-0.202
SouthAlabama,102,104,2,-0.138
TexasState,115,114,-1,-0.192
Troy,93,101,8,-0.090
FCS,129,129,0,-0.358
