Team,Rank,PrevRank,DeltaRank,RankScore
Cincinnati,53,64,11,0.084
Connecticut,95,87,-8,-0.089
EastCarolina,70,61,-9,0.028
SouthFlorida,58,65,7,0.054
Temple,14,17,3,0.260
UCF,124,124,0,-0.275
Houston,15,15,0,0.255
Memphis,8,13,5,0.291
Navy,22,21,-1,0.228
SouthernMethodist,118,115,-3,-0.215
Tulane,110,111,1,-0.157
Tulsa,88,82,-6,-0.047
BostonCollege,78,72,-6,-0.002
Clemson,4,8,4,0.330
FloridaState,20,6,-14,0.230
Louisville,69,69,0,0.031
NorthCarolinaState,35,40,5,0.156
Syracuse,77,76,-1,0.002
WakeForest,96,90,-6,-0.099
Duke,29,28,-1,0.176
GeorgiaTech,59,79,20,0.048
MiamiFL,63,50,-13,0.046
NorthCarolina,21,19,-2,0.229
Pittsburgh,42,47,5,0.118
Virginia,98,98,0,-0.103
VirginiaTech,68,67,-1,0.031
Indiana,80,71,-9,-0.006
Maryland,93,94,1,-0.066
Michigan,7,7,0,0.294
MichiganState,18,24,6,0.251
OhioState,1,2,1,0.366
PennState,36,31,-5,0.151
Rutgers,79,70,-9,-0.006
Illinois,66,54,-12,0.038
Iowa,9,9,0,0.287
Minnesota,81,81,0,-0.012
Nebraska,45,45,0,0.100
Northwestern,37,32,-5,0.142
Purdue,109,108,-1,-0.151
Wisconsin,31,34,3,0.170
Baylor,2,1,-1,0.344
IowaState,94,88,-6,-0.075
Kansas,126,126,0,-0.294
KansasState,73,57,-16,0.023
Oklahoma,5,10,5,0.310
OklahomaState,25,26,1,0.218
TCU,12,11,-1,0.270
Texas,57,73,16,0.055
TexasTech,47,41,-6,0.093
WestVirginia,44,46,2,0.106
Charlotte,117,109,-8,-0.208
FloridaAtlantic,115,110,-5,-0.182
FloridaInternational,84,97,13,-0.028
Marshall,28,29,1,0.178
MiddleTennessee,86,74,-12,-0.037
OldDominion,108,100,-8,-0.150
WesternKentucky,34,25,-9,0.159
LouisianaTech,50,62,12,0.089
NorthTexas,129,129,0,-0.368
Rice,90,92,2,-0.050
SouthernMiss,61,77,16,0.048
UTEP,122,127,5,-0.234
UTSA,113,116,3,-0.175
Army,99,99,0,-0.106
BrighamYoung,32,39,7,0.168
NotreDame,11,16,5,0.274
Akron,83,83,0,-0.028
BowlingGreen,33,44,11,0.165
Buffalo,76,93,17,0.006
KentState,97,91,-6,-0.100
Massachusetts,111,112,1,-0.167
MiamiOH,120,120,0,-0.229
Ohio,60,48,-12,0.048
BallState,105,106,1,-0.131
CentralMichigan,62,66,4,0.046
EasternMichigan,125,121,-4,-0.279
NorthernIllinois,55,68,13,0.060
Toledo,13,12,-1,0.263
WesternMichigan,54,60,6,0.080
AirForce,56,75,19,0.056
BoiseState,38,33,-5,0.142
ColoradoState,85,84,-1,-0.036
NewMexico,102,96,-6,-0.110
UtahState,64,43,-21,0.043
Wyoming,123,123,0,-0.264
FresnoState,119,117,-2,-0.222
Hawaii,107,105,-2,-0.146
Nevada,91,95,4,-0.054
SanDiegoState,48,63,15,0.093
SanJoseState,92,102,10,-0.057
UNLV,100,104,4,-0.107
California,40,27,-13,0.137
Oregon,46,51,5,0.094
OregonState,104,103,-1,-0.125
Stanford,10,14,4,0.280
Washington,65,53,-12,0.040
WashingtonState,52,55,3,0.085
Arizona,49,49,0,0.091
ArizonaState,51,52,1,0.087
Colorado,87,89,2,-0.045
UCLA,30,42,12,0.174
USC,24,37,13,0.221
Utah,19,3,-16,0.247
Florida,23,20,-3,0.224
Georgia,39,38,-1,0.139
Kentucky,75,56,-19,0.020
Missouri,74,59,-15,0.021
SouthCarolina,89,85,-4,-0.049
Tennessee,41,35,-6,0.119
Vanderbilt,82,86,4,-0.014
Alabama,6,4,-2,0.310
Arkansas,67,78,11,0.033
Auburn,72,58,-14,0.023
LSU,3,5,2,0.332
MississippiState,16,23,7,0.255
OleMiss,26,30,4,0.213
TexasAM,27,18,-9,0.185
AppalachianState,17,22,5,0.254
ArkansasState,71,80,9,0.025
GeorgiaSouthern,43,36,-7,0.108
GeorgiaState,116,113,-3,-0.185
Idaho,114,122,8,-0.179
LouisianaLafayette,103,101,-2,-0.113
LouisianaMonroe,121,118,-3,-0.232
NewMexicoState,127,125,-2,-0.320
SouthAlabama,112,107,-5,-0.167
TexasState,101,114,13,-0.107
Troy,106,119,13,-0.137
FCS,128,128,0,-0.354
