Division,Score
B1G_East,0.152
SEC_West,0.131
AAC_West,0.126
Big12,0.096
ACC_Atlantic,0.094
Pac12_North,0.068
B1G_West,0.067
MountainWest_Mountain,0.067
SunBelt_East,0.056
Pac12_South,0.051
SEC_East,0.046
AAC_East,0.029
ACC_Coastal,0.016
MAC_West,-0.019
MountainWest_West,-0.033
CUSA_East,-0.042
SunBelt_West,-0.050
CUSA_West,-0.068
Independents,-0.117
MAC_East,-0.130
FCS,-0.340
