Division,Score
SEC_West,0.163
B1G_East,0.155
AAC_West,0.136
Big12,0.120
ACC_Atlantic,0.115
B1G_West,0.092
Pac12_North,0.084
SEC_East,0.065
Pac12_South,0.060
MountainWest_Mountain,0.054
SunBelt_East,0.031
ACC_Coastal,0.028
AAC_East,0.027
MountainWest_West,-0.011
MAC_West,-0.028
SunBelt_West,-0.040
CUSA_East,-0.045
CUSA_West,-0.069
Independents,-0.093
MAC_East,-0.138
FCS,-0.334
