Division,Score
SEC_West,0.188
B1G_East,0.182
AAC_West,0.156
Big12,0.135
ACC_Atlantic,0.129
Pac12_South,0.088
Pac12_North,0.088
B1G_West,0.084
SEC_East,0.071
MountainWest_Mountain,0.048
SunBelt_East,0.033
ACC_Coastal,0.027
AAC_East,0.017
MountainWest_West,-0.012
SunBelt_West,-0.021
MAC_West,-0.044
CUSA_East,-0.057
CUSA_West,-0.070
Independents,-0.074
MAC_East,-0.152
FCS,-0.335
