Team,Rank,PrevRank,DeltaRank,RankScore
Cincinnati,17,19,2,0.242
Connecticut,122,126,4,-0.223
EastCarolina,113,108,-5,-0.142
SouthFlorida,72,93,21,-0.004
Temple,59,47,-12,0.032
UCF,11,22,11,0.266
Houston,77,78,1,-0.022
Memphis,20,15,-5,0.226
Navy,15,16,1,0.252
SouthernMethodist,12,9,-3,0.261
Tulane,40,33,-7,0.107
Tulsa,99,102,3,-0.068
BostonCollege,56,46,-10,0.042
Clemson,2,4,2,0.394
FloridaState,50,62,12,0.063
Louisville,49,53,4,0.064
NorthCarolinaState,73,74,1,-0.006
Syracuse,90,72,-18,-0.039
WakeForest,31,34,3,0.141
Duke,51,43,-8,0.060
GeorgiaTech,117,117,0,-0.178
MiamiFL,55,59,4,0.048
NorthCarolina,54,57,3,0.049
Pittsburgh,62,56,-6,0.016
Virginia,42,32,-10,0.102
VirginiaTech,64,67,3,0.013
Indiana,30,39,9,0.143
Maryland,86,76,-10,-0.032
Michigan,23,31,8,0.206
MichiganState,46,40,-6,0.081
OhioState,1,1,0,0.517
PennState,5,7,2,0.344
Rutgers,119,125,6,-0.191
Illinois,67,81,14,0.011
Iowa,27,28,1,0.184
Minnesota,18,21,3,0.242
Nebraska,71,66,-5,-0.004
Northwestern,115,113,-2,-0.161
Purdue,104,88,-16,-0.072
Wisconsin,10,5,-5,0.272
Baylor,13,17,4,0.256
IowaState,28,25,-3,0.146
Kansas,103,104,1,-0.071
KansasState,33,42,9,0.135
Oklahoma,8,6,-2,0.284
OklahomaState,39,45,6,0.107
TCU,38,51,13,0.108
Texas,36,29,-7,0.118
TexasTech,79,69,-10,-0.023
WestVirginia,107,99,-8,-0.100
Charlotte,109,111,2,-0.111
FloridaAtlantic,45,52,7,0.092
FloridaInternational,91,60,-31,-0.040
Marshall,60,75,15,0.028
MiddleTennessee,98,114,16,-0.066
OldDominion,126,121,-5,-0.245
WesternKentucky,53,50,-3,0.051
LouisianaTech,32,35,3,0.138
NorthTexas,101,97,-4,-0.070
Rice,121,119,-2,-0.213
SouthernMiss,63,68,5,0.015
UAB,37,38,1,0.118
UTEP,127,127,0,-0.297
UTSA,116,116,0,-0.169
Army,81,77,-4,-0.027
BrighamYoung,105,106,1,-0.082
Liberty,84,65,-19,-0.031
Massachusetts,131,131,0,-0.436
NewMexicoState,128,128,0,-0.319
NotreDame,26,14,-12,0.191
Akron,130,130,0,-0.431
BowlingGreen,124,118,-6,-0.227
Buffalo,61,84,23,0.024
KentState,111,105,-6,-0.121
MiamiOH,83,98,15,-0.031
Ohio,70,90,20,0.002
BallState,65,55,-10,0.012
CentralMichigan,80,61,-19,-0.025
EasternMichigan,97,96,-1,-0.065
NorthernIllinois,106,112,6,-0.087
Toledo,82,91,9,-0.027
WesternMichigan,47,54,7,0.078
AirForce,22,26,4,0.216
BoiseState,16,18,2,0.244
ColoradoState,108,115,7,-0.102
NewMexico,120,120,0,-0.204
UtahState,43,30,-13,0.102
Wyoming,29,41,12,0.144
FresnoState,85,70,-15,-0.032
Hawaii,58,71,13,0.033
Nevada,110,100,-10,-0.111
SanDiegoState,34,36,2,0.135
SanJoseState,89,94,5,-0.037
UNLV,118,122,4,-0.185
California,78,64,-14,-0.022
Oregon,19,13,-6,0.239
OregonState,75,82,7,-0.015
Stanford,94,107,13,-0.043
Washington,24,23,-1,0.195
WashingtonState,52,48,-4,0.055
Arizona,95,80,-15,-0.049
ArizonaState,57,44,-13,0.037
Colorado,102,95,-7,-0.071
UCLA,88,101,13,-0.037
USC,35,37,2,0.126
Utah,6,11,5,0.299
Florida,21,20,-1,0.223
Georgia,9,12,3,0.283
Kentucky,66,89,23,0.011
Missouri,41,27,-14,0.102
SouthCarolina,93,73,-20,-0.043
Tennessee,87,103,16,-0.033
Vanderbilt,123,123,0,-0.224
Alabama,3,3,0,0.380
Arkansas,112,110,-2,-0.133
Auburn,14,8,-6,0.255
LSU,4,2,-2,0.372
MississippiState,74,63,-11,-0.011
OleMiss,92,87,-5,-0.043
TexasAM,44,49,5,0.094
AppalachianState,7,10,3,0.287
CoastalCarolina,76,79,3,-0.016
GeorgiaSouthern,69,85,16,0.005
GeorgiaState,48,58,10,0.075
Troy,100,83,-17,-0.070
ArkansasState,68,86,18,0.007
LouisianaLafayette,25,24,-1,0.195
LouisianaMonroe,96,92,-4,-0.062
SouthAlabama,125,124,-1,-0.240
TexasState,114,109,-5,-0.148
FCS,129,129,0,-0.340
