Team,Rank,PrevRank,DeltaRank,RankScore
Cincinnati,18,22,4,0.230
Connecticut,124,123,-1,-0.239
EastCarolina,111,111,0,-0.127
SouthFlorida,89,80,-9,-0.034
Temple,54,63,9,0.041
UCF,20,11,-9,0.224
Houston,91,89,-2,-0.050
Memphis,13,17,4,0.242
Navy,10,10,0,0.259
SouthernMethodist,22,21,-1,0.212
Tulane,35,37,2,0.119
Tulsa,99,101,2,-0.069
BostonCollege,56,49,-7,0.038
Clemson,2,4,2,0.372
FloridaState,57,67,10,0.037
Louisville,65,50,-15,0.018
NorthCarolinaState,102,94,-8,-0.084
Syracuse,105,100,-5,-0.092
WakeForest,39,27,-12,0.116
Duke,69,52,-17,0.011
GeorgiaTech,115,116,1,-0.171
MiamiFL,37,42,5,0.119
NorthCarolina,62,64,2,0.025
Pittsburgh,59,57,-2,0.033
Virginia,40,39,-1,0.109
VirginiaTech,47,68,21,0.058
Indiana,31,30,-1,0.137
Maryland,101,96,-5,-0.078
Michigan,21,19,-2,0.223
MichiganState,50,44,-6,0.048
OhioState,1,1,0,0.500
PennState,6,5,-1,0.296
Rutgers,122,121,-1,-0.224
Illinois,48,55,7,0.054
Iowa,28,25,-3,0.154
Minnesota,11,13,2,0.253
Nebraska,87,87,0,-0.029
Northwestern,118,117,-1,-0.194
Purdue,93,95,2,-0.051
Wisconsin,12,9,-3,0.252
Baylor,19,18,-1,0.225
IowaState,33,33,0,0.122
Kansas,108,108,0,-0.107
KansasState,30,28,-2,0.138
Oklahoma,9,8,-1,0.261
OklahomaState,36,35,-1,0.119
TCU,46,47,1,0.060
Texas,38,40,2,0.118
TexasTech,71,84,13,0.008
WestVirginia,110,102,-8,-0.126
Charlotte,96,99,3,-0.059
FloridaAtlantic,29,38,9,0.143
FloridaInternational,94,85,-9,-0.057
Marshall,53,56,3,0.042
MiddleTennessee,106,105,-1,-0.096
OldDominion,123,125,2,-0.229
WesternKentucky,52,66,14,0.045
LouisianaTech,27,32,5,0.167
NorthTexas,98,90,-8,-0.065
Rice,120,122,2,-0.220
SouthernMiss,44,70,26,0.067
UAB,72,54,-18,0.003
UTEP,127,128,1,-0.296
UTSA,116,118,2,-0.173
Army,75,88,13,-0.007
BrighamYoung,67,79,12,0.017
Liberty,81,76,-5,-0.017
Massachusetts,131,130,-1,-0.449
NewMexicoState,129,127,-2,-0.350
NotreDame,23,26,3,0.211
Akron,130,131,1,-0.441
BowlingGreen,114,115,1,-0.171
Buffalo,45,48,3,0.062
KentState,109,110,1,-0.113
MiamiOH,83,86,3,-0.019
Ohio,79,74,-5,-0.009
BallState,78,73,-5,-0.008
CentralMichigan,63,69,6,0.020
EasternMichigan,107,107,0,-0.101
NorthernIllinois,112,112,0,-0.135
Toledo,82,83,1,-0.019
WesternMichigan,43,45,2,0.080
AirForce,25,24,-1,0.199
BoiseState,17,16,-1,0.231
ColoradoState,100,98,-2,-0.072
NewMexico,119,119,0,-0.210
UtahState,51,53,2,0.048
Wyoming,34,31,-3,0.121
FresnoState,74,77,3,-0.005
Hawaii,68,72,4,0.017
Nevada,95,103,8,-0.058
SanDiegoState,41,34,-7,0.103
SanJoseState,92,93,1,-0.051
UNLV,121,120,-1,-0.222
California,70,82,12,0.009
Oregon,8,12,4,0.268
OregonState,73,62,-11,-0.000
Stanford,97,91,-6,-0.062
Washington,26,29,3,0.176
WashingtonState,64,51,-13,0.019
Arizona,103,106,3,-0.086
ArizonaState,66,58,-8,0.017
Colorado,104,109,5,-0.086
UCLA,77,75,-2,-0.008
USC,42,43,1,0.089
Utah,7,7,0,0.292
Florida,24,23,-1,0.211
Georgia,5,6,1,0.317
Kentucky,76,71,-5,-0.007
Missouri,49,41,-8,0.050
SouthCarolina,85,81,-4,-0.021
Tennessee,58,60,2,0.036
Vanderbilt,126,124,-2,-0.249
Alabama,4,2,-2,0.337
Arkansas,117,113,-4,-0.193
Auburn,14,15,1,0.238
LSU,3,3,0,0.362
MississippiState,60,61,1,0.032
OleMiss,86,92,6,-0.028
TexasAM,32,36,4,0.124
AppalachianState,15,14,-1,0.235
CoastalCarolina,90,78,-12,-0.048
GeorgiaSouthern,80,59,-21,-0.011
GeorgiaState,55,46,-9,0.039
Troy,84,97,13,-0.019
ArkansasState,61,65,4,0.029
LouisianaLafayette,16,20,4,0.235
LouisianaMonroe,88,104,16,-0.033
SouthAlabama,125,126,1,-0.242
TexasState,113,114,1,-0.153
FCS,128,129,1,-0.342
