Team,Rank,PrevRank,DeltaRank,RankScore
Cincinnati,102,57,-45,-0.055
Connecticut,95,83,-12,-0.032
EastCarolina,84,122,38,0.001
SouthFlorida,123,129,6,-0.227
Temple,33,9,-24,0.222
UCF,32,6,-26,0.223
Houston,85,110,25,-0.002
Memphis,29,74,45,0.236
Navy,36,16,-20,0.216
SouthernMethodist,19,64,45,0.318
Tulane,81,26,-55,0.012
Tulsa,59,113,54,0.085
BostonCollege,28,63,35,0.256
Clemson,4,10,6,0.389
FloridaState,86,89,3,-0.011
Louisville,66,111,45,0.050
NorthCarolinaState,14,25,11,0.358
Syracuse,101,34,-67,-0.051
WakeForest,42,80,38,0.177
Duke,89,127,38,-0.013
GeorgiaTech,100,126,26,-0.047
MiamiFL,104,87,-17,-0.063
NorthCarolina,56,77,21,0.090
Pittsburgh,79,107,28,0.021
Virginia,20,49,29,0.317
VirginiaTech,61,95,34,0.082
Indiana,22,58,36,0.293
Maryland,5,3,-2,0.387
Michigan,30,42,12,0.231
MichiganState,1,38,37,0.454
OhioState,10,35,25,0.367
PennState,8,4,-4,0.375
Rutgers,98,27,-71,-0.038
Illinois,24,8,-16,0.284
Iowa,2,32,30,0.423
Minnesota,64,70,6,0.068
Nebraska,50,51,1,0.114
Northwestern,122,101,-21,-0.224
Purdue,69,85,16,0.042
Wisconsin,11,5,-6,0.366
Baylor,6,13,7,0.378
IowaState,68,81,13,0.044
Kansas,93,69,-24,-0.029
KansasState,7,20,13,0.375
Oklahoma,16,44,28,0.337
OklahomaState,40,50,10,0.191
TCU,37,24,-13,0.208
Texas,44,21,-23,0.152
TexasTech,12,19,7,0.363
WestVirginia,116,68,-48,-0.140
Charlotte,83,40,-43,0.008
FloridaAtlantic,124,117,-7,-0.251
FloridaInternational,128,123,-5,-0.351
Marshall,63,14,-49,0.076
MiddleTennessee,76,112,36,0.024
OldDominion,111,82,-29,-0.108
WesternKentucky,112,115,3,-0.120
LouisianaTech,117,124,7,-0.145
NorthTexas,78,43,-35,0.022
Rice,120,94,-26,-0.214
SouthernMiss,72,31,-41,0.033
UAB,52,76,24,0.098
UTEP,110,84,-26,-0.099
UTSA,92,29,-63,-0.021
Army,73,66,-7,0.033
BrighamYoung,96,109,13,-0.036
Liberty,130,119,-11,-0.396
Massachusetts,131,121,-10,-0.505
NewMexicoState,126,130,4,-0.284
NotreDame,18,45,27,0.318
Akron,121,128,7,-0.215
BowlingGreen,87,11,-76,-0.011
Buffalo,88,30,-58,-0.012
KentState,107,116,9,-0.078
MiamiOH,71,118,47,0.035
Ohio,90,41,-49,-0.015
BallState,70,102,32,0.037
CentralMichigan,99,48,-51,-0.042
EasternMichigan,82,62,-20,0.011
NorthernIllinois,80,53,-27,0.013
Toledo,115,105,-10,-0.139
WesternMichigan,75,18,-57,0.031
AirForce,35,12,-23,0.219
BoiseState,41,75,34,0.185
ColoradoState,74,114,40,0.032
NewMexico,51,61,10,0.100
UtahState,57,86,29,0.090
Wyoming,43,72,29,0.169
FresnoState,109,99,-10,-0.090
Hawaii,49,65,16,0.120
Nevada,118,79,-39,-0.167
SanDiegoState,54,73,19,0.094
SanJoseState,105,47,-58,-0.068
UNLV,106,23,-83,-0.070
California,48,54,6,0.138
Oregon,34,91,57,0.220
OregonState,113,106,-7,-0.126
Stanford,103,55,-48,-0.061
Washington,53,22,-31,0.096
WashingtonState,31,2,-29,0.226
Arizona,67,97,30,0.046
ArizonaState,26,36,10,0.272
Colorado,27,37,10,0.260
UCLA,119,100,-19,-0.202
USC,25,59,34,0.284
Utah,13,46,33,0.358
Florida,47,78,31,0.142
Georgia,38,33,-5,0.207
Kentucky,15,52,37,0.349
Missouri,46,92,46,0.142
SouthCarolina,60,88,28,0.084
Tennessee,114,98,-16,-0.129
Vanderbilt,129,120,-9,-0.351
Alabama,3,7,4,0.398
Arkansas,108,67,-41,-0.085
Auburn,23,71,48,0.287
LSU,9,1,-8,0.369
MississippiState,17,56,39,0.326
OleMiss,55,90,35,0.093
TexasAM,65,15,-50,0.061
AppalachianState,21,17,-4,0.311
CoastalCarolina,91,93,2,-0.019
GeorgiaSouthern,94,131,37,-0.031
GeorgiaState,58,60,2,0.090
Troy,39,28,-11,0.202
ArkansasState,45,96,51,0.142
LouisianaLafayette,77,103,26,0.022
LouisianaMonroe,62,39,-23,0.077
SouthAlabama,97,104,7,-0.037
TexasState,125,125,0,-0.258
FCS,127,108,-19,-0.303
