AwayTeam,HomeTeam,PredictedWinner,Confidence
Kansas,CoastalCarolina,CoastalCarolina,0.939
UNLV,ArizonaState,ArizonaState,0.938
FCS,FresnoState,FresnoState,0.920
FCS,Alabama,Alabama,0.896
FCS,Cincinnati,Cincinnati,0.892
FCS,KentState,KentState,0.890
FCS,Marshall,Marshall,0.889
BostonCollege,Massachusetts,BostonCollege,0.889
FCS,OldDominion,OldDominion,0.884
FCS,Clemson,Clemson,0.883
Utah,BrighamYoung,BrighamYoung,0.867
Vanderbilt,ColoradoState,ColoradoState,0.862
FCS,Oklahoma,Oklahoma,0.862
California,TCU,TCU,0.861
SouthAlabama,BowlingGreen,SouthAlabama,0.852
Stanford,USC,USC,0.850
FCS,Louisville,Louisville,0.849
FCS,WestVirginia,WestVirginia,0.840
FCS,Northwestern,Northwestern,0.840
FCS,Nevada,Nevada,0.838
Missouri,Kentucky,Kentucky,0.825
FCS,WakeForest,WakeForest,0.823
FCS,Ohio,Ohio,0.821
AirForce,Navy,AirForce,0.816
FCS,LouisianaLafayette,LouisianaLafayette,0.808
WesternKentucky,Army,Army,0.806
FCS,Tulane,Tulane,0.803
FCS,Charlotte,Charlotte,0.791
FCS,OleMiss,OleMiss,0.790
FCS,CentralMichigan,CentralMichigan,0.789
FCS,UTSA,UTSA,0.785
FCS,Indiana,Indiana,0.777
Houston,Rice,Rice,0.762
FCS,WesternMichigan,WesternMichigan,0.759
FCS,WashingtonState,WashingtonState,0.759
SanDiegoState,Arizona,SanDiegoState,0.758
Florida,SouthFlorida,Florida,0.754
TexasState,FloridaInternational,FloridaInternational,0.754
EasternMichigan,Wisconsin,Wisconsin,0.753
FCS,Auburn,Auburn,0.752
FCS,LSU,LSU,0.750
AppalachianState,MiamiFL,AppalachianState,0.742
FCS,TexasTech,TexasTech,0.735
FCS,Baylor,Baylor,0.730
FCS,UCF,UCF,0.728
Illinois,Virginia,Virginia,0.727
NorthTexas,SouthernMethodist,SouthernMethodist,0.718
Liberty,Troy,Liberty,0.710
MiamiOH,Minnesota,Minnesota,0.709
FCS,LouisianaTech,LouisianaTech,0.707
FCS,SouthernMiss,SouthernMiss,0.696
Buffalo,Nebraska,Buffalo,0.694
FCS,KansasState,KansasState,0.690
FCS,Maryland,Maryland,0.686
Tulsa,OklahomaState,OklahomaState,0.684
FCS,GeorgiaTech,GeorgiaTech,0.679
GeorgiaState,NorthCarolina,NorthCarolina,0.665
FCS,FloridaState,FloridaState,0.656
Temple,Akron,Temple,0.656
Iowa,IowaState,IowaState,0.647
FCS,MichiganState,MichiganState,0.643
FCS,Duke,Duke,0.635
SouthCarolina,EastCarolina,SouthCarolina,0.629
NewMexicoState,NewMexico,NewMexicoState,0.628
Hawaii,OregonState,OregonState,0.586
Pittsburgh,Tennessee,Pittsburgh,0.584
MiddleTennessee,VirginiaTech,VirginiaTech,0.584
Wyoming,NorthernIllinois,Wyoming,0.583
Purdue,Connecticut,Connecticut,0.575
BallState,PennState,PennState,0.574
Washington,Michigan,Michigan,0.573
UAB,Georgia,Georgia,0.564
Oregon,OhioState,OhioState,0.558
Toledo,NotreDame,Toledo,0.552
UTEP,BoiseState,UTEP,0.550
Texas,Arkansas,Texas,0.546
TexasAM,Colorado,TexasAM,0.537
FCS,UtahState,UtahState,0.524
Rutgers,Syracuse,Rutgers,0.519
NorthCarolinaState,MississippiState,MississippiState,0.517
GeorgiaSouthern,FloridaAtlantic,GeorgiaSouthern,0.509
Memphis,ArkansasState,ArkansasState,0.506
