Division,Score
SEC_West,0.239
B1G_East,0.238
ACC_Coastal,0.149
SEC_East,0.125
Big12,0.118
B1G_West,0.106
CUSA_East,0.090
MountainWest_Mountain,0.082
ACC_Atlantic,0.080
Pac12_South,0.076
AAC_West,0.045
SunBelt_West,0.022
Pac12_North,0.016
MountainWest_West,0.005
AAC_East,-0.011
SunBelt_East,-0.011
CUSA_West,-0.011
MAC_West,-0.015
Independents,-0.020
MAC_East,-0.194
FCS,-0.291
