Team,Rank,PrevRank,DeltaRank,RankScore
Cincinnati,12,35,23,0.285
EastCarolina,100,115,15,-0.081
SouthFlorida,119,128,9,-0.175
Temple,94,84,-10,-0.069
UCF,47,24,-23,0.138
Houston,71,83,12,0.075
Memphis,35,29,-6,0.176
Navy,130,122,-8,-0.402
SouthernMethodist,25,6,-19,0.219
Tulane,86,65,-21,-0.029
Tulsa,118,109,-9,-0.173
BostonCollege,19,41,22,0.230
Clemson,53,62,9,0.120
FloridaState,114,106,-8,-0.139
Louisville,54,88,34,0.118
NorthCarolinaState,52,66,14,0.125
Syracuse,72,96,24,0.074
WakeForest,21,8,-13,0.228
Duke,60,63,3,0.101
GeorgiaTech,81,56,-25,-0.006
MiamiFL,108,104,-4,-0.110
NorthCarolina,17,55,38,0.241
Pittsburgh,43,17,-26,0.159
Virginia,65,10,-55,0.086
VirginiaTech,44,15,-29,0.158
Indiana,89,80,-9,-0.047
Maryland,27,21,-6,0.203
Michigan,1,18,17,0.436
MichiganState,15,14,-1,0.271
OhioState,42,53,11,0.159
PennState,11,7,-4,0.299
Rutgers,6,1,-5,0.331
Illinois,93,100,7,-0.065
Iowa,5,4,-1,0.347
Minnesota,67,107,40,0.082
Nebraska,76,45,-31,0.050
Northwestern,98,94,-4,-0.079
Purdue,55,26,-29,0.118
Wisconsin,31,46,15,0.178
Baylor,13,16,3,0.276
IowaState,75,93,18,0.055
Kansas,115,105,-10,-0.141
KansasState,9,28,19,0.313
Oklahoma,23,23,0,0.222
OklahomaState,73,61,-12,0.069
TCU,39,50,11,0.167
Texas,38,68,30,0.171
TexasTech,16,36,20,0.270
WestVirginia,40,67,27,0.161
Charlotte,78,34,-44,0.043
FloridaAtlantic,61,54,-7,0.099
FloridaInternational,109,81,-28,-0.115
Marshall,69,32,-37,0.079
MiddleTennessee,102,78,-24,-0.089
OldDominion,103,95,-8,-0.089
WesternKentucky,74,59,-15,0.068
LouisianaTech,82,86,4,-0.007
NorthTexas,113,92,-21,-0.131
Rice,127,127,0,-0.309
SouthernMiss,104,91,-13,-0.092
UAB,45,85,40,0.150
UTEP,87,99,12,-0.034
UTSA,24,25,1,0.222
Army,18,33,15,0.239
BrighamYoung,29,40,11,0.190
Connecticut,129,129,0,-0.329
Liberty,8,20,12,0.313
Massachusetts,126,118,-8,-0.307
NewMexicoState,121,123,2,-0.185
NotreDame,50,70,20,0.134
Akron,122,131,9,-0.217
BowlingGreen,99,116,17,-0.080
Buffalo,97,103,6,-0.076
KentState,88,79,-9,-0.039
MiamiOH,96,121,25,-0.073
Ohio,125,120,-5,-0.306
BallState,106,98,-8,-0.095
CentralMichigan,110,90,-20,-0.130
EasternMichigan,84,108,24,-0.017
NorthernIllinois,105,101,-4,-0.093
Toledo,95,57,-38,-0.071
WesternMichigan,63,97,34,0.091
AirForce,66,44,-22,0.084
BoiseState,56,37,-19,0.116
ColoradoState,111,125,14,-0.130
NewMexico,77,51,-26,0.046
UtahState,36,38,2,0.174
Wyoming,37,52,15,0.172
FresnoState,41,49,8,0.160
Hawaii,116,111,-5,-0.153
Nevada,68,47,-21,0.080
SanDiegoState,28,27,-1,0.191
SanJoseState,79,110,31,0.033
UNLV,128,117,-11,-0.329
California,83,102,19,-0.013
Oregon,10,31,21,0.303
OregonState,62,60,-2,0.096
Stanford,34,64,30,0.177
Washington,92,119,27,-0.054
WashingtonState,91,71,-20,-0.053
Arizona,117,114,-3,-0.166
ArizonaState,70,42,-28,0.075
Colorado,90,58,-32,-0.048
UCLA,33,13,-20,0.177
USC,26,77,51,0.212
Utah,80,82,2,0.004
Florida,20,9,-11,0.230
Georgia,2,5,3,0.435
Kentucky,30,22,-8,0.185
Missouri,57,72,15,0.110
SouthCarolina,64,48,-16,0.088
Tennessee,46,69,23,0.142
Vanderbilt,123,124,1,-0.264
Alabama,14,2,-12,0.273
Arkansas,4,12,8,0.348
Auburn,32,30,-2,0.177
LSU,58,76,18,0.107
MississippiState,59,43,-16,0.101
OleMiss,3,11,8,0.366
TexasAM,7,19,12,0.314
AppalachianState,49,74,25,0.138
CoastalCarolina,22,3,-19,0.228
GeorgiaSouthern,120,113,-7,-0.181
GeorgiaState,101,130,29,-0.083
Troy,51,73,22,0.128
ArkansasState,112,75,-37,-0.130
LouisianaLafayette,85,112,27,-0.020
LouisianaMonroe,131,89,-42,-0.427
SouthAlabama,48,39,-9,0.138
TexasState,107,87,-20,-0.098
FCS,124,126,2,-0.300
