Team,Rank,PrevRank,DeltaRank,RankScore
Cincinnati,25,8,-17,0.225
Connecticut,111,115,4,-0.168
EastCarolina,22,37,15,0.230
Houston,77,96,19,0.019
Memphis,26,53,27,0.223
SouthernMethodist,129,129,0,-0.355
SouthFlorida,91,95,4,-0.030
Temple,42,45,3,0.156
Tulane,107,100,-7,-0.124
Tulsa,76,76,0,0.029
UCF,89,99,10,-0.026
BostonCollege,67,56,-11,0.070
Clemson,108,110,2,-0.125
FloridaState,41,36,-5,0.159
Louisville,27,19,-8,0.215
NorthCarolinaState,19,31,12,0.254
Syracuse,74,50,-24,0.035
WakeForest,98,105,7,-0.070
Duke,16,23,7,0.261
GeorgiaTech,32,34,2,0.192
MiamiFL,84,79,-5,-0.000
NorthCarolina,66,25,-41,0.073
Pittsburgh,37,16,-21,0.180
Virginia,70,61,-9,0.049
VirginiaTech,47,35,-12,0.126
Indiana,46,68,22,0.134
Maryland,24,38,14,0.226
Michigan,68,40,-28,0.064
MichiganState,39,64,25,0.171
OhioState,36,27,-9,0.180
PennState,35,49,14,0.180
Rutgers,63,70,7,0.086
Illinois,59,66,7,0.097
Iowa,64,73,9,0.082
Minnesota,50,75,25,0.120
Nebraska,23,33,10,0.227
Northwestern,100,107,7,-0.081
Purdue,73,88,15,0.036
Wisconsin,53,82,29,0.109
Baylor,10,12,2,0.308
IowaState,125,122,-3,-0.254
Kansas,71,104,33,0.041
KansasState,48,30,-18,0.124
Oklahoma,2,2,0,0.385
OklahomaState,86,86,0,-0.012
TCU,11,13,2,0.306
Texas,30,42,12,0.197
TexasTech,78,80,2,0.018
WestVirginia,72,67,-5,0.041
FloridaAtlantic,118,126,8,-0.215
FloridaInternational,124,116,-8,-0.243
Marshall,15,22,7,0.278
MiddleTennessee,60,21,-39,0.095
OldDominion,61,55,-6,0.091
WesternKentucky,51,46,-5,0.119
UAB,52,57,5,0.115
LouisianaTech,105,102,-3,-0.116
NorthTexas,102,111,9,-0.101
Rice,116,118,2,-0.190
SouthernMiss,109,120,11,-0.139
UTEP,45,54,9,0.141
UTSA,9,15,6,0.326
Army,106,98,-8,-0.122
BrighamYoung,18,17,-1,0.254
Navy,90,81,-9,-0.029
NotreDame,4,4,0,0.378
Akron,83,60,-23,0.003
BowlingGreen,112,97,-15,-0.169
Buffalo,93,93,0,-0.034
KentState,119,119,0,-0.219
Massachusetts,127,124,-3,-0.288
MiamiOH,113,114,1,-0.174
Ohio,94,101,7,-0.046
BallState,96,84,-12,-0.050
CentralMichigan,92,74,-18,-0.032
EasternMichigan,115,106,-9,-0.184
NorthernIllinois,58,29,-29,0.099
Toledo,75,85,10,0.032
WesternMichigan,88,103,15,-0.025
AirForce,43,43,0,0.144
BoiseState,57,71,14,0.099
ColoradoState,44,58,14,0.143
NewMexico,104,117,13,-0.114
UtahState,99,89,-10,-0.073
Wyoming,79,78,-1,0.018
FresnoState,117,128,11,-0.194
Hawaii,97,87,-10,-0.060
Nevada,65,65,0,0.076
SanDiegoState,81,59,-22,0.007
SanJoseState,87,63,-24,-0.016
UNLV,123,109,-14,-0.240
California,49,51,2,0.122
Oregon,8,5,-3,0.341
OregonState,31,44,13,0.196
Stanford,40,32,-8,0.168
Washington,33,48,15,0.188
WashingtonState,95,90,-5,-0.046
Arizona,14,10,-4,0.289
ArizonaState,17,24,7,0.261
Colorado,101,112,11,-0.095
UCLA,29,28,-1,0.200
USC,38,39,1,0.175
Utah,13,26,13,0.297
Florida,55,3,-52,0.105
Georgia,34,41,7,0.183
Kentucky,12,14,2,0.298
Missouri,28,18,-10,0.203
SouthCarolina,69,83,14,0.057
Tennessee,21,20,-1,0.232
Vanderbilt,120,121,1,-0.228
Alabama,7,11,4,0.344
Arkansas,20,47,27,0.246
Auburn,1,1,0,0.427
LSU,56,52,-4,0.105
MississippiState,5,7,2,0.371
OleMiss,3,6,3,0.380
TexasAM,6,9,3,0.348
AppalachianState,114,108,-6,-0.174
ArkansasState,82,91,9,0.004
GeorgiaSouthern,62,77,15,0.088
GeorgiaState,103,94,-9,-0.114
Idaho,122,123,1,-0.235
LouisianaLafayette,121,113,-8,-0.231
LouisianaMonroe,54,62,8,0.105
NewMexicoState,80,69,-11,0.013
SouthAlabama,110,92,-18,-0.157
TexasState,85,72,-13,-0.002
Troy,126,125,-1,-0.285
FCS,128,127,-1,-0.305
