Team,Rank,PrevRank,DeltaRank,RankScore
Cincinnati,87,104,17,-0.031
Connecticut,127,123,-4,-0.264
EastCarolina,20,23,3,0.219
Houston,74,86,12,0.020
Memphis,35,40,5,0.150
SouthernMethodist,129,129,0,-0.370
SouthFlorida,99,106,7,-0.078
Temple,46,27,-19,0.105
Tulane,112,109,-3,-0.163
Tulsa,109,103,-6,-0.139
UCF,60,67,7,0.061
BostonCollege,51,50,-1,0.091
Clemson,37,37,0,0.146
FloridaState,12,12,0,0.277
Louisville,19,22,3,0.232
NorthCarolinaState,71,63,-8,0.029
Syracuse,83,93,10,-0.012
WakeForest,111,107,-4,-0.147
Duke,21,20,-1,0.217
GeorgiaTech,38,30,-8,0.137
MiamiFL,49,52,3,0.101
NorthCarolina,75,81,6,0.015
Pittsburgh,42,51,9,0.114
Virginia,61,60,-1,0.058
VirginiaTech,30,26,-4,0.166
Indiana,79,68,-11,0.001
Maryland,25,34,9,0.190
Michigan,66,70,4,0.044
MichiganState,9,11,2,0.301
OhioState,7,15,8,0.311
PennState,55,61,6,0.072
Rutgers,58,46,-12,0.068
Illinois,94,89,-5,-0.049
Iowa,47,38,-9,0.104
Minnesota,29,29,0,0.170
Nebraska,13,14,1,0.273
Northwestern,80,69,-11,-0.001
Purdue,76,76,0,0.009
Wisconsin,33,36,3,0.152
Baylor,16,6,-10,0.250
IowaState,114,115,1,-0.171
Kansas,108,105,-3,-0.135
KansasState,18,19,1,0.233
Oklahoma,14,10,-4,0.259
OklahomaState,70,57,-13,0.031
TCU,11,13,2,0.284
Texas,54,55,1,0.073
TexasTech,96,102,6,-0.055
WestVirginia,41,59,18,0.124
FloridaAtlantic,116,122,6,-0.173
FloridaInternational,101,94,-7,-0.086
Marshall,3,3,0,0.357
MiddleTennessee,40,54,14,0.125
OldDominion,86,85,-1,-0.027
WesternKentucky,56,42,-14,0.072
UAB,59,48,-11,0.063
LouisianaTech,89,95,6,-0.034
NorthTexas,121,117,-4,-0.199
Rice,88,82,-6,-0.033
SouthernMiss,106,120,14,-0.134
UTEP,92,92,0,-0.040
UTSA,78,73,-5,0.001
Army,122,111,-11,-0.209
BrighamYoung,65,58,-7,0.045
Navy,81,80,-1,-0.010
NotreDame,10,5,-5,0.287
Akron,52,43,-9,0.089
BowlingGreen,100,91,-9,-0.082
Buffalo,95,88,-7,-0.050
KentState,120,126,6,-0.194
Massachusetts,110,121,11,-0.146
MiamiOH,117,116,-1,-0.179
Ohio,97,100,3,-0.061
BallState,93,97,4,-0.046
CentralMichigan,82,78,-4,-0.012
EasternMichigan,124,112,-12,-0.223
NorthernIllinois,68,71,3,0.039
Toledo,73,75,2,0.025
WesternMichigan,77,90,13,0.008
AirForce,45,47,2,0.108
BoiseState,43,56,13,0.113
ColoradoState,28,32,4,0.170
NewMexico,107,110,3,-0.134
UtahState,69,65,-4,0.034
Wyoming,104,98,-6,-0.097
FresnoState,103,101,-2,-0.094
Hawaii,102,96,-6,-0.090
Nevada,53,66,13,0.076
SanDiegoState,67,74,7,0.041
SanJoseState,64,79,15,0.046
UNLV,125,124,-1,-0.244
California,63,62,-1,0.047
Oregon,5,9,4,0.322
OregonState,50,44,-6,0.093
Stanford,36,24,-12,0.150
Washington,48,33,-15,0.102
WashingtonState,91,87,-4,-0.038
Arizona,17,18,1,0.245
ArizonaState,22,31,9,0.216
Colorado,105,99,-6,-0.110
UCLA,34,35,1,0.152
USC,23,25,2,0.214
Utah,15,16,1,0.251
Florida,84,64,-20,-0.019
Georgia,6,7,1,0.316
Kentucky,24,8,-16,0.213
Missouri,27,41,14,0.170
SouthCarolina,62,77,15,0.051
Tennessee,39,28,-11,0.129
Vanderbilt,118,114,-4,-0.185
Alabama,8,17,9,0.304
Arkansas,57,53,-4,0.069
Auburn,4,4,0,0.349
LSU,31,49,18,0.155
MississippiState,2,2,0,0.411
OleMiss,1,1,0,0.434
TexasAM,26,21,-5,0.175
AppalachianState,119,125,6,-0.191
ArkansasState,44,45,1,0.109
GeorgiaSouthern,32,39,7,0.154
GeorgiaState,113,118,5,-0.168
Idaho,123,127,4,-0.210
LouisianaLafayette,98,113,15,-0.070
LouisianaMonroe,85,84,-1,-0.022
NewMexicoState,115,108,-7,-0.171
SouthAlabama,72,83,11,0.027
TexasState,90,72,-18,-0.038
Troy,126,119,-7,-0.245
FCS,128,128,0,-0.306
