Team,Rank,PrevRank,DeltaRank,RankScore
Cincinnati,35,37,2,0.124
Connecticut,123,123,0,-0.240
EastCarolina,31,34,3,0.134
Houston,64,70,6,0.045
Memphis,23,24,1,0.182
SouthernMethodist,129,129,0,-0.351
SouthFlorida,105,105,0,-0.134
Temple,68,60,-8,0.024
Tulane,116,115,-1,-0.178
Tulsa,113,112,-1,-0.172
UCF,40,46,6,0.110
BostonCollege,59,64,5,0.059
Clemson,29,33,4,0.142
FloridaState,14,12,-2,0.229
Louisville,20,21,1,0.187
NorthCarolinaState,57,69,12,0.065
Syracuse,104,100,-4,-0.130
WakeForest,111,110,-1,-0.166
Duke,27,30,3,0.149
GeorgiaTech,13,14,1,0.234
MiamiFL,51,44,-7,0.079
NorthCarolina,79,74,-5,-0.013
Pittsburgh,60,61,1,0.059
Virginia,77,72,-5,0.005
VirginiaTech,52,52,0,0.078
Indiana,94,95,1,-0.075
Maryland,56,50,-6,0.067
Michigan,72,68,-4,0.015
MichiganState,5,9,4,0.286
OhioState,2,2,0,0.331
PennState,66,56,-10,0.038
Rutgers,73,78,5,0.013
Illinois,83,89,6,-0.030
Iowa,55,51,-4,0.071
Minnesota,39,31,-8,0.111
Nebraska,18,19,1,0.200
Northwestern,82,79,-3,-0.029
Purdue,97,92,-5,-0.093
Wisconsin,11,11,0,0.255
Baylor,9,7,-2,0.264
IowaState,122,122,0,-0.228
Kansas,108,106,-2,-0.151
KansasState,16,17,1,0.216
Oklahoma,12,13,1,0.236
OklahomaState,98,97,-1,-0.095
TCU,7,10,3,0.281
Texas,49,36,-13,0.084
TexasTech,99,99,0,-0.097
WestVirginia,53,54,1,0.077
FloridaAtlantic,117,117,0,-0.193
FloridaInternational,96,96,0,-0.091
Marshall,4,3,-1,0.289
MiddleTennessee,75,73,-2,0.009
OldDominion,93,94,1,-0.073
WesternKentucky,37,43,6,0.118
UAB,76,81,5,0.006
LouisianaTech,45,57,12,0.090
NorthTexas,112,113,1,-0.171
Rice,78,66,-12,-0.010
SouthernMiss,119,116,-3,-0.213
UTEP,69,77,8,0.021
UTSA,95,103,8,-0.086
Army,109,111,2,-0.154
BrighamYoung,43,49,6,0.099
Navy,63,63,0,0.045
NotreDame,32,26,-6,0.129
Akron,87,83,-4,-0.050
BowlingGreen,86,82,-4,-0.040
Buffalo,85,90,5,-0.034
KentState,115,119,4,-0.177
Massachusetts,110,109,-1,-0.165
MiamiOH,114,114,0,-0.172
Ohio,92,91,-1,-0.063
BallState,80,84,4,-0.013
CentralMichigan,74,76,2,0.010
EasternMichigan,127,127,0,-0.279
NorthernIllinois,36,45,9,0.118
Toledo,46,55,9,0.086
WesternMichigan,48,42,-6,0.084
AirForce,33,40,7,0.126
BoiseState,17,25,8,0.207
ColoradoState,24,18,-6,0.180
NewMexico,101,107,6,-0.113
UtahState,47,38,-9,0.085
Wyoming,103,102,-1,-0.127
FresnoState,89,93,4,-0.055
Hawaii,102,101,-1,-0.121
Nevada,58,59,1,0.062
SanDiegoState,61,67,6,0.057
SanJoseState,106,104,-2,-0.144
UNLV,124,124,0,-0.258
California,81,80,-1,-0.021
Oregon,1,1,0,0.337
OregonState,90,85,-5,-0.056
Stanford,26,35,9,0.149
Washington,50,53,3,0.081
WashingtonState,100,98,-2,-0.107
Arizona,15,16,1,0.217
ArizonaState,25,20,-5,0.178
Colorado,107,108,1,-0.145
UCLA,28,23,-5,0.143
USC,22,27,5,0.185
Utah,42,41,-1,0.101
Florida,54,48,-6,0.076
Georgia,8,5,-3,0.267
Kentucky,70,65,-5,0.018
Missouri,21,22,1,0.187
SouthCarolina,71,58,-13,0.017
Tennessee,41,39,-2,0.104
Vanderbilt,118,118,0,-0.208
Alabama,6,8,2,0.283
Arkansas,34,28,-6,0.125
Auburn,19,15,-4,0.190
LSU,44,47,3,0.099
MississippiState,10,4,-6,0.262
OleMiss,3,6,3,0.304
TexasAM,38,29,-9,0.111
AppalachianState,84,86,2,-0.031
ArkansasState,62,62,0,0.055
GeorgiaSouthern,30,32,2,0.138
GeorgiaState,126,126,0,-0.270
Idaho,125,125,0,-0.268
LouisianaLafayette,67,75,8,0.033
LouisianaMonroe,91,88,-3,-0.059
NewMexicoState,121,121,0,-0.227
SouthAlabama,88,87,-1,-0.051
TexasState,65,71,6,0.039
Troy,120,120,0,-0.216
FCS,128,128,0,-0.318
