Team,Rank,PrevRank,DeltaRank,RankScore
Cincinnati,54,67,13,0.061
Connecticut,119,127,8,-0.205
EastCarolina,33,23,-10,0.145
Houston,60,76,16,0.052
Memphis,31,34,3,0.159
SouthernMethodist,129,129,0,-0.366
SouthFlorida,104,103,-1,-0.131
Temple,44,57,13,0.095
Tulane,117,113,-4,-0.189
Tulsa,110,107,-3,-0.159
UCF,58,48,-10,0.055
BostonCollege,49,50,1,0.076
Clemson,35,33,-2,0.139
FloridaState,12,13,1,0.272
Louisville,22,19,-3,0.192
NorthCarolinaState,68,69,1,0.035
Syracuse,92,91,-1,-0.054
WakeForest,108,109,1,-0.153
Duke,19,21,2,0.203
GeorgiaTech,24,28,4,0.186
MiamiFL,28,37,9,0.164
NorthCarolina,86,71,-15,-0.029
Pittsburgh,65,54,-11,0.041
Virginia,80,66,-14,-0.004
VirginiaTech,47,42,-5,0.092
Indiana,88,82,-6,-0.044
Maryland,42,38,-4,0.111
Michigan,64,77,13,0.043
MichiganState,7,8,1,0.301
OhioState,6,9,3,0.315
PennState,66,55,-11,0.038
Rutgers,82,62,-20,-0.007
Illinois,87,88,1,-0.042
Iowa,37,46,9,0.125
Minnesota,41,39,-2,0.115
Nebraska,9,10,1,0.290
Northwestern,89,85,-4,-0.046
Purdue,83,72,-11,-0.008
Wisconsin,17,22,5,0.232
Baylor,15,17,2,0.256
IowaState,118,116,-2,-0.198
Kansas,112,108,-4,-0.168
KansasState,14,15,1,0.266
Oklahoma,10,14,4,0.281
OklahomaState,90,86,-4,-0.046
TCU,13,11,-2,0.271
Texas,53,68,15,0.063
TexasTech,101,98,-3,-0.113
WestVirginia,40,35,-5,0.124
FloridaAtlantic,114,115,1,-0.170
FloridaInternational,103,100,-3,-0.128
Marshall,5,3,-2,0.325
MiddleTennessee,55,40,-15,0.061
OldDominion,97,93,-4,-0.097
WesternKentucky,70,45,-25,0.029
UAB,76,74,-2,0.007
LouisianaTech,63,84,21,0.046
NorthTexas,123,124,1,-0.222
Rice,75,87,12,0.007
SouthernMiss,115,112,-3,-0.177
UTEP,62,73,11,0.046
UTSA,93,95,2,-0.054
Army,120,121,1,-0.213
BrighamYoung,59,81,22,0.054
Navy,78,70,-8,0.004
NotreDame,11,12,1,0.281
Akron,71,64,-7,0.021
BowlingGreen,96,97,1,-0.079
Buffalo,94,94,0,-0.063
KentState,121,122,1,-0.215
Massachusetts,109,111,2,-0.156
MiamiOH,116,110,-6,-0.178
Ohio,99,99,0,-0.099
BallState,79,80,1,-0.003
CentralMichigan,69,78,9,0.031
EasternMichigan,125,123,-2,-0.247
NorthernIllinois,57,52,-5,0.058
Toledo,61,59,-2,0.048
WesternMichigan,51,53,2,0.067
AirForce,38,44,6,0.124
BoiseState,32,36,4,0.146
ColoradoState,23,24,1,0.186
NewMexico,100,106,6,-0.108
UtahState,52,60,8,0.066
Wyoming,95,105,10,-0.069
FresnoState,106,101,-5,-0.139
Hawaii,105,104,-1,-0.132
Nevada,43,49,6,0.099
SanDiegoState,81,61,-20,-0.007
SanJoseState,84,83,-1,-0.013
UNLV,126,125,-1,-0.256
California,67,75,8,0.036
Oregon,3,6,3,0.333
OregonState,85,63,-22,-0.013
Stanford,36,26,-10,0.130
Washington,48,51,3,0.080
WashingtonState,98,96,-2,-0.099
Arizona,21,16,-5,0.195
ArizonaState,18,20,2,0.228
Colorado,102,102,0,-0.117
UCLA,34,41,7,0.140
USC,25,25,0,0.183
Utah,20,18,-2,0.196
Florida,56,90,34,0.060
Georgia,16,5,-11,0.243
Kentucky,39,31,-8,0.124
Missouri,26,30,4,0.177
SouthCarolina,73,65,-8,0.013
Tennessee,45,47,2,0.094
Vanderbilt,113,120,7,-0.169
Alabama,8,7,-1,0.299
Arkansas,46,43,-3,0.092
Auburn,4,4,0,0.327
LSU,29,32,3,0.162
MississippiState,1,1,0,0.374
OleMiss,2,2,0,0.346
TexasAM,30,29,-1,0.160
AppalachianState,107,118,11,-0.144
ArkansasState,50,56,6,0.068
GeorgiaSouthern,27,27,0,0.173
GeorgiaState,124,117,-7,-0.229
Idaho,122,119,-3,-0.219
LouisianaLafayette,72,89,17,0.018
LouisianaMonroe,91,92,1,-0.051
NewMexicoState,111,114,3,-0.167
SouthAlabama,77,58,-19,0.006
TexasState,74,79,5,0.012
Troy,127,126,-1,-0.272
FCS,128,128,0,-0.312
