Team,Rank,PrevRank,DeltaRank,RankScore
Cincinnati,87,84,-3,0.000
Connecticut,108,115,7,-0.106
EastCarolina,71,15,-56,0.083
Houston,94,109,15,-0.029
Memphis,53,7,-46,0.145
SouthernMethodist,129,126,-3,-0.405
SouthFlorida,83,71,-12,0.017
Temple,72,27,-45,0.080
Tulane,118,97,-21,-0.200
Tulsa,84,67,-17,0.008
UCF,96,91,-5,-0.031
BostonCollege,77,41,-36,0.055
Clemson,97,114,17,-0.036
FloridaState,34,70,36,0.203
Louisville,16,46,30,0.321
NorthCarolinaState,61,80,19,0.113
Syracuse,82,81,-1,0.017
WakeForest,89,98,9,-0.004
Duke,30,25,-5,0.219
GeorgiaTech,41,50,9,0.185
MiamiFL,100,108,8,-0.046
NorthCarolina,23,39,16,0.260
Pittsburgh,15,8,-7,0.332
Virginia,81,101,20,0.023
VirginiaTech,20,43,23,0.306
Indiana,42,52,10,0.183
Maryland,19,16,-3,0.309
Michigan,47,9,-38,0.159
MichiganState,66,26,-40,0.095
OhioState,48,49,1,0.152
PennState,54,78,24,0.140
Rutgers,69,76,7,0.085
Illinois,35,57,22,0.202
Iowa,51,64,13,0.148
Minnesota,36,45,9,0.201
Nebraska,37,2,-35,0.201
Northwestern,112,100,-12,-0.134
Purdue,85,60,-25,0.003
Wisconsin,80,94,14,0.035
Baylor,26,4,-22,0.248
IowaState,126,129,3,-0.306
Kansas,68,86,18,0.088
KansasState,43,24,-19,0.179
Oklahoma,2,19,17,0.463
OklahomaState,86,96,10,0.000
TCU,28,29,1,0.232
Texas,7,23,16,0.366
TexasTech,55,69,14,0.137
WestVirginia,88,103,15,-0.004
FloridaAtlantic,124,127,3,-0.296
FloridaInternational,105,95,-10,-0.097
Marshall,40,53,13,0.190
MiddleTennessee,25,11,-14,0.250
OldDominion,75,56,-19,0.067
WesternKentucky,44,28,-16,0.175
UAB,60,10,-50,0.113
LouisianaTech,98,121,23,-0.036
NorthTexas,101,120,19,-0.051
Rice,119,119,0,-0.211
SouthernMiss,121,128,7,-0.230
UTEP,78,65,-13,0.046
UTSA,18,44,26,0.311
Army,32,87,55,0.211
BrighamYoung,13,34,21,0.341
Navy,109,106,-3,-0.110
NotreDame,4,21,17,0.408
Akron,65,20,-45,0.104
BowlingGreen,111,116,5,-0.132
Buffalo,74,59,-15,0.070
KentState,110,92,-18,-0.126
Massachusetts,125,111,-14,-0.302
MiamiOH,113,105,-8,-0.135
Ohio,95,75,-20,-0.030
BallState,63,47,-16,0.108
CentralMichigan,45,74,29,0.169
EasternMichigan,90,77,-13,-0.004
NorthernIllinois,33,12,-21,0.204
Toledo,70,30,-40,0.084
WesternMichigan,117,102,-15,-0.193
AirForce,58,38,-20,0.126
BoiseState,93,110,17,-0.025
ColoradoState,76,54,-22,0.058
NewMexico,120,99,-21,-0.229
UtahState,99,118,19,-0.045
Wyoming,62,72,10,0.112
FresnoState,122,124,2,-0.262
Hawaii,103,89,-14,-0.063
Nevada,57,61,4,0.126
SanDiegoState,56,33,-23,0.130
SanJoseState,67,31,-36,0.093
UNLV,114,125,11,-0.136
California,49,66,17,0.149
Oregon,10,13,3,0.358
OregonState,50,55,5,0.148
Stanford,52,17,-35,0.147
Washington,79,79,0,0.045
WashingtonState,107,93,-14,-0.102
Arizona,5,3,-2,0.395
ArizonaState,29,32,3,0.229
Colorado,116,104,-12,-0.173
UCLA,38,63,25,0.200
USC,21,6,-15,0.280
Utah,27,18,-9,0.239
Florida,1,88,87,0.487
Georgia,14,37,23,0.336
Kentucky,12,14,2,0.350
Missouri,17,48,31,0.313
SouthCarolina,102,112,10,-0.060
Tennessee,6,22,16,0.389
Vanderbilt,128,117,-11,-0.387
Alabama,22,58,36,0.265
Arkansas,92,113,21,-0.016
Auburn,3,36,33,0.415
LSU,39,73,34,0.197
MississippiState,8,1,-7,0.362
OleMiss,9,42,33,0.360
TexasAM,11,35,24,0.355
AppalachianState,115,122,7,-0.145
ArkansasState,64,40,-24,0.105
GeorgiaSouthern,73,90,17,0.077
GeorgiaState,91,82,-9,-0.005
Idaho,104,85,-19,-0.092
LouisianaLafayette,106,62,-44,-0.101
LouisianaMonroe,46,68,22,0.166
NewMexicoState,31,51,20,0.218
SouthAlabama,59,83,24,0.120
TexasState,24,5,-19,0.253
Troy,127,123,-4,-0.347
FCS,123,107,-16,-0.277
