Team,Rank,PrevRank,DeltaRank,RankScore
Cincinnati,81,64,-17,-0.015
Connecticut,120,118,-2,-0.228
EastCarolina,26,27,1,0.199
Houston,106,88,-18,-0.109
Memphis,27,41,14,0.197
SouthernMethodist,129,129,0,-0.323
SouthFlorida,105,98,-7,-0.105
Temple,35,36,1,0.155
Tulane,115,113,-2,-0.191
Tulsa,101,89,-12,-0.098
UCF,74,90,16,0.005
BostonCollege,69,66,-3,0.036
Clemson,49,76,27,0.107
FloridaState,10,19,9,0.280
Louisville,13,20,7,0.264
NorthCarolinaState,52,30,-22,0.104
Syracuse,88,80,-8,-0.045
WakeForest,107,100,-7,-0.114
Duke,36,39,3,0.150
GeorgiaTech,22,28,6,0.216
MiamiFL,67,57,-10,0.061
NorthCarolina,89,81,-8,-0.047
Pittsburgh,60,51,-9,0.086
Virginia,56,58,2,0.093
VirginiaTech,28,37,9,0.191
Indiana,59,67,8,0.086
Maryland,34,22,-12,0.158
Michigan,78,83,5,-0.009
MichiganState,15,17,2,0.263
OhioState,14,26,12,0.263
PennState,55,60,5,0.100
Rutgers,47,50,3,0.114
Illinois,82,68,-14,-0.015
Iowa,50,54,4,0.107
Minnesota,32,38,6,0.167
Nebraska,17,9,-8,0.254
Northwestern,62,65,3,0.079
Purdue,70,84,14,0.027
Wisconsin,43,32,-11,0.123
Baylor,6,10,4,0.310
IowaState,122,120,-2,-0.248
Kansas,110,94,-16,-0.134
KansasState,24,31,7,0.214
Oklahoma,8,4,-4,0.298
OklahomaState,53,59,6,0.102
TCU,7,11,4,0.303
Texas,40,18,-22,0.140
TexasTech,99,91,-8,-0.092
WestVirginia,65,70,5,0.066
FloridaAtlantic,121,109,-12,-0.228
FloridaInternational,93,111,18,-0.064
Marshall,5,13,8,0.346
MiddleTennessee,41,40,-1,0.139
OldDominion,77,72,-5,-0.005
WesternKentucky,46,43,-3,0.120
UAB,68,79,11,0.053
LouisianaTech,91,110,19,-0.062
NorthTexas,112,99,-13,-0.142
Rice,94,105,11,-0.067
SouthernMiss,116,117,1,-0.196
UTEP,97,75,-22,-0.079
UTSA,75,42,-33,-0.001
Army,102,112,10,-0.101
BrighamYoung,44,21,-23,0.123
Navy,90,87,-3,-0.057
NotreDame,4,3,-1,0.349
Akron,45,62,17,0.120
BowlingGreen,104,106,2,-0.105
Buffalo,83,85,2,-0.018
KentState,118,123,5,-0.215
Massachusetts,123,127,4,-0.268
MiamiOH,114,116,2,-0.179
Ohio,92,82,-10,-0.063
BallState,98,92,-6,-0.082
CentralMichigan,86,103,17,-0.040
EasternMichigan,117,114,-3,-0.212
NorthernIllinois,61,56,-5,0.083
Toledo,64,63,-1,0.066
WesternMichigan,95,101,6,-0.071
AirForce,31,33,2,0.182
BoiseState,57,69,12,0.090
ColoradoState,33,47,14,0.162
NewMexico,109,115,6,-0.126
UtahState,84,104,20,-0.027
Wyoming,87,86,-1,-0.040
FresnoState,96,107,11,-0.071
Hawaii,108,95,-13,-0.117
Nevada,63,52,-11,0.075
SanDiegoState,85,73,-12,-0.027
SanJoseState,79,93,14,-0.014
UNLV,127,124,-3,-0.300
California,42,46,4,0.127
Oregon,12,6,-6,0.269
OregonState,54,53,-1,0.101
Stanford,29,23,-6,0.190
Washington,48,48,0,0.109
WashingtonState,76,77,1,-0.002
Arizona,9,12,3,0.286
ArizonaState,30,35,5,0.182
Colorado,100,102,2,-0.094
UCLA,21,14,-7,0.226
USC,23,16,-7,0.215
Utah,20,24,4,0.243
Florida,58,55,-3,0.088
Georgia,19,25,6,0.246
Kentucky,18,15,-3,0.248
Missouri,25,29,4,0.202
SouthCarolina,73,71,-2,0.010
Tennessee,37,44,7,0.146
Vanderbilt,119,119,0,-0.226
Alabama,11,7,-4,0.270
Arkansas,39,45,6,0.142
Auburn,1,1,0,0.414
LSU,51,34,-17,0.104
MississippiState,3,5,2,0.375
OleMiss,2,2,0,0.404
TexasAM,16,8,-8,0.259
AppalachianState,126,121,-5,-0.276
ArkansasState,66,78,12,0.062
GeorgiaSouthern,38,49,11,0.143
GeorgiaState,111,108,-3,-0.141
Idaho,124,126,2,-0.268
LouisianaLafayette,113,122,9,-0.164
LouisianaMonroe,72,61,-11,0.019
NewMexicoState,103,97,-6,-0.102
SouthAlabama,80,96,16,-0.014
TexasState,71,74,3,0.020
Troy,125,125,0,-0.271
FCS,128,128,0,-0.306
