{
  "points": [
    29.048060099482164,
    7.197994337161476
  ],
  "first downs": [
    19.869830187525025,
    4.169191303253486
  ],
  "rushing yards": [
    175.56254068918037,
    52.07225833398261
  ],
  "rushing attempts": [
    39.11789871930813,
    6.091588949265222
  ],
  "passing yards": [
    231.2471821423909,
    60.90228196827655
  ],
  "passing attempts": [
    31.593704647242095,
    7.211971763176962
  ],
  "total yards": [
    406.7241504705371,
    62.845029290855685
  ],
  "total plays": [
    70.71160336655024,
    5.15898737379262
  ],
  "total fumbles": [
    1.2242056166954953,
    0.400133890575741
  ],
  "lost fumbles": [
    0.6175798358187022,
    0.24380981588561174
  ],
  "penalties": [
    6.028659990060547,
    1.231780710211297
  ],
  "penalty yards": [
    53.65454180322601,
    11.404684065720245
  ],
  "punts": [
    4.903436398003706,
    0.9803055954267704
  ],
  "punt yards": [
    204.24365528407154,
    41.226521224738825
  ],
  "punt returns": [
    1.5003767014305982,
    0.5421194789479135
  ],
  "punt return yards": [
    12.799590840024797,
    7.491319005290075
  ],
  "kickoff returns": [
    2.827874055487922,
    0.8760725369228576
  ],
  "kickoff return yards": [
    59.395349406975164,
    19.402534388313644
  ],
  "interception returns": [
    0.8755098394913678,
    0.32288715283029146
  ],
  "interception return yards": [
    10.586990632933194,
    6.805190687737848
  ],
  "third down convs": [
    5.428736525367345,
    1.1905349024695944
  ],
  "third down atts": [
    13.623066000435687,
    2.2307534733808865
  ],
  "fourth down convs": [
    0.7977146727260593,
    0.37465194006652697
  ],
  "fourth down atts": [
    1.5277204857670446,
    0.5733016078552863
  ]
}