Division,Score
B1G_East,0.237
Pac12_North,0.178
AAC_West,0.168
Pac12_South,0.152
ACC_Atlantic,0.143
SEC_West,0.138
SEC_East,0.104
MAC_West,0.102
B1G_West,0.101
ACC_Coastal,0.081
Big12,0.069
MountainWest_Mountain,0.066
AAC_East,0.066
Independents,0.052
MountainWest_West,-0.059
CUSA_West,-0.072
SunBelt,-0.085
CUSA_East,-0.110
MAC_East,-0.125
FCS,-0.312
