Team,Rank,PrevRank,DeltaRank,RankScore
Cincinnati,84,75,-9,-0.029
Connecticut,88,101,13,-0.033
EastCarolina,101,95,-6,-0.089
SouthFlorida,22,21,-1,0.221
Temple,61,55,-6,0.066
UCF,36,35,-1,0.134
Houston,8,3,-5,0.304
Memphis,31,36,5,0.158
Navy,29,38,9,0.159
SouthernMethodist,103,105,2,-0.097
Tulane,62,66,4,0.065
Tulsa,40,44,4,0.122
BostonCollege,75,62,-13,0.016
Clemson,5,10,5,0.343
FloridaState,30,28,-2,0.159
Louisville,7,11,4,0.323
NorthCarolinaState,15,12,-3,0.268
Syracuse,107,104,-3,-0.120
WakeForest,32,47,15,0.156
Duke,83,98,15,-0.020
GeorgiaTech,68,46,-22,0.054
MiamiFL,13,4,-9,0.276
NorthCarolina,57,39,-18,0.070
Pittsburgh,46,56,10,0.106
Virginia,94,96,2,-0.053
VirginiaTech,9,15,6,0.299
Indiana,59,41,-18,0.069
Maryland,21,9,-12,0.222
Michigan,1,1,0,0.476
MichiganState,95,78,-17,-0.054
OhioState,2,2,0,0.465
PennState,34,67,33,0.137
Rutgers,93,89,-4,-0.053
Illinois,104,94,-10,-0.099
Iowa,48,64,16,0.098
Minnesota,51,40,-11,0.091
Nebraska,11,13,2,0.282
Northwestern,72,77,5,0.042
Purdue,85,87,2,-0.029
Wisconsin,24,24,0,0.201
Baylor,16,18,2,0.250
IowaState,111,108,-3,-0.138
Kansas,114,115,1,-0.165
KansasState,39,53,14,0.128
Oklahoma,56,59,3,0.078
OklahomaState,37,34,-3,0.131
TCU,47,43,-4,0.100
Texas,89,86,-3,-0.043
TexasTech,41,26,-15,0.121
WestVirginia,26,29,3,0.183
Charlotte,115,121,6,-0.183
FloridaAtlantic,118,118,0,-0.200
FloridaInternational,119,124,5,-0.202
Marshall,120,112,-8,-0.205
MiddleTennessee,42,49,7,0.120
OldDominion,50,73,23,0.092
WesternKentucky,77,74,-3,0.004
LouisianaTech,70,72,2,0.050
NorthTexas,100,106,6,-0.073
Rice,129,127,-2,-0.325
SouthernMiss,53,30,-23,0.084
UTEP,128,126,-2,-0.324
UTSA,74,103,29,0.018
Army,54,27,-27,0.084
BrighamYoung,69,85,16,0.053
Massachusetts,122,114,-8,-0.213
NotreDame,76,71,-5,0.012
Akron,67,76,9,0.059
BowlingGreen,116,116,0,-0.193
Buffalo,126,125,-1,-0.310
KentState,98,107,9,-0.066
MiamiOH,123,122,-1,-0.251
Ohio,63,65,2,0.063
BallState,79,84,5,-0.008
CentralMichigan,65,69,4,0.062
EasternMichigan,73,68,-5,0.021
NorthernIllinois,112,111,-1,-0.143
Toledo,17,31,14,0.239
WesternMichigan,10,8,-2,0.296
AirForce,25,17,-8,0.185
BoiseState,12,19,7,0.281
ColoradoState,87,97,10,-0.033
NewMexico,92,79,-13,-0.052
UtahState,97,91,-6,-0.060
Wyoming,44,63,19,0.116
FresnoState,117,117,0,-0.198
Hawaii,96,102,6,-0.055
Nevada,109,113,4,-0.126
SanDiegoState,38,54,16,0.129
SanJoseState,125,123,-2,-0.258
UNLV,102,92,-10,-0.090
California,64,57,-7,0.063
Oregon,81,70,-11,-0.014
OregonState,90,100,10,-0.048
Stanford,52,25,-27,0.085
Washington,4,6,2,0.369
WashingtonState,20,32,12,0.224
Arizona,86,82,-4,-0.032
ArizonaState,35,37,2,0.134
Colorado,28,22,-6,0.165
UCLA,55,52,-3,0.080
USC,49,58,9,0.093
Utah,33,50,17,0.142
Florida,19,20,1,0.227
Georgia,71,80,9,0.045
Kentucky,80,90,10,-0.011
Missouri,66,61,-5,0.061
SouthCarolina,106,99,-7,-0.107
Tennessee,18,14,-4,0.232
Vanderbilt,99,88,-11,-0.067
Alabama,3,5,2,0.410
Arkansas,60,51,-9,0.068
Auburn,27,42,15,0.174
LSU,43,45,2,0.119
MississippiState,78,60,-18,-0.007
OleMiss,23,23,0,0.219
TexasAM,6,7,1,0.326
AppalachianState,45,48,3,0.115
ArkansasState,124,129,5,-0.255
GeorgiaSouthern,58,33,-25,0.069
GeorgiaState,108,120,12,-0.122
Idaho,105,109,4,-0.104
LouisianaLafayette,91,93,2,-0.052
LouisianaMonroe,113,110,-3,-0.149
NewMexicoState,121,119,-2,-0.207
SouthAlabama,82,83,1,-0.015
TexasState,110,81,-29,-0.134
Troy,14,16,2,0.271
FCS,127,128,1,-0.318
