Team,Rank,PrevRank,DeltaRank,RankScore
Cincinnati,84,84,0,-0.026
Connecticut,92,88,-4,-0.057
EastCarolina,107,101,-6,-0.110
SouthFlorida,14,22,8,0.238
Temple,58,61,3,0.069
UCF,51,36,-15,0.085
Houston,9,8,-1,0.291
Memphis,25,31,6,0.168
Navy,34,29,-5,0.137
SouthernMethodist,103,103,0,-0.100
Tulane,72,62,-10,0.013
Tulsa,52,40,-12,0.082
BostonCollege,75,75,0,0.004
Clemson,5,5,0,0.335
FloridaState,24,30,6,0.180
Louisville,7,7,0,0.324
NorthCarolinaState,22,15,-7,0.189
Syracuse,94,107,13,-0.063
WakeForest,47,32,-15,0.096
Duke,88,83,-5,-0.044
GeorgiaTech,48,68,20,0.086
MiamiFL,19,13,-6,0.215
NorthCarolina,50,57,7,0.086
Pittsburgh,37,46,9,0.134
Virginia,100,94,-6,-0.091
VirginiaTech,23,9,-14,0.181
Indiana,66,59,-7,0.044
Maryland,41,21,-20,0.123
Michigan,2,1,-1,0.447
MichiganState,105,95,-10,-0.106
OhioState,3,2,-1,0.423
PennState,38,34,-4,0.133
Rutgers,102,93,-9,-0.100
Illinois,86,104,18,-0.038
Iowa,36,48,12,0.134
Minnesota,31,51,20,0.140
Nebraska,10,11,1,0.273
Northwestern,56,72,16,0.078
Purdue,97,85,-12,-0.076
Wisconsin,29,24,-5,0.149
Baylor,13,16,3,0.247
IowaState,113,111,-2,-0.162
Kansas,119,114,-5,-0.197
KansasState,62,39,-23,0.054
Oklahoma,32,56,24,0.139
OklahomaState,35,37,2,0.136
TCU,46,47,1,0.096
Texas,77,89,12,0.003
TexasTech,65,41,-24,0.047
WestVirginia,16,26,10,0.224
Charlotte,115,115,0,-0.172
FloridaAtlantic,123,118,-5,-0.208
FloridaInternational,118,119,1,-0.189
Marshall,111,120,9,-0.151
MiddleTennessee,44,42,-2,0.105
OldDominion,53,50,-3,0.080
WesternKentucky,64,77,13,0.048
LouisianaTech,55,70,15,0.078
NorthTexas,95,100,5,-0.071
Rice,126,129,3,-0.274
SouthernMiss,71,53,-18,0.014
UTEP,128,128,0,-0.312
UTSA,80,74,-6,-0.014
Army,42,54,12,0.121
BrighamYoung,60,69,9,0.063
Massachusetts,125,122,-3,-0.248
NotreDame,82,76,-6,-0.017
Akron,69,67,-2,0.024
BowlingGreen,117,116,-1,-0.188
Buffalo,127,126,-1,-0.309
KentState,104,98,-6,-0.105
MiamiOH,122,123,1,-0.208
Ohio,68,63,-5,0.029
BallState,74,79,5,0.007
CentralMichigan,59,65,6,0.065
EasternMichigan,67,73,6,0.041
NorthernIllinois,109,112,3,-0.137
Toledo,18,17,-1,0.220
WesternMichigan,6,10,4,0.332
AirForce,43,25,-18,0.116
BoiseState,11,12,1,0.265
ColoradoState,83,87,4,-0.019
NewMexico,78,92,14,-0.005
UtahState,93,97,4,-0.058
Wyoming,45,44,-1,0.105
FresnoState,121,117,-4,-0.203
Hawaii,98,96,-2,-0.084
Nevada,112,109,-3,-0.153
SanDiegoState,40,38,-2,0.126
SanJoseState,120,125,5,-0.202
UNLV,91,102,11,-0.054
California,61,64,3,0.058
Oregon,81,81,0,-0.014
OregonState,90,90,0,-0.048
Stanford,49,52,3,0.086
Washington,4,4,0,0.367
WashingtonState,17,20,3,0.223
Arizona,99,86,-13,-0.085
ArizonaState,57,35,-22,0.070
Colorado,20,28,8,0.205
UCLA,63,55,-8,0.050
USC,33,49,16,0.138
Utah,30,33,3,0.146
Florida,12,19,7,0.247
Georgia,73,71,-2,0.013
Kentucky,79,80,1,-0.010
Missouri,76,66,-10,0.003
SouthCarolina,108,106,-2,-0.119
Tennessee,27,18,-9,0.163
Vanderbilt,89,99,10,-0.046
Alabama,1,3,2,0.448
Arkansas,54,60,6,0.080
Auburn,21,27,6,0.194
LSU,26,43,17,0.165
MississippiState,87,78,-9,-0.040
OleMiss,28,23,-5,0.161
TexasAM,8,6,-2,0.314
AppalachianState,39,45,6,0.130
ArkansasState,116,124,8,-0.173
GeorgiaSouthern,70,58,-12,0.024
GeorgiaState,110,108,-2,-0.143
Idaho,85,105,20,-0.033
LouisianaLafayette,106,91,-15,-0.109
LouisianaMonroe,101,113,12,-0.096
NewMexicoState,124,121,-3,-0.232
SouthAlabama,96,82,-14,-0.075
TexasState,114,110,-4,-0.164
Troy,15,14,-1,0.238
FCS,129,127,-2,-0.326
