Team,Rank,PrevRank,DeltaRank,RankScore
Cincinnati,100,99,-1,-0.119
Connecticut,123,123,0,-0.210
EastCarolina,113,113,0,-0.175
SouthFlorida,15,15,0,0.200
Temple,13,13,0,0.206
UCF,56,56,0,0.042
Houston,18,18,0,0.189
Memphis,40,40,0,0.114
Navy,47,39,-8,0.098
SouthernMethodist,88,87,-1,-0.063
Tulane,94,94,0,-0.095
Tulsa,29,27,-2,0.146
BostonCollege,75,75,0,-0.021
Clemson,6,6,0,0.302
FloridaState,16,16,0,0.199
Louisville,9,9,0,0.235
NorthCarolinaState,54,54,0,0.053
Syracuse,103,103,0,-0.127
WakeForest,79,79,0,-0.028
Duke,98,98,0,-0.102
GeorgiaTech,50,50,0,0.070
MiamiFL,20,20,0,0.184
NorthCarolina,45,46,1,0.101
Pittsburgh,39,41,2,0.115
Virginia,122,121,-1,-0.202
VirginiaTech,35,35,0,0.128
Indiana,73,73,0,-0.013
Maryland,69,69,0,-0.002
Michigan,4,4,0,0.327
MichiganState,96,96,0,-0.099
OhioState,3,3,0,0.332
PennState,7,7,0,0.251
Rutgers,119,119,0,-0.190
Illinois,112,112,0,-0.171
Iowa,37,37,0,0.126
Minnesota,43,44,1,0.109
Nebraska,31,31,0,0.142
Northwestern,52,52,0,0.057
Purdue,116,116,0,-0.178
Wisconsin,14,14,0,0.203
Baylor,64,63,-1,0.011
IowaState,101,100,-1,-0.120
Kansas,126,125,-1,-0.233
KansasState,42,43,1,0.110
Oklahoma,8,8,0,0.237
OklahomaState,28,29,1,0.147
TCU,63,62,-1,0.025
Texas,76,76,0,-0.022
TexasTech,74,74,0,-0.018
WestVirginia,25,25,0,0.155
Charlotte,105,105,0,-0.129
FloridaAtlantic,118,118,0,-0.184
FloridaInternational,115,115,0,-0.177
Marshall,117,117,0,-0.183
MiddleTennessee,55,55,0,0.045
OldDominion,41,42,1,0.114
WesternKentucky,10,10,0,0.219
LouisianaTech,44,45,1,0.107
NorthTexas,99,101,2,-0.118
Rice,121,122,1,-0.202
SouthernMiss,71,71,0,-0.007
UTEP,114,114,0,-0.175
UTSA,67,66,-1,0.003
Army,59,64,5,0.030
BrighamYoung,36,36,0,0.126
Massachusetts,124,124,0,-0.219
NotreDame,65,65,0,0.009
Akron,91,91,0,-0.077
BowlingGreen,104,104,0,-0.128
Buffalo,127,127,0,-0.281
KentState,106,106,0,-0.131
MiamiOH,82,82,0,-0.042
Ohio,53,53,0,0.055
BallState,92,92,0,-0.088
CentralMichigan,80,80,0,-0.033
EasternMichigan,70,70,0,-0.006
NorthernIllinois,77,77,0,-0.026
Toledo,21,21,0,0.177
WesternMichigan,5,5,0,0.309
AirForce,38,38,0,0.123
BoiseState,12,12,0,0.213
ColoradoState,48,48,0,0.097
NewMexico,51,51,0,0.063
UtahState,97,97,0,-0.101
Wyoming,49,49,0,0.071
FresnoState,125,126,1,-0.232
Hawaii,95,95,0,-0.098
Nevada,102,102,0,-0.123
SanDiegoState,26,26,0,0.152
SanJoseState,110,110,0,-0.146
UNLV,107,107,0,-0.137
California,83,83,0,-0.044
Oregon,87,88,1,-0.063
OregonState,90,90,0,-0.067
Stanford,24,24,0,0.163
Washington,2,2,0,0.343
WashingtonState,30,30,0,0.143
Arizona,109,109,0,-0.144
ArizonaState,93,93,0,-0.092
Colorado,19,19,0,0.188
UCLA,84,84,0,-0.046
USC,11,11,0,0.217
Utah,46,47,1,0.101
Florida,34,34,0,0.136
Georgia,57,57,0,0.031
Kentucky,60,59,-1,0.030
Missouri,89,89,0,-0.064
SouthCarolina,86,86,0,-0.054
Tennessee,32,32,0,0.140
Vanderbilt,62,61,-1,0.026
Alabama,1,1,0,0.423
Arkansas,66,67,1,0.003
Auburn,22,22,0,0.174
LSU,23,23,0,0.167
MississippiState,68,68,0,-0.000
OleMiss,72,72,0,-0.008
TexasAM,33,33,0,0.138
AppalachianState,17,17,0,0.196
ArkansasState,61,60,-1,0.026
GeorgiaSouthern,85,85,0,-0.049
GeorgiaState,108,108,0,-0.142
Idaho,58,58,0,0.030
LouisianaLafayette,78,78,0,-0.027
LouisianaMonroe,111,111,0,-0.147
NewMexicoState,120,120,0,-0.195
SouthAlabama,81,81,0,-0.038
TexasState,128,128,0,-0.296
Troy,27,28,1,0.147
FCS,129,129,0,-0.351
